<?xml version="1.0" encoding="utf-8"?>
<!-- Generator: Adobe Illustrator 23.0.1, SVG Export Plug-In . SVG Version: 6.00 Build 0)  -->
<svg version="1.1" id="Layer_1" xmlns="http://www.w3.org/2000/svg" xmlns:xlink="http://www.w3.org/1999/xlink" x="0px" y="0px"
	 viewBox="0 0 201.4 150" style="enable-background:new 0 0 201.4 150;" xml:space="preserve">
<style type="text/css">
	.st0{fill:#CCCCCC;}
	.st1{fill:#59422F;}
	.st2{fill:#73553D;}
	.st3{fill:#659348;}
	.st4{fill:#5C8740;}
	.st5{fill:#FCC10B;}
	.st6{fill:#A8583D;}
	.st7{fill:#2D3449;}
	.st8{fill:#5E5E5E;}
	.st9{fill-rule:evenodd;clip-rule:evenodd;fill:#A82070;}
	.st10{clip-path:url(#SVGID_2_);fill-rule:evenodd;clip-rule:evenodd;fill:#EEEEEE;}
	.st11{clip-path:url(#SVGID_2_);fill-rule:evenodd;clip-rule:evenodd;fill:#FFFFFF;}
	.st12{fill-rule:evenodd;clip-rule:evenodd;fill:#FFFFFF;}
	.st13{fill:#FFFFFF;}
	.st14{fill-rule:evenodd;clip-rule:evenodd;fill:#C0C0C0;}
	.st15{fill:#E5E5E5;}
	.st16{fill:#D0D0D0;}
	.st17{opacity:0.37;clip-path:url(#SVGID_4_);fill-rule:evenodd;clip-rule:evenodd;fill:#6CBC60;}
	.st18{fill-rule:evenodd;clip-rule:evenodd;fill:#494949;}
	.st19{fill:#494949;}
	.st20{fill-rule:evenodd;clip-rule:evenodd;fill:#FFB31E;}
	.st21{fill-rule:evenodd;clip-rule:evenodd;fill:#FF1E1E;}
	.st22{fill-rule:evenodd;clip-rule:evenodd;fill:#4D4D4D;}
	.st23{fill-rule:evenodd;clip-rule:evenodd;fill:#332C2B;}
	.st24{fill-rule:evenodd;clip-rule:evenodd;fill:#5C402C;}
	.st25{fill-rule:evenodd;clip-rule:evenodd;fill:#3E3641;}
	.st26{fill-rule:evenodd;clip-rule:evenodd;fill:#A46830;}
	.st27{fill-rule:evenodd;clip-rule:evenodd;fill:#B47735;}
	.st28{opacity:0.4;fill-rule:evenodd;clip-rule:evenodd;}
	.st29{fill-rule:evenodd;clip-rule:evenodd;fill:#F6F1EC;}
	.st30{fill-rule:evenodd;clip-rule:evenodd;fill:#BE7736;}
	.st31{fill-rule:evenodd;clip-rule:evenodd;fill:#C6823B;}
	.st32{opacity:0.4;clip-path:url(#SVGID_6_);fill-rule:evenodd;clip-rule:evenodd;}
	.st33{fill-rule:evenodd;clip-rule:evenodd;fill:#009BCB;}
	.st34{fill-rule:evenodd;clip-rule:evenodd;fill:#CBCBCB;}
	.st35{fill-rule:evenodd;clip-rule:evenodd;fill:#00A9EF;}
	.st36{fill-rule:evenodd;clip-rule:evenodd;fill:#373461;}
	.st37{opacity:0.2;fill-rule:evenodd;clip-rule:evenodd;}
	.st38{fill-rule:evenodd;clip-rule:evenodd;fill:#F1C9BF;}
	.st39{opacity:0.2;clip-path:url(#SVGID_8_);fill-rule:evenodd;clip-rule:evenodd;}
	.st40{opacity:0.2;clip-path:url(#SVGID_10_);fill-rule:evenodd;clip-rule:evenodd;}
	.st41{clip-path:url(#SVGID_12_);fill-rule:evenodd;clip-rule:evenodd;fill:#FB5954;}
	.st42{opacity:0.2;clip-path:url(#SVGID_12_);fill-rule:evenodd;clip-rule:evenodd;}
	.st43{clip-path:url(#SVGID_12_);}
	.st44{clip-path:url(#SVGID_14_);fill-rule:evenodd;clip-rule:evenodd;fill:#F1C9BF;}
	.st45{clip-path:url(#SVGID_12_);fill-rule:evenodd;clip-rule:evenodd;}
	.st46{clip-path:url(#SVGID_12_);fill-rule:evenodd;clip-rule:evenodd;fill:#F1C9BF;}
	.st47{fill-rule:evenodd;clip-rule:evenodd;fill:#CD8646;}
	.st48{fill-rule:evenodd;clip-rule:evenodd;fill:#DC9954;}
	.st49{fill-rule:evenodd;clip-rule:evenodd;fill:#B5B5B6;}
	.st50{opacity:0.3;clip-path:url(#SVGID_16_);fill-rule:evenodd;clip-rule:evenodd;}
	.st51{fill-rule:evenodd;clip-rule:evenodd;fill:#FDFDFD;}
	.st52{fill-rule:evenodd;clip-rule:evenodd;fill:#000400;}
	.st53{opacity:0.3;clip-path:url(#SVGID_18_);fill-rule:evenodd;clip-rule:evenodd;}
	.st54{opacity:0.3;clip-path:url(#SVGID_20_);fill-rule:evenodd;clip-rule:evenodd;}
	.st55{fill-rule:evenodd;clip-rule:evenodd;fill:#F9D6CA;}
	.st56{opacity:0.2;clip-path:url(#SVGID_22_);fill-rule:evenodd;clip-rule:evenodd;}
	.st57{opacity:0.2;clip-path:url(#SVGID_24_);fill-rule:evenodd;clip-rule:evenodd;}
	.st58{clip-path:url(#SVGID_26_);fill-rule:evenodd;clip-rule:evenodd;fill:#DDB6A3;}
	.st59{fill-rule:evenodd;clip-rule:evenodd;fill:#3A3261;}
	.st60{opacity:0.2;clip-path:url(#SVGID_30_);fill-rule:evenodd;clip-rule:evenodd;}
	.st61{opacity:0.2;clip-path:url(#SVGID_32_);fill-rule:evenodd;clip-rule:evenodd;}
	.st62{fill:#D5D5D5;}
	.st63{fill-rule:evenodd;clip-rule:evenodd;fill:#D5D5D5;}
	.st64{fill-rule:evenodd;clip-rule:evenodd;fill:#666666;}
	.st65{fill-rule:evenodd;clip-rule:evenodd;fill:#4C4C4C;}
	.st66{opacity:0.3;fill-rule:evenodd;clip-rule:evenodd;}
	.st67{opacity:0.21;fill-rule:evenodd;clip-rule:evenodd;fill:#6CBC60;}
	.st68{fill:#00A9EF;}
</style>
<title>Asset 4</title>
<g>
	<g>
		<g id="Layer_1-2">
			<path class="st0" d="M43.1,124.7c-14.1,0-12.3,1.1-12.3,2.5c0,1.4-1.8,2.5,12.3,2.5c4.2,0,9.2-0.1,14.3-0.3V125
				C52.3,124.8,47.3,124.7,43.1,124.7z"/>
			<path class="st1" d="M33.4,125.9c-3.2,0-5.8,0.5-5.8,1.2s2.6,1.2,5.8,1.2s5.8-0.5,5.8-1.2S36.6,125.9,33.4,125.9z"/>
			<rect x="31" y="96" class="st2" width="5" height="31.1"/>
			<path class="st3" d="M33.5,69.9c-8.6,0-15.6,17.6-15.6,26.1c-0.4,8.6,6.2,15.9,14.8,16.3s15.9-6.2,16.3-14.8c0-0.5,0-1.1,0-1.6
				C49,87.4,42.1,69.9,33.5,69.9z"/>
			<path class="st4" d="M18.3,92.3C18.1,93.5,18,94.8,18,96c0,8.6,6.9,15.5,15.5,15.6c2.1,0,4.3-0.4,6.2-1.3
				C29.9,108.4,21.8,101.6,18.3,92.3z"/>
			<circle class="st5" cx="21" cy="82.3" r="2.8"/>
			<rect y="131.7" class="st6" width="13.1" height="4"/>
			<rect x="3" y="116.6" class="st7" width="7.2" height="16.3"/>
			<rect x="3" y="113.9" class="st8" width="7.2" height="2.8"/>
			<path class="st8" d="M7.6,113.9H4.9V77.1c-0.2-2.5,0.6-5,2.2-6.9c1.7-1.7,4.1-2.7,6.5-2.5c4,0,8.7,1.6,8.7,9.2h-2.7
				c0-4.5-1.8-6.5-6-6.5c-1.6-0.1-3.2,0.5-4.4,1.6c-1.1,1.4-1.6,3.2-1.5,5L7.6,113.9z"/>
			<path d="M21,75.3c-3.9,0-7,3.1-7,7h14C28,78.5,24.9,75.3,21,75.3z"/>
		</g>
		<g>
			<g>
				<path class="st9" d="M87.6,148.1H140c5.8,0,10.5-4.7,10.5-10.5v-127C150.6,4.7,145.8,0,140,0H87.6c-5.8,0-10.5,4.7-10.5,10.5
					v127C77.1,143.4,81.8,148.1,87.6,148.1"/>
				<g>
					<defs>
						<path id="SVGID_1_" d="M89.5,144.4h48.6c5.4,0,9.8-4.4,9.8-9.8V13.1c0-3-2.5-5.5-5.5-5.5H85.3c-3,0-5.5,2.5-5.5,5.5v121.5
							C79.7,140,84.1,144.4,89.5,144.4"/>
					</defs>
					<use xlink:href="#SVGID_1_"  style="overflow:visible;fill-rule:evenodd;clip-rule:evenodd;fill:#4F4E4F;"/>
					<clipPath id="SVGID_2_">
						<use xlink:href="#SVGID_1_"  style="overflow:visible;"/>
					</clipPath>
					<rect x="79.4" y="14.1" class="st10" width="68.9" height="120.5"/>
					<rect x="82.4" y="42.3" class="st11" width="62.8" height="27.9"/>
				</g>
				<rect x="82.4" y="33" class="st12" width="62.8" height="5.8"/>
				<rect x="82.4" y="98.8" class="st12" width="34.4" height="20.4"/>
				<rect x="82.4" y="74.3" class="st12" width="34.4" height="20.4"/>
				<g>
					<path class="st13" d="M143.6,12.3h-4.9V9.9h4.9V12.3z M139,11.9h4.2v-1.6H139V11.9z"/>
				</g>
				<rect x="140.3" y="10.1" class="st12" width="3.1" height="2"/>
				<g>
					<path class="st13" d="M143.6,12.3h-3.5V9.9h3.5V12.3z M140.5,11.9h2.8v-1.6h-2.8V11.9z"/>
				</g>
				<g>
					<path class="st13" d="M133.1,10.8c0-0.3,0.2-0.5,0.6-0.5c0.4,0,0.6,0.2,0.6,0.5c0,0.2-0.1,0.3-0.2,0.4c0.2,0.1,0.3,0.2,0.3,0.4
						c0,0.3-0.3,0.5-0.6,0.5c-0.4,0-0.6-0.2-0.6-0.5c0-0.2,0.1-0.4,0.3-0.4C133.2,11.1,133.1,10.9,133.1,10.8z M133.4,11.6
						c0,0.2,0.1,0.3,0.3,0.3c0.2,0,0.3-0.1,0.3-0.3c0-0.2-0.1-0.3-0.3-0.3C133.5,11.3,133.4,11.4,133.4,11.6z M133.9,10.8
						c0-0.2-0.1-0.2-0.3-0.2c-0.2,0-0.3,0.1-0.3,0.3c0,0.1,0.1,0.2,0.3,0.2C133.8,11,133.9,11,133.9,10.8z"/>
					<path class="st13" d="M135.2,10.3c0.5,0,0.7,0.4,0.7,0.9c0,0.5-0.2,0.9-0.7,0.9c-0.5,0-0.7-0.4-0.7-0.9
						C134.6,10.7,134.7,10.3,135.2,10.3z M135.2,10.6c-0.3,0-0.3,0.3-0.3,0.6c0,0.3,0,0.6,0.3,0.6c0.3,0,0.3-0.3,0.3-0.6
						C135.5,10.9,135.5,10.6,135.2,10.6z"/>
					<path class="st13" d="M136.5,10.4c0.2,0,0.4,0.1,0.4,0.4c0,0.3-0.2,0.4-0.4,0.4c-0.2,0-0.4-0.1-0.4-0.4
						C136.1,10.5,136.2,10.4,136.5,10.4z M136.3,10.7c0,0.1,0.1,0.2,0.1,0.2c0.1,0,0.1-0.1,0.1-0.2c0-0.1-0.1-0.2-0.1-0.2
						C136.4,10.6,136.3,10.6,136.3,10.7z M137.3,10.4h0.3l-0.9,1.7h-0.3L137.3,10.4z M137.5,11.3c0.2,0,0.4,0.1,0.4,0.4
						c0,0.3-0.2,0.4-0.4,0.4c-0.2,0-0.4-0.1-0.4-0.4C137.1,11.5,137.3,11.3,137.5,11.3z M137.4,11.7c0,0.1,0.1,0.2,0.1,0.2
						c0.1,0,0.1-0.1,0.1-0.2c0-0.1-0.1-0.2-0.1-0.2C137.4,11.5,137.4,11.6,137.4,11.7z"/>
				</g>
				<g>
					<path class="st13" d="M111.3,10.4c0.5,0,0.7,0.4,0.7,0.9c0,0.5-0.2,0.9-0.7,0.9s-0.7-0.4-0.7-0.9
						C110.7,10.7,110.8,10.4,111.3,10.4z M111.3,10.7c-0.3,0-0.3,0.3-0.3,0.6c0,0.3,0,0.6,0.3,0.6c0.3,0,0.3-0.3,0.3-0.6
						C111.7,10.9,111.6,10.7,111.3,10.7z"/>
					<path class="st13" d="M112.3,10.8c0-0.3,0.2-0.5,0.6-0.5c0.4,0,0.6,0.2,0.6,0.5c0,0.2-0.1,0.3-0.2,0.4c0.2,0.1,0.3,0.2,0.3,0.4
						c0,0.3-0.3,0.5-0.6,0.5c-0.4,0-0.6-0.2-0.6-0.5c0-0.2,0.1-0.4,0.3-0.4C112.4,11.1,112.3,11,112.3,10.8z M112.6,11.6
						c0,0.2,0.1,0.3,0.3,0.3c0.2,0,0.3-0.1,0.3-0.3c0-0.2-0.1-0.3-0.3-0.3C112.7,11.4,112.6,11.5,112.6,11.6z M113.2,10.9
						c0-0.2-0.1-0.2-0.3-0.2c-0.2,0-0.3,0.1-0.3,0.3c0,0.1,0.1,0.2,0.3,0.2C113.1,11.1,113.2,11,113.2,10.9z"/>
					<path class="st13" d="M114,11.2c-0.1,0-0.2-0.1-0.2-0.2c0-0.1,0.1-0.2,0.2-0.2c0.1,0,0.2,0.1,0.2,0.2
						C114.2,11.1,114.1,11.2,114,11.2z M114,12.2c-0.1,0-0.2-0.1-0.2-0.2c0-0.1,0.1-0.2,0.2-0.2c0.1,0,0.2,0.1,0.2,0.2
						C114.2,12.1,114.1,12.2,114,12.2z"/>
					<path class="st13" d="M114.6,10.7h-0.2v-0.3h0.6v1.8h-0.3V10.7z"/>
					<path class="st13" d="M115.3,11.9c0.4-0.3,0.8-0.6,0.8-1c0-0.2-0.1-0.3-0.2-0.3c-0.2,0-0.3,0.1-0.3,0.3h-0.3
						c0-0.4,0.3-0.6,0.6-0.6c0.4,0,0.6,0.2,0.6,0.5c0,0.4-0.4,0.7-0.7,1h0.7v0.3h-1.2V11.9z"/>
				</g>
				<rect x="84.9" y="10.1" class="st12" width="0.5" height="2"/>
				<rect x="84" y="10.5" class="st12" width="0.5" height="1.6"/>
				<rect x="83.2" y="10.9" class="st12" width="0.5" height="1.2"/>
				<rect x="82.4" y="11.3" class="st12" width="0.5" height="0.8"/>
				<rect x="89.7" y="10.1" class="st12" width="0.5" height="2"/>
				<rect x="88.8" y="10.5" class="st12" width="0.5" height="1.6"/>
				<rect x="88" y="10.9" class="st12" width="0.5" height="1.2"/>
				<rect x="87.1" y="11.3" class="st12" width="0.5" height="0.8"/>
				<g>
					<polygon class="st13" points="89.8,140.8 89.4,140.8 89.4,138.5 94.1,138.5 94.1,140.7 93.6,140.7 93.6,138.9 89.8,138.9 					
						"/>
				</g>
				<g>
					<rect x="90.4" y="139.2" class="st13" width="2.7" height="0.4"/>
				</g>
				<g>
					<rect x="90.4" y="140.1" class="st13" width="2.7" height="0.4"/>
				</g>
				<g>
					<polygon class="st13" points="115.3,141 112.2,141 112.2,139.6 112.7,139.6 112.7,140.6 114.9,140.6 114.9,139.6 115.3,139.6 
											"/>
				</g>
				<g>
					<path class="st13" d="M111.9,140c-0.2,0-0.3-0.1-0.4-0.3c-0.1-0.2,0-0.5,0.2-0.6l1.9-0.9c0.1-0.1,0.3-0.1,0.4,0l2,0.8
						c0.2,0.1,0.4,0.4,0.3,0.6c-0.1,0.2-0.4,0.4-0.6,0.3l-1.8-0.8l-1.7,0.8C112,139.9,111.9,140,111.9,140z"/>
				</g>
				<g>
					<polygon class="st13" points="138,141.1 135.5,141.1 135.5,140.7 137.6,140.7 137.6,139.5 136.1,139.5 136.4,139.7 136.2,140 
						134.7,139 138,139 					"/>
				</g>
				<g>
					<polygon class="st13" points="135.5,139.4 135.2,139.1 136,138.4 136.3,138.7 					"/>
				</g>
				<path class="st14" d="M120.1,74.3h16.3c0.3,0,0.6,0.3,0.6,0.6v0c0,0.3-0.3,0.6-0.6,0.6h-16.3c-0.3,0-0.6-0.3-0.6-0.6v0
					C119.5,74.6,119.8,74.3,120.1,74.3"/>
				<path class="st14" d="M120.1,76.9H132c0.3,0,0.6,0.3,0.6,0.6v0c0,0.3-0.3,0.6-0.6,0.6h-11.9c-0.3,0-0.6-0.3-0.6-0.6v0
					C119.5,77.1,119.8,76.9,120.1,76.9"/>
				<path class="st14" d="M120.1,79.4h21.3c0.3,0,0.6,0.3,0.6,0.6v0c0,0.3-0.3,0.6-0.6,0.6h-21.3c-0.3,0-0.6-0.3-0.6-0.6v0
					C119.5,79.7,119.8,79.4,120.1,79.4"/>
				<g>
					<rect x="87.6" y="33.7" class="st15" width="0.1" height="4.5"/>
				</g>
				<g>
					<path class="st16" d="M90.6,37c-0.3,0-0.5-0.2-0.5-0.4h0.2c0,0.1,0.1,0.3,0.3,0.3c0.2,0,0.4-0.1,0.4-0.3
						c0.1-0.5-0.8-0.3-0.8-0.8c0-0.3,0.2-0.4,0.6-0.4c0.3,0,0.5,0.2,0.5,0.4h-0.2c0-0.1-0.1-0.3-0.3-0.3c-0.2,0-0.4,0.1-0.4,0.3
						c0,0.4,0.8,0.3,0.8,0.9C91.2,36.8,91,37,90.6,37z"/>
					<path class="st16" d="M92,37c-0.4,0-0.6-0.3-0.5-0.7c0.1-0.4,0.4-0.7,0.8-0.7c0.4,0,0.6,0.3,0.5,0.6c0,0.1,0,0.1,0,0.1h-1.1
						c0,0.3,0.1,0.5,0.4,0.5c0.2,0,0.4-0.1,0.5-0.3h0.2C92.6,36.8,92.3,37,92,37z M91.7,36.3h0.9c0.1-0.3-0.1-0.5-0.4-0.5
						C92,35.8,91.7,36,91.7,36.3z"/>
					<path class="st16" d="M93.7,35.7c0.3,0,0.4,0.1,0.5,0.3l0.1-0.3h0.2L94.2,37H94l0-0.3C94,36.9,93.7,37,93.5,37
						c-0.4,0-0.6-0.3-0.5-0.7C93,35.9,93.4,35.7,93.7,35.7z M93.7,35.8c-0.3,0-0.5,0.2-0.6,0.5c-0.1,0.3,0.1,0.5,0.4,0.5
						c0.3,0,0.5-0.2,0.6-0.5C94.2,36,94,35.8,93.7,35.8z"/>
					<path class="st16" d="M94.6,37l0.2-1.3H95l0,0.3c0.1-0.2,0.3-0.3,0.5-0.3l0,0.2h0c-0.2,0-0.4,0.1-0.5,0.4L94.7,37H94.6z"/>
					<path class="st16" d="M96.2,35.7c0.3,0,0.5,0.2,0.5,0.4h-0.2c0-0.2-0.1-0.3-0.4-0.3c-0.3,0-0.5,0.2-0.6,0.5
						c-0.1,0.4,0.1,0.5,0.4,0.5c0.2,0,0.4-0.1,0.5-0.3h0.2C96.6,36.8,96.3,37,96,37c-0.4,0-0.6-0.3-0.5-0.7
						C95.5,35.9,95.8,35.7,96.2,35.7z"/>
					<path class="st16" d="M97.2,35.2h0.2l-0.1,0.7c0.1-0.2,0.3-0.2,0.5-0.2c0.3,0,0.5,0.2,0.4,0.6L98,37h-0.2l0.1-0.7
						c0-0.3-0.1-0.4-0.3-0.4c-0.2,0-0.4,0.2-0.5,0.5v0L97.1,37h-0.2L97.2,35.2z"/>
					<path class="st16" d="M98.4,37c-0.1,0-0.1-0.1-0.1-0.1c0-0.1,0.1-0.1,0.1-0.1c0.1,0,0.1,0.1,0.1,0.1C98.6,36.9,98.5,37,98.4,37
						z"/>
					<path class="st16" d="M98.9,37c-0.1,0-0.1-0.1-0.1-0.1c0-0.1,0.1-0.1,0.1-0.1c0.1,0,0.1,0.1,0.1,0.1C99,36.9,98.9,37,98.9,37z"
						/>
				</g>
				<g>
					<defs>
						<rect id="SVGID_3_" x="82.4" y="42.3" width="62.8" height="27.9"/>
					</defs>
					<clipPath id="SVGID_4_">
						<use xlink:href="#SVGID_3_"  style="overflow:visible;"/>
					</clipPath>
					<path class="st17" d="M143.2,39.9c0,0-11.1,2.9-6.3,8.4c4.8,5.4,3.2,11.6-4.4,11c-7.6-0.6-16.4,10.2-3.8,18.2
						c12.6,8,32.8-19.2,32.8-19.2l-13.7-19.4L143.2,39.9z"/>
					<path class="st17" d="M72.7,40.4c0,0,8.3,10.5,11.4,8.1c3.1-2.4-3.3-4.9,3.5-8.2C94.4,37.1,72.7,40.4,72.7,40.4"/>
				</g>
				<rect x="119.5" y="89.2" class="st18" width="24.4" height="5.3"/>
				<g>
					<path class="st19" d="M144.1,87.9h-24.8v-5.7h24.8V87.9z M119.7,87.4h23.9v-4.8h-23.9V87.4z"/>
				</g>
				<rect x="119.5" y="114" class="st18" width="24.4" height="5.3"/>
				<g>
					<path class="st19" d="M144.1,112.7h-24.8V107h24.8V112.7z M119.7,112.2h23.9v-4.8h-23.9V112.2z"/>
				</g>
				<polygon class="st20" points="92.3,86.5 95.1,86.5 95.1,80.4 97.8,81.9 99.1,80 94.5,77.3 92.3,77.3 90,77.3 85.4,80 86.7,81.9 
					89.5,80.4 89.5,86.5 				"/>
				<polygon class="st21" points="99.4,89.4 102.2,89.4 102.2,83.3 105,84.9 106.3,82.9 101.7,80.2 99.4,80.2 97.2,80.2 92.6,82.9 
					93.9,84.9 96.6,83.3 96.6,89.4 				"/>
				<polygon class="st22" points="106.5,93 109.3,93 109.3,87 112,88.5 113.3,86.5 108.7,83.8 106.5,83.8 104.2,83.8 99.6,86.5 
					100.9,88.5 103.7,87 103.7,93 				"/>
				<path class="st14" d="M120.1,98.8h19.1c0.3,0,0.6,0.3,0.6,0.6v0c0,0.3-0.3,0.6-0.6,0.6h-19.1c-0.3,0-0.6-0.3-0.6-0.6v0
					C119.5,99.1,119.8,98.8,120.1,98.8"/>
				<path class="st14" d="M120.1,101.4H134c0.3,0,0.6,0.3,0.6,0.6l0,0c0,0.3-0.3,0.6-0.6,0.6h-13.9c-0.3,0-0.6-0.3-0.6-0.6l0,0
					C119.5,101.7,119.8,101.4,120.1,101.4"/>
				<path class="st14" d="M120.1,103.9h24.8c0.3,0,0.6,0.3,0.6,0.6v0c0,0.3-0.3,0.6-0.6,0.6h-24.8c-0.3,0-0.6-0.3-0.6-0.6v0
					C119.5,104.2,119.8,103.9,120.1,103.9"/>
				<polygon class="st23" points="91.9,101.9 94.9,101.9 94.9,115.4 92.4,115.4 92,107 91.8,107 91.5,115.4 88.9,115.4 88.9,101.9 
									"/>
				<polygon class="st24" points="107,105.9 110,105.9 110,111.2 107.4,111.2 107.1,107.9 106.9,107.9 106.6,111.2 104,111.2 
					104,105.9 				"/>
				<polygon class="st25" points="102.6,108.8 105.6,108.8 105.6,114.1 103.1,114.1 102.8,110.8 102.5,110.8 102.2,114.1 
					99.7,114.1 99.7,108.8 				"/>
				<rect x="165.9" y="114.7" class="st26" width="13.6" height="11.9"/>
				<rect x="168.5" y="114.7" class="st27" width="13.6" height="11.9"/>
				<rect x="174.8" y="114.7" class="st28" width="2" height="3.2"/>
				<rect x="177.7" y="124.3" class="st29" width="3.5" height="1.5"/>
				<rect x="154.7" y="126.5" class="st30" width="30.9" height="21.6"/>
				<rect x="154.7" y="126.5" class="st31" width="20.6" height="21.6"/>
				<g>
					<defs>
						<polygon id="SVGID_5_" points="154.7,148.1 185.6,148.1 180.7,127.8 149.8,127.8 						"/>
					</defs>
					<clipPath id="SVGID_6_">
						<use xlink:href="#SVGID_5_"  style="overflow:visible;"/>
					</clipPath>
					<rect x="163.4" y="126.5" class="st32" width="3.2" height="5.2"/>
				</g>
				<rect x="168.5" y="144.6" class="st12" width="5.2" height="2.3"/>
				<path class="st33" d="M68.9,26.6H78v0.6c0,2.3-1.9,4.1-4.1,4.1H73c-2.3,0-4.1-1.9-4.1-4.1V26.6z"/>
				<path class="st34" d="M78,26.6h10.7v0.6c0,2.3-1.9,4.1-4.1,4.1h-2.4c-2.3,0-4.1-1.9-4.1-4.1V26.6z"/>
				<path class="st33" d="M88.7,26.6h10.1v0.6c0,2.3-1.9,4.1-4.1,4.1h-1.8c-2.3,0-4.1-1.9-4.1-4.1V26.6z"/>
				<path class="st34" d="M98.8,26.6h10.6v0.6c0,2.3-1.9,4.1-4.1,4.1h-2.3c-2.3,0-4.1-1.9-4.1-4.1V26.6z"/>
				<polygon class="st35" points="78,24.8 87.4,14 79.7,14 68.9,24.8 				"/>
				<polygon class="st12" points="87.4,14 78,24.8 88.7,24.8 95.6,14 				"/>
				<polygon class="st35" points="95.6,14 88.7,24.8 98.8,24.8 102.6,14 				"/>
				<polygon class="st12" points="102.6,14 98.8,24.8 109.4,24.8 109.6,14 				"/>
				<path class="st33" d="M109.4,26.6h8.9v0.6c0,2.3-1.9,4.1-4.1,4.1h-0.6c-2.3,0-4.1-1.9-4.1-4.1V26.6z"/>
				<path class="st33" d="M158.8,26.6h-9.1v0.6c0,2.3,1.9,4.1,4.1,4.1h0.9c2.3,0,4.1-1.9,4.1-4.1V26.6z"/>
				<path class="st34" d="M149.6,26.6h-10.7v0.6c0,2.3,1.9,4.1,4.1,4.1h2.4c2.3,0,4.1-1.9,4.1-4.1V26.6z"/>
				<path class="st33" d="M138.9,26.6h-10.1v0.6c0,2.3,1.9,4.1,4.1,4.1h1.8c2.3,0,4.1-1.9,4.1-4.1V26.6z"/>
				<path class="st34" d="M128.8,26.6h-10.6v0.6c0,2.3,1.9,4.1,4.1,4.1h2.3c2.3,0,4.1-1.9,4.1-4.1V26.6z"/>
				<polygon class="st35" points="149.6,24.8 140.2,14 147.9,14 158.8,24.8 				"/>
				<polygon class="st12" points="140.2,14 149.6,24.8 138.9,24.8 132,14 				"/>
				<polygon class="st35" points="132,14 138.9,24.8 128.8,24.8 125,14 				"/>
				<polygon class="st12" points="125,14 128.8,24.8 118.3,24.8 118,14 				"/>
				<polygon class="st35" points="118,14 118.3,24.8 113.8,24.8 109.4,24.8 109.6,14 113.7,14 113.9,14 				"/>
				<path class="st36" d="M162.6,110c0,0-9.9-2.4-10.4-1.1c-0.5,1.3,0,12.7,0.2,14.4c0.2,1.6,1.4,10,1.8,11.2c0.4,1,1,10,1.2,12.6
					c0.6,0,1.7,0,1.7,0l0.8-11.1l0.5,1.8c0.2,0.7,0.5,6.8,0.7,9.1l1.5-0.2l0-0.2c0.6-4.3,0.9-9.9,0.9-9.9s-1.7-15.1,0.3-18.5
					C163.6,114.5,162.6,110,162.6,110z"/>
				<path class="st20" d="M157.1,148.8c-0.6,0,1.9-1.3,1.9-1.3s0-0.3,0-0.8l1.5-0.2l0.3,2.3C160.8,148.8,158.2,148.8,157.1,148.8z"
					/>
				<path class="st20" d="M153.1,148.8c-0.6,0,2.3-1.1,2.3-1.1s0-0.3,0-0.7c0.6,0,1.7,0,1.7,0l0,1.8
					C157.1,148.8,154.6,148.8,153.1,148.8z"/>
				<g>
					<path class="st37" d="M162.9,112c-2.6,0.1-9.5,0.1-10.8-1c0,0,0,0,0,0c-0.2-0.2-0.2-0.4,0-0.5c1.3-0.7,8.9-0.2,9-0.5
						c0-0.1,0.8,0,1.6,0.1C162.7,110.3,162.8,111,162.9,112z"/>
				</g>
				<path class="st38" d="M144.1,82.5c0,0-1-1.9-1.1-2.7c-0.1-0.7-1-2.3-1.4-3.2c-0.4-0.9,0.3,2,0.3,2.3c-0.1,0.3-1.4,0.8-0.9,2
					c0.6,1.3,2.2,2,2.3,2.8C143.4,84.5,144.1,82.5,144.1,82.5"/>
				<g>
					<defs>
						<path id="SVGID_7_" d="M160.5,82.3c0,0,2.9,1.2,1.8,3c-1.1,1.8-3.1,4.1-3.1,4.1l-2.7-1.7l-0.6-5.3c0,0-0.9-1-0.9-1.7
							C155,80.7,158.8,80.5,160.5,82.3"/>
					</defs>
					<use xlink:href="#SVGID_7_"  style="overflow:visible;fill-rule:evenodd;clip-rule:evenodd;fill:#353849;"/>
					<clipPath id="SVGID_8_">
						<use xlink:href="#SVGID_7_"  style="overflow:visible;"/>
					</clipPath>
					<polygon class="st39" points="159.3,86.2 159.2,89.4 157.6,87.8 158.7,86 					"/>
				</g>
				<g>
					<defs>
						<path id="SVGID_9_" d="M156.8,87.3c0,0,1.6-2.2,2.3-2.2c0.7,0,1,1.4-0.5,2.3l0.9,2.6l1.6,3l-2.9,1.7l-5-0.3l2.5-4.2l-0.1-1.4
							c0,0-1.5,0-1.5-1c0-1,0.3-1.8,0.3-1.8l-0.5-0.4c0,0,1.2-0.7,1.3-1.4c0.1-0.7,0.4-1.6,0.8-1.7
							C156.4,82.4,158.2,84.4,156.8,87.3"/>
					</defs>
					<use xlink:href="#SVGID_9_"  style="overflow:visible;fill-rule:evenodd;clip-rule:evenodd;fill:#F1C9BF;"/>
					<clipPath id="SVGID_10_">
						<use xlink:href="#SVGID_9_"  style="overflow:visible;"/>
					</clipPath>
					<path class="st40" d="M156.7,87.5c0,0-0.3,0.9-1.2,1.2c-0.9,0.3,0,2.9,0,2.9L156.7,87.5z"/>
				</g>
				<g>
					<defs>
						<path id="SVGID_11_" d="M142.5,83.3l1.5-1.8c0,0,4.7,7.9,7.9,8.6c3.2,0.7,3.6,0,3.6,0s0.1,1.7,1.5,1.9c1.4,0.2,2.1-1,2.3-2
							c0.1-0.3,6.2,3,7,5.6s4.2,10.8,1.6,10.8c-1.4,0-2.9-0.5-3.9-0.9c0,0,0.2,3.1,0,4.8c-0.2,1.7-8.6,1.4-12.1,0.7
							c-3.5-0.7-0.2-4.6,0.3-5.7c0.4-1.1-0.8-9.6-0.8-9.6C146.5,93.3,142.5,83.3,142.5,83.3"/>
					</defs>
					<use xlink:href="#SVGID_11_"  style="overflow:visible;fill-rule:evenodd;clip-rule:evenodd;fill:#FB5954;"/>
					<clipPath id="SVGID_12_">
						<use xlink:href="#SVGID_11_"  style="overflow:visible;"/>
					</clipPath>
					<path class="st41" d="M152,90.1c3.2,0.7,3.6,0,3.6,0s0.1,1.7,1.5,1.9c1.4,0.2,2.6-0.8,2.3-1.9c-0.3-1,6.3,2.9,7,5.4
						s4.2,10.8,1.6,10.8c-1.4,0-2.9-0.5-3.9-0.9c0,0,0.2,3.1,0,4.8c-0.2,1.7-8.6,1.4-12.1,0.7c-3.5-0.7-0.2-4.6,0.3-5.7
						c0.4-1.1-0.8-9.6-0.8-9.6c-4.9-2.4-8.9-12.3-8.9-12.3l1.5-1.8C144.1,81.5,148.8,89.5,152,90.1"/>
					<path class="st42" d="M163.1,94l0.3,9.8l0.7-1l0.6-0.1c0,0-0.9-4.9-1-4.9C163.6,97.9,163.1,94,163.1,94"/>
					<polygon class="st42" points="163.3,105.1 164.1,105.5 164.6,111.2 163.3,112.8 					"/>
					<path class="st42" d="M154.8,99.4l-2.5,5.9c0,0-0.5-1.3-0.2-1.3C152.3,103.9,154.8,99.4,154.8,99.4"/>
					<g class="st43">
						<defs>
							<path id="SVGID_13_" d="M162.6,104.8c0.5-1.1,0.8-1.5,1.5-1.9C164.9,104.7,162.6,104.8,162.6,104.8"/>
						</defs>
						<use xlink:href="#SVGID_13_"  style="overflow:visible;fill-rule:evenodd;clip-rule:evenodd;fill:#A13935;"/>
						<clipPath id="SVGID_14_">
							<use xlink:href="#SVGID_13_"  style="overflow:visible;"/>
						</clipPath>
						<path class="st44" d="M164.5,103.5c0,0-1.4-0.7-1.6-1.1c-0.2-0.4-0.8-1.4-1.4-1.2c-0.6,0.1-2.2,0.2-2.2,0.1
							c-0.1-0.1,0.6,2.5,2.8,2.9c2.2,0.4,1.8,1,1.8,1L164.5,103.5z"/>
					</g>
					<path class="st45" d="M161.5,99.5h-1.6c-0.2,0-0.4,0.2-0.4,0.4v4.2c0,0.2,0.2,0.4,0.4,0.4h1.6c0.2,0,0.4-0.2,0.4-0.4v-4.2
						C161.9,99.7,161.7,99.5,161.5,99.5"/>
					<path class="st46" d="M164.2,103.3c0,0-1.1-0.6-1.3-1c-0.2-0.4-0.8-1.4-1.4-1.2c-0.6,0.1-2,0.2-2.1,0.1
						c-0.1-0.1-0.7,2.8,1.8,2.9c2.6,0.1,2.2,0.4,2.2,0.4L164.2,103.3z"/>
				</g>
				<path class="st37" d="M163.1,94c0,0,1.1,8.3,1.6,8.7l1.9-0.3h-1.7L163.1,94z"/>
				<rect x="181" y="130.3" class="st47" width="20.4" height="17.8"/>
				<rect x="177" y="130.3" class="st48" width="20.4" height="17.8"/>
				<rect x="185.6" y="130.3" class="st28" width="3.2" height="5.2"/>
				<rect x="190.8" y="144.6" class="st12" width="5.2" height="2.3"/>
				<g>
					<path class="st49" d="M106.1,131.2c0,0,0.4-4.1,1.8-4.3c2.9-0.5,1.2,2.8,0.9,4.7l-0.3-0.1c0.2-0.7,1.7-5.2-0.5-4.2
						c-0.9,0.4-1.6,4.1-1.6,4.1L106.1,131.2z"/>
					<g>
						<defs>
							<path id="SVGID_15_" d="M103.3,130.7c0,0,0.9,7.6,1.6,8.2c0.7,0.6,6.2,0.2,6.4-0.6c0.2-0.7,0.6-7.9-0.1-8.6
								c0,0-0.3-0.9-2.3-0.6C106.8,129.4,102.9,129.7,103.3,130.7"/>
						</defs>
						<use xlink:href="#SVGID_15_"  style="overflow:visible;fill-rule:evenodd;clip-rule:evenodd;fill:#3F4998;"/>
						<clipPath id="SVGID_16_">
							<use xlink:href="#SVGID_15_"  style="overflow:visible;"/>
						</clipPath>
						<path class="st50" d="M101.9,129.3c0,0,1,2,2.9,1.7c1.8-0.3,7.9-0.9,7.9-1.4c0-0.4-7.9-2.7-7.9-2.7L101.9,129.3z"/>
					</g>
					<path class="st51" d="M105.9,131.5c0,0-0.4-4.1,0.9-4.6c2.7-1,1.7,2.5,1.8,4.4l-0.3,0c0-0.7,0.6-5.4-1.3-4
						c-0.8,0.6-0.8,4.3-0.8,4.3L105.9,131.5z"/>
					<path class="st52" d="M106,131.2c0.2,0,0.3,0.1,0.3,0.3c0,0.2-0.1,0.3-0.2,0.4c-0.2,0-0.3-0.1-0.3-0.3
						C105.7,131.4,105.8,131.2,106,131.2"/>
					<path class="st52" d="M108.4,130.9c0.1,0,0.3,0.1,0.3,0.3c0,0.2-0.1,0.4-0.2,0.4c-0.1,0-0.3-0.1-0.3-0.3
						C108.1,131.1,108.2,130.9,108.4,130.9"/>
					<path class="st49" d="M99.3,129.9c0,0,0.8-4.9,2.4-5.1c3.5-0.4,1.3,3.5,0.8,5.7l-0.4-0.1c0.2-0.9,2.3-6.1-0.4-5.1
						c-1.1,0.4-2.2,4.8-2.2,4.8L99.3,129.9z"/>
					<g>
						<defs>
							<path id="SVGID_17_" d="M95.9,129.1c0,0,0.7,9.1,1.4,9.9c0.8,0.8,7.5,0.5,7.8-0.3c0.3-0.9,1.1-9.5,0.3-10.3
								c0,0-0.3-1.1-2.8-0.9C100.2,127.8,95.5,127.8,95.9,129.1"/>
						</defs>
						<use xlink:href="#SVGID_17_"  style="overflow:visible;fill-rule:evenodd;clip-rule:evenodd;fill:#FFD908;"/>
						<clipPath id="SVGID_18_">
							<use xlink:href="#SVGID_17_"  style="overflow:visible;"/>
						</clipPath>
						<path class="st53" d="M94.4,127.3c0,0,1.1,2.5,3.4,2.2c2.2-0.3,9.6-0.7,9.5-1.2c0-0.5-9.4-3.7-9.4-3.7L94.4,127.3z"/>
					</g>
					<path class="st51" d="M99,130.2c0,0-0.2-5,1.3-5.5c3.4-1.1,2,3.1,1.9,5.4l-0.4,0c0.1-0.9,1.1-6.5-1.4-4.9
						c-1,0.6-1.1,5.2-1.1,5.2L99,130.2z"/>
					<path class="st52" d="M99.1,129.8c0.2,0,0.3,0.1,0.4,0.4c0,0.2-0.1,0.4-0.3,0.4c-0.2,0-0.3-0.1-0.4-0.4
						C98.8,130,98.9,129.9,99.1,129.8"/>
					<path class="st52" d="M102,129.6c0.2,0,0.3,0.2,0.4,0.4c0,0.2-0.1,0.4-0.3,0.5c-0.2,0-0.3-0.2-0.4-0.4
						C101.7,129.8,101.8,129.6,102,129.6"/>
					<path class="st49" d="M56.6,126.9c0,0,0-5.1,1.8-5.1c3.9,0,2.4,3.7,1.6,6.1l-0.4-0.1c0.3-0.9,1.9-6.2-1.2-5.4
						c-1.3,0.3-1.5,4.8-1.5,4.8L56.6,126.9z"/>
					<g>
						<defs>
							<path id="SVGID_19_" d="M53,125.7c0,0-0.3,10.1,0.5,11c0.8,0.9,8.1,1.4,8.6,0.5s2.3-10.3,1.5-11.2c0,0-0.2-1.3-2.9-1.3
								C57.9,124.7,52.7,124.3,53,125.7"/>
						</defs>
						<use xlink:href="#SVGID_19_"  style="overflow:visible;fill-rule:evenodd;clip-rule:evenodd;fill:#E52129;"/>
						<clipPath id="SVGID_20_">
							<use xlink:href="#SVGID_19_"  style="overflow:visible;"/>
						</clipPath>
						<path class="st54" d="M51.5,123.5c0,0,1,2.9,3.4,2.8c2.5-0.1,10.5,0.3,10.6-0.3c0.1-0.6-9.8-5.1-9.8-5.1L51.5,123.5z"/>
					</g>
					<path class="st51" d="M56.2,127.2c0,0,0.3-5.5,2.1-5.9c3.8-0.8,1.8,3.6,1.5,6.1l-0.4-0.1c0.2-1,1.9-6.9-1-5.5
						c-1.2,0.6-1.8,5.5-1.8,5.5L56.2,127.2z"/>
					<path class="st52" d="M56.4,126.8c0.2,0,0.4,0.2,0.4,0.4c0,0.2-0.2,0.4-0.4,0.4c-0.2,0-0.4-0.2-0.4-0.4
						C56,127,56.2,126.8,56.4,126.8"/>
					<path class="st52" d="M59.6,126.9c0.2,0,0.4,0.2,0.4,0.5c0,0.3-0.2,0.5-0.4,0.5c-0.2,0-0.4-0.2-0.4-0.5
						C59.2,127.1,59.4,126.9,59.6,126.9"/>
					<path class="st55" d="M83.2,111.2c0,0,1.3,0.4,1.8-0.1c0.5-0.5,3-1.2,2.5-0.1c-0.4,1.1-0.3,2.6-1.3,2.4c-1-0.2-3.8-1.3-3.8-1.3
						L83.2,111.2z"/>
					<g>
						<defs>
							<path id="SVGID_21_" d="M72.2,103.3c-0.6-3.6,12,7.6,12.1,7.2l-0.8,2.7C77.6,112.5,74.6,106.9,72.2,103.3"/>
						</defs>
						<use xlink:href="#SVGID_21_"  style="overflow:visible;fill-rule:evenodd;clip-rule:evenodd;fill:#58B9F6;"/>
						<clipPath id="SVGID_22_">
							<use xlink:href="#SVGID_21_"  style="overflow:visible;"/>
						</clipPath>
						<path class="st56" d="M83.9,113.4c0,0-6-2.3-6.1-4.1c-0.1-1.8-0.2-5.1-0.2-5.1l-1.5,3.9l0.7,4l5.7,2.7L83.9,113.4z"/>
					</g>
					<g>
						<defs>
							<path id="SVGID_23_" d="M77.4,109.6c0,0-0.7,0.8,0.8,7.3c1.5,6.5,2.5,11.7,2.5,11.7l-12.3,0.6l4.7-20.5l3-1.4l-2.3-4.3l0-4.5
								l4,0.4L77.4,109.6z"/>
						</defs>
						<use xlink:href="#SVGID_23_"  style="overflow:visible;fill-rule:evenodd;clip-rule:evenodd;fill:#58B9F6;"/>
						<clipPath id="SVGID_24_">
							<use xlink:href="#SVGID_23_"  style="overflow:visible;"/>
						</clipPath>
						<path class="st57" d="M74.8,98.2c0,0,2.1,8.8,2.3,8.8c0.2,0-0.7,2.5-0.7,2.5l2.3,19.1l-10.2,0.5l4.4-16l1-14.7L74.8,98.2z"/>
					</g>
					<path class="st55" d="M59.4,119.1c0,0-2.2,3.1-1.8,3.6c0.4,0.6,2.6,0.7,2.6,0c0-0.7-1.1-1.8-0.1-3
						C61,118.6,59.4,119.1,59.4,119.1"/>
					<g>
						<defs>
							<path id="SVGID_25_" d="M74.9,89.3c0.4,1.2,0.2,2.7,0.9,3.5l-0.5,0.9c0,0-0.4,2.5-1.9,2.2l-0.5,1.2L70,95.5l1.2-6.7
								L74.9,89.3z"/>
						</defs>
						<use xlink:href="#SVGID_25_"  style="overflow:visible;fill-rule:evenodd;clip-rule:evenodd;fill:#F9D6CA;"/>
						<clipPath id="SVGID_26_">
							<use xlink:href="#SVGID_25_"  style="overflow:visible;"/>
						</clipPath>
						<path class="st58" d="M72.3,94.9c0,0,0.6,0.8,1,0.9c0.3,0.1,0.1,0.6,0.1,0.6l-0.8,1.1l-0.4-0.4C72.2,97.1,72.7,96.1,72.3,94.9
							"/>
					</g>
					<g>
						<defs>
							<path id="SVGID_27_" d="M69.4,97.2l0.5-1.7l4.4,2.1l0.2,3.1c0,0,3.8,5.4,2.2,8c-2,3.2-0.8,3.7-0.4,7.4l-8.1-0.8L69.4,97.2z"
								/>
						</defs>
						<use xlink:href="#SVGID_27_"  style="overflow:visible;fill-rule:evenodd;clip-rule:evenodd;fill:#FFFFFF;"/>
						<clipPath id="SVGID_28_">
							<use xlink:href="#SVGID_27_"  style="overflow:visible;"/>
						</clipPath>
					</g>
					<path class="st59" d="M83,146.4l-0.4,0.2l-1,0.5l-0.9,0.1c0,0-0.8-3.5-1.6-6c-0.8-2.5-3.5-10.6-3.5-10.6l-4.5-7.9l-4,12.6
						l-6.8,11.6l-0.4-0.2l-1.2-0.5l-0.4-0.4l4.8-11.8l5.1-18.7l8.1,0.8l3.1,14.1L83,146.4z"/>
					<polygon class="st37" points="71.5,121.4 71,122.7 73.3,126.6 					"/>
					<path class="st20" d="M60.9,149.4c0,0-1.2,0.4-1.9-0.2c-0.7-0.6-1.6-1.1-1.2-1.7c0.4-0.5,0.9-1.3,0.9-1.3l1.2,0.5
						c0,0-0.6,1.4-0.2,1.9C60.2,149.1,60.9,149.4,60.9,149.4z"/>
					<path class="st20" d="M85.7,147.8l-3.2,1.2c-0.4,0.1-0.7-0.1-0.8-0.5l-0.2-1.5l1-0.5l0.3,1L85.7,147.8z"/>
					<g>
						<defs>
							<path id="SVGID_29_" d="M69.4,97.2c0,0-4.8,4.6-7.6,13c-2.8,8.4-3.2,9.3-3.2,9.3l2.5,1l4.7-10.6c0,0,0.2,4.8-0.5,7.2
								s-2.9,12.3-2.9,12.3l4.4-0.1c0,0,2.4-10.2,3.4-15.7c1-5.5,3.4-12.9,1.9-15L69.4,97.2z"/>
						</defs>
						<use xlink:href="#SVGID_29_"  style="overflow:visible;fill-rule:evenodd;clip-rule:evenodd;fill:#58B9F6;"/>
						<clipPath id="SVGID_30_">
							<use xlink:href="#SVGID_29_"  style="overflow:visible;"/>
						</clipPath>
						<path class="st60" d="M67.1,101.1c0,0,2.9,2.7,0.2,6.2c-2.7,3.5-3,12.7-2.9,14.1c0.1,1.5,2.2-11,2.2-11s1.3-2.8,2-4.9
							C69.3,103.4,67.1,101.1,67.1,101.1"/>
					</g>
					<g>
						<defs>
							<path id="SVGID_31_" d="M71.9,91.6l0.3,3.1c0,0,1-3.5,1.4-3.6c0.4-0.1,3,0.5,2.4-1.7c-0.6-2.2-4.8-4.4-7.5-0.7
								c0,0-0.3,0.8-1.2,0.5c-0.9-0.3-4.4-0.7-4.4,2.9c0,3.6,1.4,3.6-0.9,5c0,0,0.8,2,3.8,0.6c3-1.4,1.5-4.5,1.5-4.5
								s0.2,1.2,1.2,0.8c0,0,0.6,1.2,1.6,1.6c0,0,0.8-0.3,1.3-1.7l0.5-0.7C71.7,93.2,70.5,90.7,71.9,91.6"/>
						</defs>
						<use xlink:href="#SVGID_31_"  style="overflow:visible;fill-rule:evenodd;clip-rule:evenodd;fill:#353849;"/>
						<clipPath id="SVGID_32_">
							<use xlink:href="#SVGID_31_"  style="overflow:visible;"/>
						</clipPath>
						<path class="st61" d="M68.3,93.9c0,0-1.3-0.7-1.3-1.3c0-0.7-0.2,1.4,0.6,2C68.4,95.2,68.3,93.9,68.3,93.9 M68.4,88.3
							c0,0-0.7,1.7-0.2,3.8c0.5,2.1-0.8-3.1-1-3.3C67,88.5,68.4,88.3,68.4,88.3z"/>
					</g>
					<g>
						<path class="st62" d="M95.5,128.5c-0.1,0-0.2-0.1-0.2-0.2c0-0.1,0.1-0.2,0.2-0.2V128.5z M95.5,128.1h25.3v0.4H95.5V128.1z
							 M120.8,128.1c0.1,0,0.2,0.1,0.2,0.2c0,0.1-0.1,0.2-0.2,0.2V128.1z M96,131.7c-0.1,0-0.2-0.1-0.2-0.2c0-0.1,0.1-0.2,0.2-0.2
							V131.7z M96,131.3h24.1v0.4H96V131.3z M120.1,131.3c0.1,0,0.2,0.1,0.2,0.2c0,0.1-0.1,0.2-0.2,0.2V131.3z M96.5,134.8
							c-0.1,0-0.2-0.1-0.2-0.2c0-0.1,0.1-0.2,0.2-0.2V134.8z M96.5,134.4h22.9v0.4H96.5V134.4z M119.4,134.4c0.1,0,0.2,0.1,0.2,0.2
							c0,0.1-0.1,0.2-0.2,0.2V134.4z M97,138c-0.1,0-0.2-0.1-0.2-0.2c0-0.1,0.1-0.2,0.2-0.2V138z M97,137.6h21.7v0.4H97V137.6z
							 M118.7,137.6c0.1,0,0.2,0.1,0.2,0.2c0,0.1-0.1,0.2-0.2,0.2V137.6z M107,139.1c0,0.1-0.1,0.2-0.2,0.2s-0.2-0.1-0.2-0.2H107z
							 M106.6,139.1v-17h0.4v17H106.6z M106.6,122.1c0-0.1,0.1-0.2,0.2-0.2s0.2,0.1,0.2,0.2H106.6z M111.1,139.1
							c0,0.1-0.1,0.2-0.2,0.2c-0.1,0-0.2-0.1-0.2-0.2L111.1,139.1z M110.7,139.1l0.8-17l0.4,0l-0.8,17L110.7,139.1z M111.5,122
							c0-0.1,0.1-0.2,0.2-0.2c0.1,0,0.2,0.1,0.2,0.2L111.5,122z M114.6,139.1c0,0.1-0.1,0.2-0.2,0.2s-0.2-0.1-0.2-0.2L114.6,139.1z
							 M114.2,139.1l2.7-17l0.4,0.1l-2.7,17L114.2,139.1z M116.9,122c0-0.1,0.1-0.2,0.2-0.2c0.1,0,0.2,0.1,0.2,0.2L116.9,122z
							 M99.9,139.1c0,0.1-0.1,0.2-0.2,0.2c-0.1,0-0.2-0.1-0.2-0.2L99.9,139.1z M99.5,139.1l-1.5-17l0.4,0l1.5,17L99.5,139.1z
							 M98.1,122.1c0-0.1,0.1-0.2,0.2-0.2c0.1,0,0.2,0.1,0.2,0.2L98.1,122.1z M103.2,139.1c0,0.1-0.1,0.2-0.2,0.2
							c-0.1,0-0.2-0.1-0.2-0.2L103.2,139.1z M102.8,139.1l-1-17l0.4,0l1,17L102.8,139.1z M101.9,122.1c0-0.1,0.1-0.2,0.2-0.2
							c0.1,0,0.2,0.1,0.2,0.2L101.9,122.1z M95,125.4c-0.1,0-0.2-0.1-0.2-0.2s0.1-0.2,0.2-0.2V125.4z M95,125h26.5v0.4H95V125z
							 M121.5,125c0.1,0,0.2,0.1,0.2,0.2s-0.1,0.2-0.2,0.2V125z"/>
						<path class="st63" d="M122.2,122.1H94.5l27.7-0.2V122.1z M122.2,122.5H94.5c-0.2,0-0.4-0.2-0.4-0.4c0-0.2,0.2-0.4,0.4-0.4h0.3
							l27.4-0.2c0.2,0,0.4,0.2,0.4,0.4v0h0v0.2C122.6,122.3,122.4,122.5,122.2,122.5z"/>
						<path class="st62" d="M117.9,139.4c-0.2-0.3-0.1-0.7,0.2-0.8c0.3-0.2,0.7-0.1,0.8,0.2L117.9,139.4z M117.9,139.4l1.1-0.6
							l0.3,0.5l0.2,0.5l0.2,0.5l0.1,0.5l0.1,0.4l0.1,0.4l0,0.4l0,0.4l0,0.4l-0.1,0.4l-0.1,0.3l-0.1,0.3l-0.1,0.3l-0.1,0.3l-0.2,0.3
							l-0.2,0.3l-0.2,0.2l-0.2,0.2l-0.2,0.2l-0.2,0.2l-0.2,0.2l-0.2,0.2l-0.2,0.1l-0.2,0.1l-0.2,0.1l-0.1,0.1l-0.1,0.1l-0.1,0.1
							l-0.1,0.1l-0.1,0l0,0l0,0l-0.5-1.1l0,0l0,0l0.1,0l0.1,0l0.1-0.1l0.1-0.1l0.1-0.1l0.1-0.1l0.1-0.1l0.1-0.1l0.1-0.1l0.1-0.1
							l0.1-0.1l0.1-0.2l0.1-0.2l0.1-0.2l0.1-0.2l0.1-0.2l0.1-0.2l0.1-0.2l0.1-0.2l0.1-0.3l0-0.3l0-0.3l0-0.3l0-0.3l-0.1-0.3
							l-0.1-0.4l-0.1-0.4l-0.2-0.4l-0.2-0.4L117.9,139.4z M116.7,145.7c0.3,0,0.6,0.3,0.6,0.6c0,0.3-0.3,0.6-0.6,0.6V145.7z
							 M116.7,146.9H98.2v-1.2h18.5l0.3,1.2L116.7,146.9z M98.2,146.9c-0.3,0-0.6-0.3-0.6-0.6c0-0.3,0.3-0.6,0.6-0.6V146.9z
							 M121.6,121.9c0.1-0.3,0.4-0.5,0.7-0.5c0.3,0.1,0.5,0.4,0.5,0.7L121.6,121.9z M122.8,122.2l-3.7,17l-1.2-0.3l3.7-17
							L122.8,122.2z M118.4,138.5c0.3,0,0.6,0.3,0.6,0.6c0,0.3-0.3,0.6-0.6,0.6V138.5z M118.4,139.7H97.2v-1.2h21.2l0.6,0.7
							L118.4,139.7z M97.8,139c0.1,0.3-0.2,0.6-0.5,0.7c-0.3,0.1-0.6-0.2-0.7-0.5L97.8,139z M96.6,139.2l-3.7-23l1.2-0.2l3.7,23
							l-0.6,0.7L96.6,139.2z M93.8,115.6c0.3,0.2,0.4,0.5,0.2,0.8c-0.2,0.3-0.5,0.4-0.8,0.2L93.8,115.6z M93.2,116.6l-7.4-4.4
							l0.6-1.1l7.4,4.4l0.3,0.4L93.2,116.6z M85.8,112.3c-0.3-0.2-0.4-0.5-0.2-0.8c0.2-0.3,0.5-0.4,0.8-0.2L85.8,112.3z"/>
						<path class="st64" d="M101.9,146.5c0.8,0,1.5,0.7,1.5,1.5c0,0.8-0.7,1.5-1.5,1.5s-1.5-0.7-1.5-1.5
							C100.4,147.2,101.1,146.5,101.9,146.5"/>
						<path class="st65" d="M101.9,147.2c0.4,0,0.8,0.4,0.8,0.8c0,0.4-0.4,0.8-0.8,0.8c-0.4,0-0.8-0.4-0.8-0.8
							C101.1,147.6,101.5,147.2,101.9,147.2"/>
						<path class="st64" d="M114.4,146.5c0.8,0,1.5,0.7,1.5,1.5c0,0.8-0.7,1.5-1.5,1.5c-0.8,0-1.5-0.7-1.5-1.5
							C112.9,147.2,113.6,146.5,114.4,146.5"/>
						<path class="st65" d="M114.4,147.2c0.4,0,0.8,0.4,0.8,0.8c0,0.4-0.4,0.8-0.8,0.8c-0.4,0-0.8-0.4-0.8-0.8
							C113.6,147.6,113.9,147.2,114.4,147.2"/>
					</g>
					<path class="st20" d="M56.7,81.6H65c1.1,0,2.1-0.9,2.1-2.1v-3.2c0-1.1-0.9-2.1-2.1-2.1h-8.3c-1.1,0-2.1,0.9-2.1,2.1v3.2
						C54.6,80.7,55.5,81.6,56.7,81.6z"/>
					<polygon class="st20" points="64.1,80.8 66.2,85 60.5,81.2 					"/>
					<g>
						<path class="st12" d="M62.7,77.8c0,0.2,0.2,0.4,0.4,0.4s0.4-0.2,0.4-0.4c0-0.2-0.2-0.4-0.4-0.4S62.7,77.5,62.7,77.8z"/>
						<circle class="st12" cx="60.8" cy="77.8" r="0.4"/>
						<path class="st12" d="M58.1,77.8c0,0.2,0.2,0.4,0.4,0.4S59,78,59,77.8c0-0.2-0.2-0.4-0.4-0.4S58.1,77.5,58.1,77.8z"/>
					</g>
				</g>
				<path class="st20" d="M173.8,73h-8.4c-1.2,0-2.1-0.9-2.1-2.1v-3.2c0-1.2,0.9-2.1,2.1-2.1h8.4c1.2,0,2.1,0.9,2.1,2.1v3.2
					C175.9,72,174.9,73,173.8,73z"/>
				<polygon class="st20" points="166.3,72.2 164.1,76.5 169.9,72.6 				"/>
				<g>
					<circle class="st12" cx="167.2" cy="69.1" r="0.4"/>
					<path class="st12" d="M170,69.1c0,0.2-0.2,0.4-0.4,0.4c-0.2,0-0.4-0.2-0.4-0.4s0.2-0.4,0.4-0.4C169.8,68.7,170,68.9,170,69.1z"
						/>
					<path class="st12" d="M172.3,69.1c0,0.2-0.2,0.4-0.4,0.4c-0.2,0-0.4-0.2-0.4-0.4s0.2-0.4,0.4-0.4
						C172.1,68.7,172.3,68.9,172.3,69.1z"/>
				</g>
				<path class="st66" d="M154.6,122.1c0,2.4,1.5,6.8,1.5,6.8l1.9,7l-0.3,4.7l-3.5-16.8l-0.1-8.1l-0.6-2.5c0.5,0.3,1.2,1.6,1.2,1.6
					S154.6,119.7,154.6,122.1"/>
				<g>
					<path class="st67" d="M114.4,67c0,0.2,0.2,0.4,0.4,0.4c0.2,0,0.4-0.2,0.4-0.4c0-0.2-0.2-0.4-0.4-0.4
						C114.6,66.7,114.4,66.8,114.4,67z"/>
					<path class="st67" d="M116.3,67c0,0.2,0.2,0.4,0.4,0.4c0.2,0,0.4-0.2,0.4-0.4c0-0.2-0.2-0.4-0.4-0.4
						C116.4,66.7,116.3,66.8,116.3,67z"/>
					<path class="st67" d="M112.5,67c0,0.2,0.2,0.4,0.4,0.4c0.2,0,0.4-0.2,0.4-0.4c0-0.2-0.2-0.4-0.4-0.4
						C112.6,66.7,112.5,66.8,112.5,67z"/>
					<path class="st18" d="M110.5,67c0,0.2,0.2,0.4,0.4,0.4c0.2,0,0.4-0.2,0.4-0.4c0-0.2-0.2-0.4-0.4-0.4
						C110.7,66.7,110.5,66.8,110.5,67z"/>
				</g>
				<g>
					<path class="st19" d="M86.1,36.8C86.1,36.8,86.1,36.8,86.1,36.8c0,0.1,0,0.1,0,0.1L86,37c0,0,0,0-0.1,0c0,0,0,0-0.1,0l-0.4-0.4
						c0,0,0,0,0-0.1v-0.1c-0.1,0.1-0.3,0.2-0.5,0.2c-0.1,0-0.3,0-0.4-0.1c-0.1-0.1-0.2-0.2-0.3-0.3c-0.1-0.1-0.1-0.3-0.1-0.4
						c0-0.1,0-0.3,0.1-0.4c0.1-0.1,0.2-0.2,0.3-0.3c0.1-0.1,0.3-0.1,0.4-0.1c0.1,0,0.3,0,0.4,0.1c0.1,0.1,0.2,0.2,0.3,0.3
						c0.1,0.1,0.1,0.3,0.1,0.4c0,0.2-0.1,0.3-0.2,0.5h0.1c0,0,0,0,0.1,0L86.1,36.8z M84.9,36.4c0.1,0,0.2,0,0.2-0.1
						c0.1,0,0.1-0.1,0.2-0.2c0-0.1,0.1-0.2,0.1-0.2c0-0.1,0-0.2-0.1-0.2c0-0.1-0.1-0.1-0.2-0.2c-0.1,0-0.2-0.1-0.2-0.1
						c-0.1,0-0.2,0-0.2,0.1c-0.1,0-0.1,0.1-0.2,0.2c0,0.1-0.1,0.2-0.1,0.2c0,0.1,0,0.2,0.1,0.2c0,0.1,0.1,0.1,0.2,0.2
						C84.8,36.4,84.9,36.4,84.9,36.4z"/>
				</g>
				<g>
					<rect x="68.9" y="24.8" class="st33" width="9.1" height="1.9"/>
					<rect x="78" y="24.8" class="st34" width="10.7" height="1.9"/>
					<rect x="88.7" y="24.8" class="st33" width="10.1" height="1.9"/>
					<rect x="109.4" y="24.8" class="st33" width="8.9" height="1.9"/>
					<rect x="128.8" y="24.8" class="st33" width="10.1" height="1.9"/>
					<rect x="149.6" y="24.8" class="st33" width="9.1" height="1.9"/>
					<rect x="138.9" y="24.8" class="st34" width="10.8" height="1.9"/>
					<rect x="98.8" y="24.8" class="st34" width="10.6" height="1.9"/>
					<rect x="118.3" y="24.8" class="st34" width="10.6" height="1.9"/>
				</g>
				<g>
					<g>
						<path class="st68" d="M106.6,53v1.7h-4.5v2.4c0.4-0.5,1.1-0.8,2-0.8c2.3,0,3.2,1.8,3.2,3.3c0,2.1-1.2,3.5-3.5,3.5
							c-2.2,0-3.4-1.2-3.6-2.8h1.9c0.2,0.7,0.7,1.2,1.7,1.2c1.1,0,1.6-0.8,1.6-1.9c0-1.1-0.6-1.8-1.7-1.8c-0.8,0-1.3,0.4-1.5,1.1
							h-1.9V53H106.6z"/>
						<path class="st68" d="M112,52.8c2.8,0,3.7,2.2,3.7,5.1c0,2.9-0.9,5.1-3.7,5.1s-3.7-2.2-3.7-5.1C108.3,55,109.1,52.8,112,52.8z
							 M112,54.6c-1.6,0-1.8,1.6-1.8,3.3c0,1.8,0.2,3.3,1.8,3.3s1.8-1.5,1.8-3.3C113.8,56.2,113.6,54.6,112,54.6z"/>
						<path class="st68" d="M118.7,53.3c1.3,0,2.2,0.8,2.2,2.2c0,1.5-0.9,2.3-2.2,2.3c-1.3,0-2.2-0.8-2.2-2.3
							C116.5,54.1,117.4,53.3,118.7,53.3z M117.9,55.5c0,0.8,0.3,1.1,0.8,1.1c0.5,0,0.8-0.3,0.8-1.1c0-0.8-0.3-1.1-0.8-1.1
							C118.2,54.4,117.9,54.8,117.9,55.5z M123.4,53.4h1.9l-5.4,9.7H118L123.4,53.4z M124.7,58.8c1.2,0,2.2,0.8,2.2,2.2
							c0,1.5-0.9,2.3-2.2,2.3c-1.3,0-2.2-0.8-2.2-2.3C122.5,59.6,123.5,58.8,124.7,58.8z M123.9,61c0,0.8,0.3,1.1,0.8,1.1
							c0.5,0,0.8-0.3,0.8-1.1c0-0.8-0.3-1.1-0.8-1.1C124.2,60,123.9,60.3,123.9,61z"/>
					</g>
					<g>
						<path class="st68" d="M107,50.1c-0.1,0.1-0.3,0.3-0.6,0.3c-0.2,0.1-0.5,0.1-0.8,0.1c-0.4,0-0.8-0.1-1.1-0.4
							c-0.3-0.3-0.4-0.7-0.4-1.1l0-0.3c0-0.3,0.1-0.6,0.2-0.9c0.1-0.3,0.3-0.4,0.5-0.6c0.2-0.1,0.5-0.2,0.8-0.2c0.4,0,0.8,0.1,1,0.3
							c0.2,0.2,0.4,0.5,0.4,0.9h-0.8c0-0.2-0.1-0.3-0.2-0.4c-0.1-0.1-0.2-0.1-0.4-0.1c-0.2,0-0.4,0.1-0.5,0.3s-0.2,0.4-0.2,0.8v0.2
							c0,0.3,0.1,0.6,0.2,0.8c0.1,0.2,0.3,0.3,0.6,0.3c0.2,0,0.4,0,0.5-0.1v-0.5h-0.6v-0.6h1.4V50.1z"/>
						<path class="st68" d="M107.5,47.4c0-0.1,0-0.2,0.1-0.3c0.1-0.1,0.2-0.1,0.3-0.1s0.2,0,0.3,0.1c0.1,0.1,0.1,0.2,0.1,0.3
							s0,0.2-0.1,0.3c-0.1,0.1-0.2,0.1-0.3,0.1s-0.2,0-0.3-0.1S107.5,47.5,107.5,47.4z M108.3,50.5h-0.8V48h0.8V50.5z"/>
						<path class="st68" d="M110.2,50.5c0-0.1-0.1-0.1-0.1-0.2c-0.1,0.2-0.3,0.3-0.6,0.3c-0.2,0-0.4-0.1-0.6-0.2
							c-0.2-0.1-0.3-0.3-0.3-0.5c0-0.3,0.1-0.5,0.3-0.6s0.5-0.2,0.9-0.2h0.2v-0.1c0-0.2-0.1-0.4-0.3-0.4c-0.2,0-0.3,0.1-0.3,0.3
							h-0.8c0-0.2,0.1-0.4,0.3-0.6s0.5-0.2,0.8-0.2s0.6,0.1,0.8,0.2s0.3,0.4,0.3,0.7V50c0,0.2,0,0.4,0.1,0.5v0H110.2z M109.5,47.6
							l-0.1-0.3c0.2,0,0.3-0.1,0.3-0.1c0-0.1-0.1-0.2-0.3-0.2l0-0.3c0.3,0,0.6,0,0.7,0.1c0.2,0.1,0.2,0.2,0.2,0.3
							c0,0.1,0,0.2-0.1,0.2c-0.1,0.1-0.1,0.1-0.3,0.1v0.1H109.5z M109.7,50c0.1,0,0.2,0,0.2-0.1c0.1,0,0.1-0.1,0.1-0.1v-0.4h-0.2
							c-0.3,0-0.4,0.1-0.4,0.4c0,0.1,0,0.1,0.1,0.2C109.6,50,109.7,50,109.7,50z"/>
						<path class="st68" d="M112.1,48l0,0.3c0.2-0.2,0.4-0.3,0.7-0.3c0.3,0,0.5,0.1,0.7,0.4c0.2-0.3,0.4-0.4,0.7-0.4
							c0.5,0,0.8,0.3,0.8,0.9v1.7h-0.8v-1.6c0-0.1,0-0.2-0.1-0.3s-0.1-0.1-0.2-0.1c-0.2,0-0.3,0.1-0.4,0.2l0,0v1.7h-0.8v-1.6
							c0-0.1,0-0.2-0.1-0.3c0-0.1-0.1-0.1-0.2-0.1c-0.2,0-0.3,0.1-0.3,0.2v1.8h-0.8V48H112.1z"/>
						<path class="st68" d="M116.6,49.3c0-0.3,0-0.5,0.1-0.7c0.1-0.2,0.2-0.3,0.4-0.5s0.3-0.2,0.6-0.2c0.3,0,0.5,0.1,0.6,0.3l0-0.2
							h0.7v2.4c0,0.2-0.1,0.4-0.2,0.6c-0.1,0.2-0.3,0.3-0.5,0.4c-0.2,0.1-0.4,0.1-0.7,0.1c-0.2,0-0.4,0-0.5-0.1
							c-0.2-0.1-0.3-0.2-0.4-0.3l0.3-0.5c0.1,0.2,0.3,0.3,0.6,0.3c0.4,0,0.5-0.2,0.5-0.5v-0.1c-0.2,0.2-0.3,0.3-0.6,0.3
							c-0.3,0-0.6-0.1-0.8-0.4C116.7,50,116.6,49.7,116.6,49.3L116.6,49.3z M117.4,49.3c0,0.2,0,0.4,0.1,0.5
							c0.1,0.1,0.2,0.2,0.3,0.2c0.2,0,0.3-0.1,0.4-0.2v-1.1c-0.1-0.1-0.2-0.2-0.4-0.2c-0.1,0-0.3,0.1-0.3,0.2
							C117.4,48.9,117.4,49.1,117.4,49.3z"/>
						<path class="st68" d="M119.5,47.4c0-0.1,0-0.2,0.1-0.3c0.1-0.1,0.2-0.1,0.3-0.1s0.2,0,0.3,0.1c0.1,0.1,0.1,0.2,0.1,0.3
							s0,0.2-0.1,0.3c-0.1,0.1-0.2,0.1-0.3,0.1s-0.2,0-0.3-0.1S119.5,47.5,119.5,47.4z M120.3,50.5h-0.8V48h0.8V50.5z"/>
						<path class="st68" d="M122.2,50.5c0-0.1-0.1-0.1-0.1-0.2c-0.1,0.2-0.3,0.3-0.6,0.3c-0.2,0-0.4-0.1-0.6-0.2
							c-0.2-0.1-0.3-0.3-0.3-0.5c0-0.3,0.1-0.5,0.3-0.6s0.5-0.2,0.9-0.2h0.2v-0.1c0-0.2-0.1-0.4-0.3-0.4c-0.2,0-0.3,0.1-0.3,0.3
							h-0.8c0-0.2,0.1-0.4,0.3-0.6s0.5-0.2,0.8-0.2s0.6,0.1,0.8,0.2s0.3,0.4,0.3,0.7V50c0,0.2,0,0.4,0.1,0.5v0H122.2z M121.9,46.9
							h0.8l-0.7,0.7l-0.6,0L121.9,46.9z M121.7,50c0.1,0,0.2,0,0.2-0.1c0.1,0,0.1-0.1,0.1-0.1v-0.4h-0.2c-0.3,0-0.4,0.1-0.4,0.4
							c0,0.1,0,0.1,0.1,0.2C121.6,50,121.7,50,121.7,50z"/>
					</g>
				</g>
			</g>
			<g>
				<path class="st19" d="M125.7,84.7h-0.5v1.4h-0.3v-1.4h-0.5v-0.2h1.3V84.7z"/>
				<path class="st19" d="M127.2,86.1h-0.3v-0.7h-0.7v0.7h-0.3v-1.6h0.3v0.7h0.7v-0.7h0.3V86.1z"/>
				<path class="st19" d="M128.4,85.4h-0.6v0.5h0.8v0.2h-1v-1.6h1v0.2h-0.7v0.4h0.6V85.4z M128.4,84.3L128.4,84.3l-0.2,0l-0.2-0.2
					l-0.2,0.2l-0.2,0v0l0.3-0.3h0.2L128.4,84.3z"/>
				<path class="st19" d="M129.1,84.5l0.5,1.2l0.5-1.2h0.4v1.6h-0.3v-0.5l0-0.7l-0.5,1.2h-0.2l-0.5-1.2l0,0.7v0.5h-0.3v-1.6H129.1z"
					/>
				<path class="st19" d="M131.8,85.7l0.4-1.2h0.3l-0.6,1.6h-0.3l-0.6-1.6h0.3L131.8,85.7z"/>
				<path class="st19" d="M133.5,85.7h-0.6l-0.1,0.4h-0.3l0.6-1.6h0.2l0.6,1.6h-0.3L133.5,85.7z M133.3,84.4l-0.2,0l-0.3-0.3h0.3
					L133.3,84.4z M132.9,85.5h0.5l-0.2-0.7L132.9,85.5z"/>
				<path class="st19" d="M135.3,85.3c0,0.2,0,0.3-0.1,0.4c-0.1,0.1-0.1,0.2-0.2,0.3c-0.1,0.1-0.2,0.1-0.3,0.1c-0.1,0-0.2,0-0.3-0.1
					c-0.1-0.1-0.2-0.2-0.2-0.3c-0.1-0.1-0.1-0.2-0.1-0.4v-0.1c0-0.2,0-0.3,0.1-0.4c0.1-0.1,0.1-0.2,0.2-0.3c0.1-0.1,0.2-0.1,0.3-0.1
					s0.2,0,0.3,0.1c0.1,0.1,0.2,0.2,0.2,0.3C135.3,84.9,135.3,85.1,135.3,85.3L135.3,85.3z M135,85.2c0-0.2,0-0.3-0.1-0.4
					s-0.2-0.1-0.3-0.1c-0.1,0-0.2,0-0.3,0.1c-0.1,0.1-0.1,0.2-0.1,0.4v0.1c0,0.2,0,0.3,0.1,0.4s0.2,0.1,0.3,0.1c0.1,0,0.2,0,0.3-0.1
					S135,85.5,135,85.2L135,85.2z"/>
				<path class="st19" d="M137.3,85.8c-0.1,0.1-0.1,0.1-0.2,0.2s-0.2,0.1-0.3,0.1c-0.1,0-0.2,0-0.4-0.1c-0.1-0.1-0.2-0.1-0.2-0.3
					s-0.1-0.2-0.1-0.4v-0.1c0-0.2,0.1-0.4,0.2-0.6c0.1-0.1,0.3-0.2,0.5-0.2c0.2,0,0.3,0,0.4,0.1s0.2,0.2,0.2,0.4h-0.3
					c0-0.2-0.1-0.3-0.3-0.3c-0.1,0-0.2,0-0.3,0.1c-0.1,0.1-0.1,0.2-0.1,0.4v0.1c0,0.2,0,0.3,0.1,0.4c0.1,0.1,0.2,0.1,0.3,0.1
					c0.1,0,0.2,0,0.3-0.1v-0.3h-0.3v-0.2h0.6V85.8z"/>
				<path class="st19" d="M137.9,86.1h-0.3v-1.6h0.3V86.1z"/>
				<path class="st19" d="M139.5,85.3c0,0.2,0,0.3-0.1,0.4c-0.1,0.1-0.1,0.2-0.2,0.3c-0.1,0.1-0.2,0.1-0.3,0.1c-0.1,0-0.2,0-0.3-0.1
					c-0.1-0.1-0.2-0.2-0.2-0.3c-0.1-0.1-0.1-0.2-0.1-0.4v-0.1c0-0.2,0-0.3,0.1-0.4c0.1-0.1,0.1-0.2,0.2-0.3c0.1-0.1,0.2-0.1,0.3-0.1
					s0.2,0,0.3,0.1c0.1,0.1,0.2,0.2,0.2,0.3C139.5,84.9,139.5,85.1,139.5,85.3L139.5,85.3z M139.2,85.2c0-0.2,0-0.3-0.1-0.4
					s-0.2-0.1-0.3-0.1c-0.1,0-0.2,0-0.3,0.1c-0.1,0.1-0.1,0.2-0.1,0.4v0.1c0,0.2,0,0.3,0.1,0.4s0.2,0.1,0.3,0.1c0.1,0,0.2,0,0.3-0.1
					S139.2,85.5,139.2,85.2L139.2,85.2z M138.8,84.4l0-0.2c0.1,0,0.1,0,0.1,0c0,0,0,0,0-0.1c0-0.1-0.1-0.1-0.2-0.1l0-0.1
					c0.1,0,0.2,0,0.3,0.1c0.1,0,0.1,0.1,0.1,0.2c0,0,0,0.1,0,0.1c0,0-0.1,0-0.1,0.1v0.1H138.8z"/>
			</g>
			<g>
				<path class="st13" d="M126.9,91.2l0.5,1.2l0.5-1.2h0.4v1.6h-0.3v-0.5l0-0.7l-0.5,1.2h-0.2l-0.5-1.2l0,0.7v0.5h-0.3v-1.6H126.9z"
					/>
				<path class="st13" d="M129.6,91.2v1.1c0,0.2-0.1,0.3-0.2,0.4c-0.1,0.1-0.2,0.1-0.4,0.1c-0.2,0-0.3,0-0.4-0.1
					c-0.1-0.1-0.2-0.2-0.2-0.4v-1.1h0.3v1.1c0,0.1,0,0.2,0.1,0.2c0.1,0.1,0.1,0.1,0.2,0.1c0.2,0,0.3-0.1,0.3-0.3v-1H129.6z"/>
				<path class="st13" d="M130.7,92.4h-0.6l-0.1,0.4h-0.3l0.6-1.6h0.2l0.6,1.6h-0.3L130.7,92.4z M130.2,92.2h0.5l-0.2-0.7
					L130.2,92.2z"/>
				<path class="st13" d="M133.1,92.8h-0.3l-0.7-1.1v1.1h-0.3v-1.6h0.3l0.7,1.1v-1.1h0.3V92.8z"/>
				<path class="st13" d="M134.7,92.6c-0.1,0.1-0.1,0.1-0.2,0.2s-0.2,0.1-0.3,0.1c-0.1,0-0.2,0-0.4-0.1c-0.1-0.1-0.2-0.1-0.2-0.3
					s-0.1-0.2-0.1-0.4v-0.1c0-0.2,0.1-0.4,0.2-0.6c0.1-0.1,0.3-0.2,0.5-0.2c0.2,0,0.3,0,0.4,0.1s0.2,0.2,0.2,0.4h-0.3
					c0-0.2-0.1-0.3-0.3-0.3c-0.1,0-0.2,0-0.3,0.1c-0.1,0.1-0.1,0.2-0.1,0.4V92c0,0.2,0,0.3,0.1,0.4s0.2,0.1,0.3,0.1
					c0.1,0,0.2,0,0.3-0.1v-0.3h-0.3V92h0.6V92.6z"/>
				<path class="st13" d="M135.9,92.4h-0.6l-0.1,0.4h-0.3l0.6-1.6h0.2l0.6,1.6H136L135.9,92.4z M135.3,92.2h0.5l-0.2-0.7L135.3,92.2
					z"/>
				<path class="st13" d="M136.8,91.9l0.4-0.7h0.3l-0.5,1v0.6h-0.3v-0.6l-0.5-1h0.3L136.8,91.9z"/>
			</g>
			<g>
				<path class="st19" d="M125.7,109.2h-0.5v1.4h-0.3v-1.4h-0.5V109h1.3V109.2z"/>
				<path class="st19" d="M127.2,110.6h-0.3v-0.7h-0.7v0.7h-0.3V109h0.3v0.7h0.7V109h0.3V110.6z"/>
				<path class="st19" d="M128.4,109.9h-0.6v0.5h0.8v0.2h-1V109h1v0.2h-0.7v0.4h0.6V109.9z M128.4,108.9L128.4,108.9l-0.2,0
					l-0.2-0.2l-0.2,0.2l-0.2,0v0l0.3-0.3h0.2L128.4,108.9z"/>
				<path class="st19" d="M129.1,109l0.5,1.2l0.5-1.2h0.4v1.6h-0.3v-0.5l0-0.7l-0.5,1.2h-0.2l-0.5-1.2l0,0.7v0.5h-0.3V109H129.1z"/>
				<path class="st19" d="M131.8,110.2l0.4-1.2h0.3l-0.6,1.6h-0.3l-0.6-1.6h0.3L131.8,110.2z"/>
				<path class="st19" d="M133.5,110.2h-0.6l-0.1,0.4h-0.3l0.6-1.6h0.2l0.6,1.6h-0.3L133.5,110.2z M133.3,108.9h-0.2l-0.3-0.3h0.3
					L133.3,108.9z M132.9,110h0.5l-0.2-0.7L132.9,110z"/>
				<path class="st19" d="M135.3,109.8c0,0.2,0,0.3-0.1,0.4c-0.1,0.1-0.1,0.2-0.2,0.3c-0.1,0.1-0.2,0.1-0.3,0.1
					c-0.1,0-0.2,0-0.3-0.1c-0.1-0.1-0.2-0.2-0.2-0.3c-0.1-0.1-0.1-0.2-0.1-0.4v-0.1c0-0.2,0-0.3,0.1-0.4c0.1-0.1,0.1-0.2,0.2-0.3
					c0.1-0.1,0.2-0.1,0.3-0.1s0.2,0,0.3,0.1c0.1,0.1,0.2,0.2,0.2,0.3S135.3,109.6,135.3,109.8L135.3,109.8z M135,109.8
					c0-0.2,0-0.3-0.1-0.4c-0.1-0.1-0.2-0.1-0.3-0.1c-0.1,0-0.2,0-0.3,0.1c-0.1,0.1-0.1,0.2-0.1,0.4v0.1c0,0.2,0,0.3,0.1,0.4
					s0.2,0.1,0.3,0.1c0.1,0,0.2,0,0.3-0.1C135,110.2,135,110,135,109.8L135,109.8z"/>
				<path class="st19" d="M137.3,110.4c-0.1,0.1-0.1,0.1-0.2,0.2s-0.2,0.1-0.3,0.1c-0.1,0-0.2,0-0.4-0.1c-0.1-0.1-0.2-0.1-0.2-0.3
					s-0.1-0.2-0.1-0.4v-0.1c0-0.2,0.1-0.4,0.2-0.6c0.1-0.1,0.3-0.2,0.5-0.2c0.2,0,0.3,0,0.4,0.1s0.2,0.2,0.2,0.4h-0.3
					c0-0.2-0.1-0.3-0.3-0.3c-0.1,0-0.2,0-0.3,0.1c-0.1,0.1-0.1,0.2-0.1,0.4v0.1c0,0.2,0,0.3,0.1,0.4s0.2,0.1,0.3,0.1
					c0.1,0,0.2,0,0.3-0.1V110h-0.3v-0.2h0.6V110.4z"/>
				<path class="st19" d="M137.9,110.6h-0.3V109h0.3V110.6z"/>
				<path class="st19" d="M139.5,109.8c0,0.2,0,0.3-0.1,0.4c-0.1,0.1-0.1,0.2-0.2,0.3c-0.1,0.1-0.2,0.1-0.3,0.1
					c-0.1,0-0.2,0-0.3-0.1c-0.1-0.1-0.2-0.2-0.2-0.3c-0.1-0.1-0.1-0.2-0.1-0.4v-0.1c0-0.2,0-0.3,0.1-0.4c0.1-0.1,0.1-0.2,0.2-0.3
					c0.1-0.1,0.2-0.1,0.3-0.1s0.2,0,0.3,0.1c0.1,0.1,0.2,0.2,0.2,0.3S139.5,109.6,139.5,109.8L139.5,109.8z M139.2,109.8
					c0-0.2,0-0.3-0.1-0.4c-0.1-0.1-0.2-0.1-0.3-0.1c-0.1,0-0.2,0-0.3,0.1c-0.1,0.1-0.1,0.2-0.1,0.4v0.1c0,0.2,0,0.3,0.1,0.4
					s0.2,0.1,0.3,0.1c0.1,0,0.2,0,0.3-0.1C139.2,110.2,139.2,110,139.2,109.8L139.2,109.8z M138.8,108.9l0-0.2c0.1,0,0.1,0,0.1,0
					c0,0,0,0,0-0.1c0-0.1-0.1-0.1-0.2-0.1l0-0.1c0.1,0,0.2,0,0.3,0.1c0.1,0,0.1,0.1,0.1,0.2c0,0,0,0.1,0,0.1c0,0-0.1,0-0.1,0.1v0.1
					H138.8z"/>
			</g>
			<g>
				<path class="st13" d="M126.9,115.7l0.5,1.2l0.5-1.2h0.4v1.6h-0.3v-0.5l0-0.7l-0.5,1.2h-0.2l-0.5-1.2l0,0.7v0.5h-0.3v-1.6H126.9z
					"/>
				<path class="st13" d="M129.6,115.7v1.1c0,0.2-0.1,0.3-0.2,0.4c-0.1,0.1-0.2,0.1-0.4,0.1c-0.2,0-0.3,0-0.4-0.1
					c-0.1-0.1-0.2-0.2-0.2-0.4v-1.1h0.3v1.1c0,0.1,0,0.2,0.1,0.2c0.1,0.1,0.1,0.1,0.2,0.1c0.2,0,0.3-0.1,0.3-0.3v-1H129.6z"/>
				<path class="st13" d="M130.7,116.9h-0.6l-0.1,0.4h-0.3l0.6-1.6h0.2l0.6,1.6h-0.3L130.7,116.9z M130.2,116.7h0.5l-0.2-0.7
					L130.2,116.7z"/>
				<path class="st13" d="M133.1,117.3h-0.3l-0.7-1.1v1.1h-0.3v-1.6h0.3l0.7,1.1v-1.1h0.3V117.3z"/>
				<path class="st13" d="M134.7,117.1c-0.1,0.1-0.1,0.1-0.2,0.2s-0.2,0.1-0.3,0.1c-0.1,0-0.2,0-0.4-0.1c-0.1-0.1-0.2-0.1-0.2-0.3
					s-0.1-0.2-0.1-0.4v-0.1c0-0.2,0.1-0.4,0.2-0.6c0.1-0.1,0.3-0.2,0.5-0.2c0.2,0,0.3,0,0.4,0.1s0.2,0.2,0.2,0.4h-0.3
					c0-0.2-0.1-0.3-0.3-0.3c-0.1,0-0.2,0-0.3,0.1c-0.1,0.1-0.1,0.2-0.1,0.4v0.1c0,0.2,0,0.3,0.1,0.4s0.2,0.1,0.3,0.1
					c0.1,0,0.2,0,0.3-0.1v-0.3h-0.3v-0.2h0.6V117.1z"/>
				<path class="st13" d="M135.9,116.9h-0.6l-0.1,0.4h-0.3l0.6-1.6h0.2l0.6,1.6H136L135.9,116.9z M135.3,116.7h0.5l-0.2-0.7
					L135.3,116.7z"/>
				<path class="st13" d="M136.8,116.5l0.4-0.7h0.3l-0.5,1v0.6h-0.3v-0.6l-0.5-1h0.3L136.8,116.5z"/>
			</g>
		</g>
	</g>
</g>
</svg>
