<?xml version="1.0" encoding="utf-8"?>
<!-- Generator: Adobe Illustrator 23.0.1, SVG Export Plug-In . SVG Version: 6.00 Build 0)  -->
<svg version="1.1" id="Layer_1" xmlns="http://www.w3.org/2000/svg" xmlns:xlink="http://www.w3.org/1999/xlink" x="0px" y="0px"
	 viewBox="0 0 148.9 140.9" style="enable-background:new 0 0 148.9 140.9;" xml:space="preserve">
<style type="text/css">
	.st0{fill:#FFF3F3;fill-opacity:0.67;}
	.st1{fill-rule:evenodd;clip-rule:evenodd;fill:url(#SVGID_1_);}
	.st2{fill-rule:evenodd;clip-rule:evenodd;fill:url(#SVGID_2_);}
	.st3{fill-rule:evenodd;clip-rule:evenodd;fill:url(#SVGID_3_);}
	.st4{fill:url(#SVGID_4_);}
	.st5{fill-rule:evenodd;clip-rule:evenodd;fill:url(#SVGID_5_);}
	.st6{fill-rule:evenodd;clip-rule:evenodd;fill:url(#SVGID_6_);}
	.st7{fill-rule:evenodd;clip-rule:evenodd;fill:url(#SVGID_7_);}
	.st8{fill:url(#SVGID_8_);}
	.st9{fill:url(#SVGID_9_);}
	.st10{fill:#F38180;}
	.st11{fill:url(#SVGID_10_);}
	.st12{fill:#F8B8BA;}
	.st13{fill-rule:evenodd;clip-rule:evenodd;fill:url(#SVGID_11_);}
	.st14{fill-rule:evenodd;clip-rule:evenodd;fill:url(#SVGID_12_);}
	.st15{fill-rule:evenodd;clip-rule:evenodd;fill:url(#SVGID_13_);}
	.st16{fill-rule:evenodd;clip-rule:evenodd;fill:#65547E;}
	.st17{fill-rule:evenodd;clip-rule:evenodd;fill:url(#SVGID_14_);}
	.st18{fill:#F6C082;}
	.st19{fill:#886176;}
	.st20{fill-rule:evenodd;clip-rule:evenodd;fill:url(#SVGID_15_);}
	.st21{fill:#65547E;}
	.st22{fill-rule:evenodd;clip-rule:evenodd;fill:url(#SVGID_16_);}
	.st23{fill:url(#SVGID_17_);}
	.st24{fill:url(#SVGID_18_);}
	.st25{fill:#CD9285;}
	.st26{fill:#D69F92;}
	.st27{fill-rule:evenodd;clip-rule:evenodd;fill:url(#SVGID_19_);}
	.st28{fill-rule:evenodd;clip-rule:evenodd;fill:#AB2070;}
	.st29{fill:url(#SVGID_20_);}
	.st30{fill:url(#SVGID_21_);}
	.st31{fill-rule:evenodd;clip-rule:evenodd;fill:url(#SVGID_22_);}
	.st32{fill-rule:evenodd;clip-rule:evenodd;fill:url(#SVGID_23_);}
	.st33{fill-rule:evenodd;clip-rule:evenodd;fill:#F5999B;}
	.st34{fill:url(#SVGID_24_);}
	.st35{fill-rule:evenodd;clip-rule:evenodd;fill:url(#SVGID_25_);}
	.st36{fill-rule:evenodd;clip-rule:evenodd;fill:url(#SVGID_26_);}
	.st37{fill-rule:evenodd;clip-rule:evenodd;fill:url(#SVGID_27_);}
	.st38{fill:url(#SVGID_28_);}
	.st39{fill:url(#SVGID_29_);}
	.st40{fill:url(#SVGID_30_);}
	.st41{fill:url(#SVGID_31_);}
	.st42{fill:url(#SVGID_32_);}
	.st43{fill:url(#SVGID_33_);}
	.st44{fill:url(#SVGID_34_);}
	.st45{fill:url(#SVGID_35_);}
	.st46{fill:url(#SVGID_36_);}
	.st47{fill:url(#SVGID_37_);}
	.st48{fill:url(#SVGID_38_);}
	.st49{fill:url(#SVGID_39_);}
	.st50{fill:url(#SVGID_40_);}
	.st51{fill:url(#SVGID_41_);}
	.st52{fill:url(#SVGID_42_);}
	.st53{fill:url(#SVGID_43_);}
	.st54{fill:url(#SVGID_44_);}
	.st55{fill:url(#SVGID_45_);}
	.st56{fill:url(#SVGID_46_);}
	.st57{fill:url(#SVGID_47_);}
	.st58{fill:url(#SVGID_48_);}
	.st59{fill:#7E3A5A;}
	.st60{fill-rule:evenodd;clip-rule:evenodd;fill:url(#SVGID_49_);}
	.st61{fill-rule:evenodd;clip-rule:evenodd;fill:url(#SVGID_50_);}
	.st62{fill-rule:evenodd;clip-rule:evenodd;fill:url(#SVGID_51_);}
	.st63{fill-rule:evenodd;clip-rule:evenodd;fill:url(#SVGID_52_);}
	.st64{fill-rule:evenodd;clip-rule:evenodd;fill:url(#SVGID_53_);}
	.st65{fill-rule:evenodd;clip-rule:evenodd;fill:url(#SVGID_54_);}
	.st66{fill-rule:evenodd;clip-rule:evenodd;fill:url(#SVGID_55_);}
	.st67{fill-rule:evenodd;clip-rule:evenodd;fill:url(#SVGID_56_);}
	.st68{fill-rule:evenodd;clip-rule:evenodd;fill:url(#SVGID_57_);}
	.st69{fill-rule:evenodd;clip-rule:evenodd;fill:url(#SVGID_58_);}
	.st70{fill-rule:evenodd;clip-rule:evenodd;fill:url(#SVGID_59_);}
	.st71{fill-rule:evenodd;clip-rule:evenodd;fill:url(#SVGID_60_);}
	.st72{fill-rule:evenodd;clip-rule:evenodd;fill:url(#SVGID_61_);}
	.st73{fill-rule:evenodd;clip-rule:evenodd;fill:url(#SVGID_62_);}
	.st74{fill-rule:evenodd;clip-rule:evenodd;fill:url(#SVGID_63_);}
	.st75{fill-rule:evenodd;clip-rule:evenodd;fill:url(#SVGID_64_);}
	.st76{fill-rule:evenodd;clip-rule:evenodd;fill:url(#SVGID_65_);}
	.st77{fill-rule:evenodd;clip-rule:evenodd;fill:url(#SVGID_66_);}
	.st78{fill-rule:evenodd;clip-rule:evenodd;fill:url(#SVGID_67_);}
	.st79{fill-rule:evenodd;clip-rule:evenodd;fill:url(#SVGID_68_);}
	.st80{fill-rule:evenodd;clip-rule:evenodd;fill:url(#SVGID_69_);}
	.st81{fill-rule:evenodd;clip-rule:evenodd;fill:url(#SVGID_70_);}
	.st82{fill-rule:evenodd;clip-rule:evenodd;fill:#7E3A5A;}
	.st83{fill:#A99A9C;}
	.st84{fill-rule:evenodd;clip-rule:evenodd;fill:#FFF8F6;}
	.st85{fill:url(#SVGID_71_);}
	.st86{fill:url(#SVGID_72_);}
	.st87{fill:url(#SVGID_73_);}
	.st88{fill:url(#SVGID_74_);}
	.st89{fill:url(#SVGID_75_);}
	.st90{fill:url(#SVGID_76_);}
	.st91{fill:url(#SVGID_77_);}
	.st92{fill:url(#SVGID_78_);}
	.st93{fill:url(#SVGID_79_);}
	.st94{fill:url(#SVGID_80_);}
	.st95{fill:url(#SVGID_81_);}
	.st96{fill:url(#SVGID_82_);}
	.st97{fill:url(#SVGID_83_);}
	.st98{fill:url(#SVGID_84_);}
	.st99{fill:url(#SVGID_85_);}
	.st100{fill:url(#SVGID_86_);}
	.st101{fill:url(#SVGID_87_);}
	.st102{fill:url(#SVGID_88_);}
	.st103{fill:url(#SVGID_89_);}
	.st104{fill:url(#SVGID_90_);}
	.st105{fill:url(#SVGID_91_);}
	.st106{fill:url(#SVGID_92_);}
	.st107{fill:url(#SVGID_93_);}
	.st108{fill:#7B1D58;}
	.st109{fill:url(#SVGID_94_);}
	.st110{fill:url(#SVGID_95_);}
	.st111{fill:url(#SVGID_96_);}
	.st112{fill:url(#SVGID_97_);}
	.st113{fill:url(#SVGID_98_);}
	.st114{fill:url(#SVGID_99_);}
	.st115{fill:url(#SVGID_100_);}
	.st116{fill:url(#SVGID_101_);}
	.st117{fill:url(#SVGID_102_);}
	.st118{fill:url(#SVGID_103_);}
	.st119{fill:url(#SVGID_104_);}
	.st120{fill:url(#SVGID_105_);}
	.st121{fill:url(#SVGID_106_);}
	.st122{fill:url(#SVGID_107_);}
	.st123{fill:url(#SVGID_108_);}
	.st124{fill:url(#SVGID_109_);}
	.st125{fill:url(#SVGID_110_);}
	.st126{fill:url(#SVGID_111_);}
	.st127{fill:url(#SVGID_112_);}
	.st128{fill:url(#SVGID_113_);}
	.st129{fill:url(#SVGID_114_);}
	.st130{fill-rule:evenodd;clip-rule:evenodd;fill:#DD9F12;}
	.st131{fill-rule:evenodd;clip-rule:evenodd;fill:#F3B41B;}
	.st132{fill:#F3B41B;}
	.st133{fill-rule:evenodd;clip-rule:evenodd;fill:#F3CA6D;}
	.st134{fill:url(#SVGID_115_);}
	.st135{fill:url(#SVGID_116_);}
	.st136{fill:url(#SVGID_117_);}
	.st137{fill:url(#SVGID_118_);}
	.st138{fill:url(#SVGID_119_);}
	.st139{fill-rule:evenodd;clip-rule:evenodd;fill:url(#SVGID_120_);}
	.st140{fill-rule:evenodd;clip-rule:evenodd;fill:#CC8263;}
	.st141{fill-rule:evenodd;clip-rule:evenodd;fill:#FFE179;}
	.st142{fill-rule:evenodd;clip-rule:evenodd;fill:url(#SVGID_121_);}
	.st143{fill:#F1B680;}
	.st144{fill:#4C4171;}
	.st145{fill-rule:evenodd;clip-rule:evenodd;fill:#685C82;}
	.st146{fill-rule:evenodd;clip-rule:evenodd;fill:#A97575;}
	.st147{fill-rule:evenodd;clip-rule:evenodd;fill:#F1B680;}
	.st148{fill:#A97575;}
	.st149{fill-rule:evenodd;clip-rule:evenodd;fill:url(#SVGID_122_);}
	.st150{fill-rule:evenodd;clip-rule:evenodd;fill:url(#SVGID_123_);}
	.st151{fill-rule:evenodd;clip-rule:evenodd;fill:url(#SVGID_124_);}
	.st152{fill:url(#SVGID_125_);}
	.st153{fill-rule:evenodd;clip-rule:evenodd;fill:#CA7B40;}
	.st154{fill-rule:evenodd;clip-rule:evenodd;fill:url(#SVGID_126_);}
	.st155{fill-rule:evenodd;clip-rule:evenodd;fill:#805A72;}
	.st156{fill-rule:evenodd;clip-rule:evenodd;fill:url(#SVGID_127_);}
	.st157{fill-rule:evenodd;clip-rule:evenodd;fill:url(#SVGID_128_);}
	.st158{fill-rule:evenodd;clip-rule:evenodd;fill:#F1BE81;}
	.st159{fill-rule:evenodd;clip-rule:evenodd;fill:#4F4867;}
	.st160{fill-rule:evenodd;clip-rule:evenodd;fill:#A6979A;}
	.st161{fill-rule:evenodd;clip-rule:evenodd;fill:url(#SVGID_129_);}
	.st162{fill-rule:evenodd;clip-rule:evenodd;fill:#F38180;}
	.st163{fill-rule:evenodd;clip-rule:evenodd;fill:#D1E07C;}
	.st164{fill:#C85B80;}
	.st165{fill-rule:evenodd;clip-rule:evenodd;fill:url(#SVGID_130_);}
	.st166{fill-rule:evenodd;clip-rule:evenodd;fill:url(#SVGID_131_);}
	.st167{fill-rule:evenodd;clip-rule:evenodd;fill:url(#SVGID_132_);}
	.st168{fill-rule:evenodd;clip-rule:evenodd;fill:url(#SVGID_133_);}
	.st169{fill-rule:evenodd;clip-rule:evenodd;fill:url(#SVGID_134_);}
	.st170{fill-rule:evenodd;clip-rule:evenodd;fill:url(#SVGID_135_);}
	.st171{fill-rule:evenodd;clip-rule:evenodd;fill:url(#SVGID_136_);}
	.st172{fill:url(#SVGID_137_);}
	.st173{fill:url(#SVGID_138_);}
	.st174{fill-rule:evenodd;clip-rule:evenodd;fill:url(#SVGID_139_);}
	.st175{fill-rule:evenodd;clip-rule:evenodd;fill:#FDCA87;}
	.st176{fill-rule:evenodd;clip-rule:evenodd;fill:url(#SVGID_140_);}
	.st177{fill-rule:evenodd;clip-rule:evenodd;fill:url(#SVGID_141_);}
	.st178{fill-rule:evenodd;clip-rule:evenodd;fill:url(#SVGID_142_);}
	.st179{fill-rule:evenodd;clip-rule:evenodd;fill:url(#SVGID_143_);}
	.st180{fill-rule:evenodd;clip-rule:evenodd;fill:url(#SVGID_144_);}
	.st181{fill-rule:evenodd;clip-rule:evenodd;fill:url(#SVGID_145_);}
	.st182{fill:url(#SVGID_146_);}
	.st183{fill-rule:evenodd;clip-rule:evenodd;fill:url(#SVGID_147_);}
	.st184{fill-rule:evenodd;clip-rule:evenodd;fill:url(#SVGID_148_);}
	.st185{fill:url(#SVGID_149_);}
	.st186{fill:url(#SVGID_150_);}
	.st187{fill:url(#SVGID_151_);}
	.st188{fill:url(#SVGID_152_);}
</style>
<title>Asset 1</title>
<g>
	<g>
		<g id="Layer_1-2">
			<path class="st0" d="M108.8,60.9L108.8,60.9c-0.1-3-2.3-5.6-5.3-6.1c-1.4-0.2-2.8,0-4.1,0.7c-0.9-4.1-4.9-6.6-9-5.7
				c-2.9,0.6-5.1,2.9-5.7,5.7c-3,0.1-5.5,2.3-6,5.3c-0.1,0.6-0.1,1.2,0,1.8c-4.7,1.9-6.9,7.2-5,11.8c1.9,4.7,7.2,6.9,11.8,5
				c0.4-0.2,0.9-0.4,1.3-0.6c3.2,4.1,9.2,4.9,13.3,1.7c1.1-0.9,2-1.9,2.6-3.2c1,0.6,2.1,1,3.2,1.2c4.9,0.7,9.4-2.6,10.2-7.5
				C116.8,66.2,113.6,61.7,108.8,60.9z"/>
			
				<linearGradient id="SVGID_1_" gradientUnits="userSpaceOnUse" x1="43.7904" y1="6.2622" x2="26.2604" y2="5.3422" gradientTransform="matrix(1 0 0 -1 0 142)">
				<stop  offset="0" style="stop-color:#D7BA9E"/>
				<stop  offset="1" style="stop-color:#AC8888"/>
			</linearGradient>
			<path class="st1" d="M3.7,137.2h4.6V137H3.7V137.2L3.7,137.2z M28.1,137.2h4.6V137h-4.6V137.2L28.1,137.2z M23.2,137.2h4.6V137
				h-4.6L23.2,137.2L23.2,137.2z M18.4,137.2H23V137h-4.6V137.2L18.4,137.2z M13.5,137.2h4.6V137h-4.6V137.2L13.5,137.2z M8.6,137.2
				h4.6V137H8.6V137.2z"/>
			
				<linearGradient id="SVGID_2_" gradientUnits="userSpaceOnUse" x1="169.38" y1="9.635" x2="141.12" y2="9.635" gradientTransform="matrix(1 0 0 -1 0 142)">
				<stop  offset="0" style="stop-color:#D7BA9E"/>
				<stop  offset="1" style="stop-color:#AC8888"/>
			</linearGradient>
			<polygon class="st2" points="38.1,137.2 43.4,137.2 43.4,139.7 127.6,139.7 127.6,137.2 148.9,137.2 148.9,125.1 38.1,125.1 			
				"/>
			
				<linearGradient id="SVGID_3_" gradientUnits="userSpaceOnUse" x1="23.4601" y1="22.9462" x2="7.7401" y2="22.6663" gradientTransform="matrix(1 0 0 -1 0 142)">
				<stop  offset="0" style="stop-color:#D7BA9E"/>
				<stop  offset="1" style="stop-color:#AC8888"/>
			</linearGradient>
			<polygon class="st3" points="5.6,119.2 16.7,120 40.2,119.2 10.4,118.4 			"/>
			
				<linearGradient id="SVGID_4_" gradientUnits="userSpaceOnUse" x1="8.0587" y1="22.5114" x2="10.9987" y2="25.1514" gradientTransform="matrix(1 0 0 -1 0 142)">
				<stop  offset="0" style="stop-color:#785569"/>
				<stop  offset="1" style="stop-color:#533F4E"/>
			</linearGradient>
			<rect x="9.3" y="114.9" class="st4" width="3.1" height="4.3"/>
			
				<linearGradient id="SVGID_5_" gradientUnits="userSpaceOnUse" x1="13.6023" y1="23.8008" x2="2.2523" y2="54.9908" gradientTransform="matrix(1 0 0 -1 0 142)">
				<stop  offset="0" style="stop-color:#B6C881"/>
				<stop  offset="1" style="stop-color:#D1E17F"/>
			</linearGradient>
			<polygon class="st5" points="10.8,82.9 18.7,116.1 2.8,116.1 			"/>
			
				<linearGradient id="SVGID_6_" gradientUnits="userSpaceOnUse" x1="8.8623" y1="58.2205" x2="15.2123" y2="30.7105" gradientTransform="matrix(1 0 0 -1 0 142)">
				<stop  offset="0" style="stop-color:#8C9679"/>
				<stop  offset="1" style="stop-color:#8A9277"/>
			</linearGradient>
			<polygon class="st6" points="10.8,82.9 18.7,116.1 13.9,116.1 			"/>
			
				<linearGradient id="SVGID_7_" gradientUnits="userSpaceOnUse" x1="106.0322" y1="107.6424" x2="97.3422" y2="115.7424" gradientTransform="matrix(1 0 0 -1 0 142)">
				<stop  offset="0" style="stop-color:#BD7C9B"/>
				<stop  offset="1" style="stop-color:#956F83"/>
			</linearGradient>
			<polygon class="st7" points="95.8,18 93.6,11.5 74.2,13.3 76.4,18 			"/>
			
				<linearGradient id="SVGID_8_" gradientUnits="userSpaceOnUse" x1="48.206" y1="101.4589" x2="43.136" y2="119.1589" gradientTransform="matrix(1 0 0 -1 0 142)">
				<stop  offset="0" style="stop-color:#4F4473"/>
				<stop  offset="1" style="stop-color:#28253A"/>
			</linearGradient>
			<rect x="43.7" y="23.6" class="st8" width="2.3" height="10.4"/>
			
				<linearGradient id="SVGID_9_" gradientUnits="userSpaceOnUse" x1="64.9485" y1="106.3496" x2="59.9185" y2="123.8796" gradientTransform="matrix(1 0 0 -1 0 142)">
				<stop  offset="0" style="stop-color:#4F4473"/>
				<stop  offset="1" style="stop-color:#28253A"/>
			</linearGradient>
			<rect x="61.8" y="23.6" class="st9" width="2.3" height="10.4"/>
			<rect x="75.8" y="13.6" class="st10" width="16.6" height="21.9"/>
			
				<linearGradient id="SVGID_10_" gradientUnits="userSpaceOnUse" x1="84.12" y1="127.39" x2="84.12" y2="128.56" gradientTransform="matrix(1 0 0 -1 0 142)">
				<stop  offset="0" style="stop-color:#9D4C72"/>
				<stop  offset="1" style="stop-color:#7E3A5A"/>
			</linearGradient>
			<rect x="75.8" y="13.6" class="st11" width="16.6" height="1.3"/>
			<rect x="74.2" y="11.3" class="st12" width="19.4" height="1.9"/>
			
				<linearGradient id="SVGID_11_" gradientUnits="userSpaceOnUse" x1="94.3412" y1="126.4995" x2="90.3412" y2="116.0695" gradientTransform="matrix(1 0 0 -1 0 142)">
				<stop  offset="0" style="stop-color:#BD7C9B"/>
				<stop  offset="1" style="stop-color:#956F83"/>
			</linearGradient>
			<polygon class="st13" points="95.8,18 93.6,13.3 93.6,11.3 95.8,16 			"/>
			
				<linearGradient id="SVGID_12_" gradientUnits="userSpaceOnUse" x1="53.115" y1="80.47" x2="53.115" y2="133.32" gradientTransform="matrix(1 0 0 -1 0 142)">
				<stop  offset="0" style="stop-color:#4F4473"/>
				<stop  offset="1" style="stop-color:#28253A"/>
			</linearGradient>
			<polygon class="st14" points="42.4,43.1 43.8,44.5 53.1,35.3 62.4,44.5 63.8,43.1 54.5,33.9 61.8,26.6 60.4,25.2 53.1,32.5 
				45.9,25.2 44.5,26.6 51.7,33.9 			"/>
			
				<linearGradient id="SVGID_13_" gradientUnits="userSpaceOnUse" x1="53.77" y1="80.47" x2="53.77" y2="133.32" gradientTransform="matrix(1 0 0 -1 0 142)">
				<stop  offset="0" style="stop-color:#4F4473"/>
				<stop  offset="1" style="stop-color:#28253A"/>
			</linearGradient>
			<polygon class="st15" points="43.1,43.1 44.5,44.5 53.8,35.3 63.1,44.5 64.5,43.1 55.2,33.9 62.4,26.6 61,25.2 53.8,32.5 
				46.5,25.2 45.1,26.6 52.4,33.9 			"/>
			<polygon class="st16" points="48.5,39.9 53.1,35.3 57.8,39.9 60.6,39.9 54.5,33.9 61.6,26.8 58.8,26.8 53.1,32.5 47.5,26.8 
				46.3,26.8 46.3,28.5 51.7,33.9 46.3,39.2 46.3,39.9 			"/>
			
				<linearGradient id="SVGID_14_" gradientUnits="userSpaceOnUse" x1="84.075" y1="104.46" x2="84.075" y2="123.48" gradientTransform="matrix(1 0 0 -1 0 142)">
				<stop  offset="0" style="stop-color:#9D4C72"/>
				<stop  offset="1" style="stop-color:#7E3A5A"/>
			</linearGradient>
			<polygon class="st17" points="90.8,17.9 90.8,39.6 78.2,39.6 77.9,39 77.7,38.8 77.4,38.2 77.4,16.4 89.9,16.4 			"/>
			<rect x="77.4" y="16.4" class="st18" width="12.4" height="21.8"/>
			<rect x="78.9" y="18" class="st19" width="9.3" height="18.7"/>
			<rect x="79.4" y="18.8" class="st18" width="8.8" height="17.8"/>
			<rect x="89.6" y="16.4" class="st19" width="0.3" height="21.8"/>
			
				<linearGradient id="SVGID_15_" gradientUnits="userSpaceOnUse" x1="93.52" y1="108.7" x2="93.52" y2="124.95" gradientTransform="matrix(1 0 0 -1 0 142)">
				<stop  offset="0" style="stop-color:#9D4C72"/>
				<stop  offset="1" style="stop-color:#7E3A5A"/>
			</linearGradient>
			<polygon class="st20" points="93.9,16.7 92.4,13.6 92.4,35.5 94.6,35.5 94.6,34.2 93.9,34.2 			"/>
			<rect x="43.9" y="24.2" class="st21" width="18" height="1.9"/>
			
				<linearGradient id="SVGID_16_" gradientUnits="userSpaceOnUse" x1="52.875" y1="114.21" x2="52.875" y2="119.45" gradientTransform="matrix(1 0 0 -1 0 142)">
				<stop  offset="0" style="stop-color:#4F4473"/>
				<stop  offset="1" style="stop-color:#28253A"/>
			</linearGradient>
			<polygon class="st22" points="43.9,24.2 45.9,24.2 61.9,24.2 61.9,25.7 45.9,25.7 45.9,26.1 43.9,26.1 43.9,25.7 			"/>
			<rect x="42.9" y="23.6" class="st21" width="2.3" height="10.4"/>
			<rect x="61" y="23.6" class="st21" width="2.3" height="10.4"/>
			
				<linearGradient id="SVGID_17_" gradientUnits="userSpaceOnUse" x1="44.04" y1="115.9" x2="44.04" y2="119.45" gradientTransform="matrix(1 0 0 -1 0 142)">
				<stop  offset="0" style="stop-color:#4F4473"/>
				<stop  offset="1" style="stop-color:#28253A"/>
			</linearGradient>
			<rect x="42.9" y="23.6" class="st23" width="2.3" height="1.9"/>
			
				<linearGradient id="SVGID_18_" gradientUnits="userSpaceOnUse" x1="62.18" y1="115.9" x2="62.18" y2="119.45" gradientTransform="matrix(1 0 0 -1 0 142)">
				<stop  offset="0" style="stop-color:#4F4473"/>
				<stop  offset="1" style="stop-color:#28253A"/>
			</linearGradient>
			<rect x="61" y="23.6" class="st24" width="2.3" height="1.9"/>
			<rect x="44.5" y="4.3" class="st25" width="17.2" height="18.8"/>
			<rect x="44.5" y="4.3" class="st26" width="4.3" height="18.8"/>
			
				<linearGradient id="SVGID_19_" gradientUnits="userSpaceOnUse" x1="54.0324" y1="143.5511" x2="52.5824" y2="133.2211" gradientTransform="matrix(1 0 0 -1 0 142)">
				<stop  offset="0" style="stop-color:#785569"/>
				<stop  offset="1" style="stop-color:#8A667F"/>
			</linearGradient>
			<path class="st27" d="M44.5,4.3h17.2v1.4l-4.3,5.6l-8.6-4.5l-4.3-1.1L44.5,4.3L44.5,4.3z"/>
			<polygon class="st28" points="111.4,32.8 106.1,32.8 101.7,101.5 106.1,137.2 111.4,137.2 			"/>
			
				<linearGradient id="SVGID_20_" gradientUnits="userSpaceOnUse" x1="57.0316" y1="144.2402" x2="60.2516" y2="123.9502" gradientTransform="matrix(1 0 0 -1 0 142)">
				<stop  offset="0" style="stop-color:#785569"/>
				<stop  offset="1" style="stop-color:#8A667F"/>
			</linearGradient>
			<rect x="57.4" y="4.3" class="st29" width="4.3" height="18.8"/>
			
				<linearGradient id="SVGID_21_" gradientUnits="userSpaceOnUse" x1="26.6402" y1="36.2997" x2="28.7403" y2="38.1897" gradientTransform="matrix(1 0 0 -1 0 142)">
				<stop  offset="0" style="stop-color:#785569"/>
				<stop  offset="1" style="stop-color:#533F4E"/>
			</linearGradient>
			<rect x="26.8" y="103.4" class="st30" width="3.5" height="1.1"/>
			
				<linearGradient id="SVGID_22_" gradientUnits="userSpaceOnUse" x1="25.3007" y1="41.4894" x2="17.8907" y2="31.9994" gradientTransform="matrix(1 0 0 -1 0 142)">
				<stop  offset="0" style="stop-color:#9D4C72"/>
				<stop  offset="1" style="stop-color:#7E3A5A"/>
			</linearGradient>
			<polygon class="st31" points="24.4,97.3 25.9,98.2 27.5,99.1 28.4,100.7 29.3,102.2 29.3,104 29.3,105.8 28.4,107.3 27.5,108.9 
				25.9,109.8 24.4,110.7 22.6,110.7 20.8,110.7 19.2,109.8 17.7,108.9 16.8,107.3 15.9,105.8 15.9,104 15.9,102.2 16.8,100.7 
				17.7,99.1 19.2,98.2 20.8,97.3 22.6,97.3 			"/>
			
				<linearGradient id="SVGID_23_" gradientUnits="userSpaceOnUse" x1="30.3194" y1="42.0018" x2="22.9794" y2="39.4718" gradientTransform="matrix(1 0 0 -1 0 142)">
				<stop  offset="0" style="stop-color:#9D4C72"/>
				<stop  offset="1" style="stop-color:#F38180"/>
			</linearGradient>
			<polygon class="st32" points="24.4,97.3 25.9,98.2 27.5,99.1 28.4,100.7 29.3,102.2 28.7,102.2 27.8,103.8 26.9,105.3 
				25.3,106.2 23.8,107.1 22,107.1 20.2,107.1 19.2,109.8 17.7,108.9 16.8,107.3 15.9,105.8 15.9,104 15.9,102.2 16.8,100.7 
				17.7,99.1 19.2,98.2 20.8,97.3 22.6,97.3 			"/>
			<polygon class="st33" points="24.4,97.3 25.9,98.2 27.5,99.1 26.9,99.1 25.4,102 19.2,109.8 17.7,108.9 16.8,107.3 15.9,105.8 
				15.9,104 15.9,102.2 16.8,100.7 17.7,99.1 19.2,98.2 20.8,97.3 22.6,97.3 			"/>
			
				<linearGradient id="SVGID_24_" gradientUnits="userSpaceOnUse" x1="36.1808" y1="37.3263" x2="31.8108" y2="37.8563" gradientTransform="matrix(1 0 0 -1 0 142)">
				<stop  offset="0" style="stop-color:#785569"/>
				<stop  offset="1" style="stop-color:#533F4E"/>
			</linearGradient>
			<rect x="28.8" y="103.4" class="st34" width="3.5" height="1.1"/>
			<rect x="30" y="32.8" class="st10" width="76.1" height="104.4"/>
			
				<linearGradient id="SVGID_25_" gradientUnits="userSpaceOnUse" x1="68.08" y1="47.18" x2="68.08" y2="51.25" gradientTransform="matrix(1 0 0 -1 0 142)">
				<stop  offset="0" style="stop-color:#9D4C72"/>
				<stop  offset="1" style="stop-color:#7E3A5A"/>
			</linearGradient>
			<polygon class="st35" points="106.1,92.1 106.1,91.3 106.1,95.4 30,95.4 30,92.1 			"/>
			
				<linearGradient id="SVGID_26_" gradientUnits="userSpaceOnUse" x1="68.08" y1="65.69" x2="68.08" y2="69.75" gradientTransform="matrix(1 0 0 -1 0 142)">
				<stop  offset="0" style="stop-color:#9D4C72"/>
				<stop  offset="1" style="stop-color:#7E3A5A"/>
			</linearGradient>
			<polygon class="st36" points="106.1,73.6 106.1,72.8 106.1,76.9 30,76.9 30,73.6 			"/>
			<polygon class="st28" points="106.1,38.8 106.1,38.1 106.1,42.1 30,42.1 30,38.8 			"/>
			
				<linearGradient id="SVGID_27_" gradientUnits="userSpaceOnUse" x1="69.25" y1="1.89" x2="69.25" y2="38.25" gradientTransform="matrix(1 0 0 -1 0 142)">
				<stop  offset="0" style="stop-color:#9D4C72"/>
				<stop  offset="1" style="stop-color:#7E3A5A"/>
			</linearGradient>
			<polygon class="st37" points="32.4,98.4 103.8,95.9 106.1,100 106.1,137.2 32.4,137.2 			"/>
			
				<linearGradient id="SVGID_28_" gradientUnits="userSpaceOnUse" x1="56.7" y1="2.13" x2="56.7" y2="36.91" gradientTransform="matrix(1 0 0 -1 0 142)">
				<stop  offset="0" style="stop-color:#9D4C72"/>
				<stop  offset="1" style="stop-color:#7E3A5A"/>
			</linearGradient>
			<path class="st38" d="M39.3,103.6h34.8c1.5,0,2.6,1.2,2.6,2.6v26.2c0,1.5-1.2,2.6-2.6,2.6H39.3c-1.5,0-2.6-1.2-2.6-2.6v-26.2
				C36.7,104.8,37.9,103.6,39.3,103.6z"/>
			
				<linearGradient id="SVGID_29_" gradientUnits="userSpaceOnUse" x1="56.66" y1="2.3" x2="56.66" y2="36.8" gradientTransform="matrix(1 0 0 -1 0 142)">
				<stop  offset="0" style="stop-color:#9C4B71"/>
				<stop  offset="1" style="stop-color:#7E3A5A"/>
			</linearGradient>
			<path class="st39" d="M39.3,103.7H74c1.4,0,2.6,1.1,2.6,2.6v26.1c0,1.4-1.1,2.6-2.6,2.6H39.3c-1.4,0-2.6-1.1-2.6-2.6v-26.1
				C36.8,104.8,37.9,103.7,39.3,103.7z"/>
			
				<linearGradient id="SVGID_30_" gradientUnits="userSpaceOnUse" x1="56.62" y1="2.46" x2="56.62" y2="36.69" gradientTransform="matrix(1 0 0 -1 0 142)">
				<stop  offset="0" style="stop-color:#9A4A70"/>
				<stop  offset="1" style="stop-color:#7E3A5A"/>
			</linearGradient>
			<path class="st40" d="M39.3,103.8h34.6c1.4,0,2.5,1.1,2.5,2.5v26c0,1.4-1.1,2.5-2.5,2.5H39.3c-1.4,0-2.5-1.1-2.5-2.5v-26
				C36.9,104.9,38,103.8,39.3,103.8z"/>
			
				<linearGradient id="SVGID_31_" gradientUnits="userSpaceOnUse" x1="56.595" y1="2.62" x2="56.595" y2="36.57" gradientTransform="matrix(1 0 0 -1 0 142)">
				<stop  offset="0" style="stop-color:#99496F"/>
				<stop  offset="1" style="stop-color:#7E3A5A"/>
			</linearGradient>
			<path class="st41" d="M39.4,103.9h34.5c1.3,0,2.4,1.1,2.4,2.4v25.9c0,1.3-1.1,2.4-2.4,2.4H39.4c-1.3,0-2.4-1.1-2.4-2.4v-25.9
				C37,105,38,103.9,39.4,103.9z"/>
			
				<linearGradient id="SVGID_32_" gradientUnits="userSpaceOnUse" x1="56.55" y1="2.78" x2="56.55" y2="36.46" gradientTransform="matrix(1 0 0 -1 0 142)">
				<stop  offset="0" style="stop-color:#97496D"/>
				<stop  offset="1" style="stop-color:#7E3A5A"/>
			</linearGradient>
			<path class="st42" d="M39.4,104.1h34.4c1.3,0,2.3,1,2.3,2.3v0v25.9c0,1.3-1,2.3-2.3,2.3H39.4c-1.3,0-2.3-1-2.3-2.3v0v-25.8
				C37,105.1,38.1,104.1,39.4,104.1L39.4,104.1z"/>
			
				<linearGradient id="SVGID_33_" gradientUnits="userSpaceOnUse" x1="56.52" y1="2.94" x2="56.52" y2="36.35" gradientTransform="matrix(1 0 0 -1 0 142)">
				<stop  offset="0" style="stop-color:#96486C"/>
				<stop  offset="1" style="stop-color:#7E3A5A"/>
			</linearGradient>
			<path class="st43" d="M39.4,104.2h34.3c1.2,0,2.2,1,2.2,2.2v25.8c0,1.2-1,2.2-2.2,2.2H39.4c-1.2,0-2.2-1-2.2-2.2v-25.8
				C37.1,105.2,38.1,104.2,39.4,104.2z"/>
			
				<linearGradient id="SVGID_34_" gradientUnits="userSpaceOnUse" x1="56.48" y1="3.11" x2="56.48" y2="36.24" gradientTransform="matrix(1 0 0 -1 0 142)">
				<stop  offset="0" style="stop-color:#94476B"/>
				<stop  offset="1" style="stop-color:#7E3A5A"/>
			</linearGradient>
			<path class="st44" d="M39.4,104.3h34.2c1.2,0,2.2,1,2.2,2.2v25.7c0,1.2-1,2.2-2.2,2.2H39.4c-1.2,0-2.2-1-2.2-2.2v-25.7
				C37.2,105.3,38.2,104.3,39.4,104.3z"/>
			
				<linearGradient id="SVGID_35_" gradientUnits="userSpaceOnUse" x1="56.44" y1="3.27" x2="56.44" y2="36.12" gradientTransform="matrix(1 0 0 -1 0 142)">
				<stop  offset="0" style="stop-color:#93466A"/>
				<stop  offset="1" style="stop-color:#7E3A5A"/>
			</linearGradient>
			<path class="st45" d="M39.4,104.4h34.1c1.1,0,2.1,0.9,2.1,2.1v25.6c0,1.1-0.9,2.1-2.1,2.1H39.4c-1.1,0-2.1-0.9-2.1-2.1v-25.6
				C37.3,105.4,38.3,104.4,39.4,104.4z"/>
			
				<linearGradient id="SVGID_36_" gradientUnits="userSpaceOnUse" x1="56.405" y1="3.43" x2="56.405" y2="36.01" gradientTransform="matrix(1 0 0 -1 0 142)">
				<stop  offset="0" style="stop-color:#914569"/>
				<stop  offset="1" style="stop-color:#7E3A5A"/>
			</linearGradient>
			<path class="st46" d="M39.4,104.6h34c1.1,0,2,0.9,2,2v25.5c0,1.1-0.9,2-2,2h-34c-1.1,0-2-0.9-2-2v-25.5
				C37.4,105.5,38.3,104.6,39.4,104.6z"/>
			
				<linearGradient id="SVGID_37_" gradientUnits="userSpaceOnUse" x1="56.375" y1="3.59" x2="56.375" y2="35.9" gradientTransform="matrix(1 0 0 -1 0 142)">
				<stop  offset="0" style="stop-color:#904468"/>
				<stop  offset="1" style="stop-color:#7E3A5A"/>
			</linearGradient>
			<path class="st47" d="M39.4,104.7h33.9c1.1,0,1.9,0.9,1.9,1.9V132c0,1.1-0.9,1.9-1.9,1.9H39.4c-1.1,0-1.9-0.9-1.9-1.9v-25.4
				C37.5,105.6,38.4,104.7,39.4,104.7z"/>
			
				<linearGradient id="SVGID_38_" gradientUnits="userSpaceOnUse" x1="56.335" y1="3.76" x2="56.335" y2="35.79" gradientTransform="matrix(1 0 0 -1 0 142)">
				<stop  offset="0" style="stop-color:#8E4367"/>
				<stop  offset="1" style="stop-color:#7E3A5A"/>
			</linearGradient>
			<path class="st48" d="M39.4,104.8h33.8c1,0,1.8,0.8,1.8,1.8V132c0,1-0.8,1.8-1.8,1.8H39.4c-1,0-1.8-0.8-1.8-1.8v-25.3
				C37.6,105.6,38.4,104.8,39.4,104.8z"/>
			
				<linearGradient id="SVGID_39_" gradientUnits="userSpaceOnUse" x1="56.3" y1="3.92" x2="56.3" y2="35.67" gradientTransform="matrix(1 0 0 -1 0 142)">
				<stop  offset="0" style="stop-color:#8D4365"/>
				<stop  offset="1" style="stop-color:#7E3A5A"/>
			</linearGradient>
			<path class="st49" d="M39.5,104.9h33.7c1,0,1.8,0.8,1.8,1.8v25.2c0,1-0.8,1.8-1.8,1.8H39.5c-1,0-1.8-0.8-1.8-1.8v-25.2
				C37.7,105.7,38.5,104.9,39.5,104.9z"/>
			
				<linearGradient id="SVGID_40_" gradientUnits="userSpaceOnUse" x1="56.26" y1="4.08" x2="56.26" y2="35.56" gradientTransform="matrix(1 0 0 -1 0 142)">
				<stop  offset="0" style="stop-color:#8B4264"/>
				<stop  offset="1" style="stop-color:#7E3A5A"/>
			</linearGradient>
			<path class="st50" d="M39.5,105.1h33.6c0.9,0,1.7,0.8,1.7,1.7v25.1c0,0.9-0.8,1.7-1.7,1.7H39.5c-0.9,0-1.7-0.8-1.7-1.7v-25.1
				C37.8,105.8,38.5,105.1,39.5,105.1z"/>
			
				<linearGradient id="SVGID_41_" gradientUnits="userSpaceOnUse" x1="56.22" y1="4.24" x2="56.22" y2="35.45" gradientTransform="matrix(1 0 0 -1 0 142)">
				<stop  offset="0" style="stop-color:#8A4163"/>
				<stop  offset="1" style="stop-color:#7E3A5A"/>
			</linearGradient>
			<path class="st51" d="M39.5,105.2H73c0.9,0,1.6,0.7,1.6,1.6v25c0,0.9-0.7,1.6-1.6,1.6H39.5c-0.9,0-1.6-0.7-1.6-1.6v-25
				C37.9,105.9,38.6,105.2,39.5,105.2z"/>
			
				<linearGradient id="SVGID_42_" gradientUnits="userSpaceOnUse" x1="56.195" y1="4.4" x2="56.195" y2="35.34" gradientTransform="matrix(1 0 0 -1 0 142)">
				<stop  offset="0" style="stop-color:#884062"/>
				<stop  offset="1" style="stop-color:#7E3A5A"/>
			</linearGradient>
			<path class="st52" d="M39.5,105.3h33.4c0.8,0,1.5,0.7,1.5,1.5v24.9c0,0.8-0.7,1.5-1.5,1.5H39.5c-0.8,0-1.5-0.7-1.5-1.5v-24.9
				C38,106,38.7,105.3,39.5,105.3z"/>
			
				<linearGradient id="SVGID_43_" gradientUnits="userSpaceOnUse" x1="56.155" y1="4.57" x2="56.155" y2="35.23" gradientTransform="matrix(1 0 0 -1 0 142)">
				<stop  offset="0" style="stop-color:#873F61"/>
				<stop  offset="1" style="stop-color:#7E3A5A"/>
			</linearGradient>
			<path class="st53" d="M39.5,105.4h33.3c0.8,0,1.4,0.6,1.4,1.4v24.9c0,0.8-0.6,1.4-1.4,1.4H39.5c-0.8,0-1.4-0.6-1.4-1.4v-24.9
				C38.1,106.1,38.7,105.4,39.5,105.4z"/>
			
				<linearGradient id="SVGID_44_" gradientUnits="userSpaceOnUse" x1="56.12" y1="4.73" x2="56.12" y2="35.11" gradientTransform="matrix(1 0 0 -1 0 142)">
				<stop  offset="0" style="stop-color:#853E60"/>
				<stop  offset="1" style="stop-color:#7E3A5A"/>
			</linearGradient>
			<path class="st54" d="M39.5,105.6h33.2c0.8,0,1.4,0.6,1.4,1.4v24.8c0,0.8-0.6,1.4-1.4,1.4H39.5c-0.8,0-1.4-0.6-1.4-1.4v-24.8
				C38.2,106.2,38.8,105.6,39.5,105.6z"/>
			
				<linearGradient id="SVGID_45_" gradientUnits="userSpaceOnUse" x1="56.08" y1="4.89" x2="56.08" y2="35" gradientTransform="matrix(1 0 0 -1 0 142)">
				<stop  offset="0" style="stop-color:#843D5F"/>
				<stop  offset="1" style="stop-color:#7E3A5A"/>
			</linearGradient>
			<path class="st55" d="M39.5,105.7h33.1c0.7,0,1.3,0.6,1.3,1.3v24.7c0,0.7-0.6,1.3-1.3,1.3H39.5c-0.7,0-1.3-0.6-1.3-1.3V107
				C38.2,106.3,38.8,105.7,39.5,105.7z"/>
			
				<linearGradient id="SVGID_46_" gradientUnits="userSpaceOnUse" x1="56.04" y1="5.05" x2="56.04" y2="34.89" gradientTransform="matrix(1 0 0 -1 0 142)">
				<stop  offset="0" style="stop-color:#823D5D"/>
				<stop  offset="1" style="stop-color:#7E3A5A"/>
			</linearGradient>
			<path class="st56" d="M39.6,105.8h33c0.7,0,1.2,0.5,1.2,1.2v24.6c0,0.7-0.5,1.2-1.2,1.2h-33c-0.7,0-1.2-0.5-1.2-1.2V107
				C38.3,106.4,38.9,105.8,39.6,105.8z"/>
			
				<linearGradient id="SVGID_47_" gradientUnits="userSpaceOnUse" x1="56.015" y1="5.21" x2="56.015" y2="34.78" gradientTransform="matrix(1 0 0 -1 0 142)">
				<stop  offset="0" style="stop-color:#813C5C"/>
				<stop  offset="1" style="stop-color:#7E3A5A"/>
			</linearGradient>
			<path class="st57" d="M39.6,105.9h32.9c0.6,0,1.1,0.5,1.1,1.1v24.5c0,0.6-0.5,1.1-1.1,1.1H39.6c-0.6,0-1.1-0.5-1.1-1.1v-24.5
				C38.4,106.5,38.9,105.9,39.6,105.9z"/>
			
				<linearGradient id="SVGID_48_" gradientUnits="userSpaceOnUse" x1="55.975" y1="5.38" x2="55.975" y2="34.66" gradientTransform="matrix(1 0 0 -1 0 142)">
				<stop  offset="0" style="stop-color:#7F3B5B"/>
				<stop  offset="1" style="stop-color:#7E3A5A"/>
			</linearGradient>
			<path class="st58" d="M39.6,106.1h32.8c0.6,0,1.1,0.5,1.1,1.1v24.4c0,0.6-0.5,1.1-1.1,1.1H39.6c-0.6,0-1.1-0.5-1.1-1.1v-24.4
				C38.5,106.5,39,106.1,39.6,106.1z"/>
			<path class="st59" d="M39.6,106.2h32.7c0.5,0,1,0.4,1,1v24.3c0,0.5-0.4,1-1,1H39.6c-0.5,0-1-0.4-1-1v-24.3
				C38.6,106.6,39,106.2,39.6,106.2z"/>
			
				<linearGradient id="SVGID_49_" gradientUnits="userSpaceOnUse" x1="36.71" y1="11.1" x2="36.71" y2="-21.8" gradientTransform="matrix(1 0 0 -1 0 142)">
				<stop  offset="0" style="stop-color:#F38180"/>
				<stop  offset="1" style="stop-color:#9D4C72"/>
			</linearGradient>
			<polygon class="st60" points="32.4,95.9 38.8,120.1 39.5,132.4 39.9,133.4 42.4,133.4 43.4,137.2 30,137.2 30,121.3 			"/>
			
				<linearGradient id="SVGID_50_" gradientUnits="userSpaceOnUse" x1="88.44" y1="2.13" x2="88.44" y2="36.91" gradientTransform="matrix(1 0 0 -1 0 142)">
				<stop  offset="0" style="stop-color:#9D4C72"/>
				<stop  offset="1" style="stop-color:#7E3A5A"/>
			</linearGradient>
			<path class="st61" d="M80.7,103.6h15.6c1.5,0,2.6,1.2,2.6,2.6l0,0v31H78v-31C78,104.8,79.2,103.6,80.7,103.6z"/>
			
				<linearGradient id="SVGID_51_" gradientUnits="userSpaceOnUse" x1="88.44" y1="2.14" x2="88.44" y2="36.79" gradientTransform="matrix(1 0 0 -1 0 142)">
				<stop  offset="0" style="stop-color:#9C4B71"/>
				<stop  offset="1" style="stop-color:#7E3A5A"/>
			</linearGradient>
			<path class="st62" d="M80.7,103.7h15.5c1.4,0,2.5,1.1,2.6,2.6v30.9H78.1v-30.9C78.1,104.8,79.3,103.7,80.7,103.7z"/>
			
				<linearGradient id="SVGID_52_" gradientUnits="userSpaceOnUse" x1="88.44" y1="2.15" x2="88.44" y2="36.67" gradientTransform="matrix(1 0 0 -1 0 142)">
				<stop  offset="0" style="stop-color:#9A4A70"/>
				<stop  offset="1" style="stop-color:#7E3A5A"/>
			</linearGradient>
			<path class="st63" d="M80.7,103.8h15.5c1.4,0,2.5,1.1,2.5,2.5v30.9H78.2v-30.9C78.2,104.9,79.3,103.8,80.7,103.8z"/>
			
				<linearGradient id="SVGID_53_" gradientUnits="userSpaceOnUse" x1="88.44" y1="2.16" x2="88.44" y2="36.55" gradientTransform="matrix(1 0 0 -1 0 142)">
				<stop  offset="0" style="stop-color:#99496F"/>
				<stop  offset="1" style="stop-color:#7E3A5A"/>
			</linearGradient>
			<path class="st64" d="M80.7,104h15.5c1.3,0,2.4,1.1,2.4,2.4v30.8H78.3v-30.9C78.3,105,79.4,104,80.7,104z"/>
			
				<linearGradient id="SVGID_54_" gradientUnits="userSpaceOnUse" x1="88.44" y1="2.17" x2="88.44" y2="36.44" gradientTransform="matrix(1 0 0 -1 0 142)">
				<stop  offset="0" style="stop-color:#97496D"/>
				<stop  offset="1" style="stop-color:#7E3A5A"/>
			</linearGradient>
			<path class="st65" d="M80.7,104.1h15.4c1.3,0,2.3,1,2.3,2.3v30.8H78.4v-30.8C78.4,105.1,79.4,104.1,80.7,104.1z"/>
			
				<linearGradient id="SVGID_55_" gradientUnits="userSpaceOnUse" x1="88.44" y1="2.18" x2="88.44" y2="36.32" gradientTransform="matrix(1 0 0 -1 0 142)">
				<stop  offset="0" style="stop-color:#96486C"/>
				<stop  offset="1" style="stop-color:#7E3A5A"/>
			</linearGradient>
			<path class="st66" d="M80.7,104.2h15.4c1.2,0,2.2,1,2.2,2.2v30.7H78.5v-30.7C78.5,105.2,79.5,104.2,80.7,104.2z"/>
			
				<linearGradient id="SVGID_56_" gradientUnits="userSpaceOnUse" x1="88.44" y1="2.19" x2="88.44" y2="36.2" gradientTransform="matrix(1 0 0 -1 0 142)">
				<stop  offset="0" style="stop-color:#94476B"/>
				<stop  offset="1" style="stop-color:#7E3A5A"/>
			</linearGradient>
			<path class="st67" d="M80.7,104.3h15.4c1.2,0,2.2,1,2.2,2.2v30.7H78.6v-30.7C78.6,105.3,79.5,104.3,80.7,104.3L80.7,104.3z"/>
			
				<linearGradient id="SVGID_57_" gradientUnits="userSpaceOnUse" x1="88.465" y1="2.2" x2="88.465" y2="36.08" gradientTransform="matrix(1 0 0 -1 0 142)">
				<stop  offset="0" style="stop-color:#93466A"/>
				<stop  offset="1" style="stop-color:#7E3A5A"/>
			</linearGradient>
			<path class="st68" d="M80.8,104.4h15.4c1.1,0,2.1,0.9,2.1,2.1l0,0v30.6H78.7v-30.6C78.7,105.4,79.6,104.4,80.8,104.4
				C80.8,104.4,80.8,104.4,80.8,104.4z"/>
			
				<linearGradient id="SVGID_58_" gradientUnits="userSpaceOnUse" x1="88.47" y1="2.21" x2="88.47" y2="35.96" gradientTransform="matrix(1 0 0 -1 0 142)">
				<stop  offset="0" style="stop-color:#914569"/>
				<stop  offset="1" style="stop-color:#7E3A5A"/>
			</linearGradient>
			<path class="st69" d="M80.8,104.6h15.3c1.1,0,2,0.9,2,2v30.6H78.8v-30.6C78.8,105.5,79.7,104.6,80.8,104.6z"/>
			
				<linearGradient id="SVGID_59_" gradientUnits="userSpaceOnUse" x1="88.44" y1="2.22" x2="88.44" y2="35.84" gradientTransform="matrix(1 0 0 -1 0 142)">
				<stop  offset="0" style="stop-color:#904468"/>
				<stop  offset="1" style="stop-color:#7E3A5A"/>
			</linearGradient>
			<path class="st70" d="M80.8,104.7h15.3c1.1,0,1.9,0.9,1.9,1.9v30.5H78.9v-30.5C78.9,105.6,79.7,104.7,80.8,104.7
				C80.8,104.7,80.8,104.7,80.8,104.7z"/>
			
				<linearGradient id="SVGID_60_" gradientUnits="userSpaceOnUse" x1="88.43" y1="2.23" x2="88.43" y2="35.72" gradientTransform="matrix(1 0 0 -1 0 142)">
				<stop  offset="0" style="stop-color:#8E4367"/>
				<stop  offset="1" style="stop-color:#7E3A5A"/>
			</linearGradient>
			<path class="st71" d="M80.8,104.8h15.3c1,0,1.8,0.8,1.8,1.8v30.5h-19v-30.5C78.9,105.6,79.8,104.8,80.8,104.8
				C80.8,104.8,80.8,104.8,80.8,104.8z"/>
			
				<linearGradient id="SVGID_61_" gradientUnits="userSpaceOnUse" x1="88.43" y1="2.24" x2="88.43" y2="35.61" gradientTransform="matrix(1 0 0 -1 0 142)">
				<stop  offset="0" style="stop-color:#8D4365"/>
				<stop  offset="1" style="stop-color:#7E3A5A"/>
			</linearGradient>
			<path class="st72" d="M80.8,104.9h15.3c1,0,1.8,0.8,1.8,1.8v30.5H79v-30.5C79,105.7,79.8,104.9,80.8,104.9z"/>
			
				<linearGradient id="SVGID_62_" gradientUnits="userSpaceOnUse" x1="88.43" y1="2.25" x2="88.43" y2="35.49" gradientTransform="matrix(1 0 0 -1 0 142)">
				<stop  offset="0" style="stop-color:#8B4264"/>
				<stop  offset="1" style="stop-color:#7E3A5A"/>
			</linearGradient>
			<path class="st73" d="M80.8,105.1H96c0.9,0,1.7,0.8,1.7,1.7c0,0,0,0,0,0v30.4H79.1v-30.4C79.1,105.8,79.9,105.1,80.8,105.1z"/>
			
				<linearGradient id="SVGID_63_" gradientUnits="userSpaceOnUse" x1="88.42" y1="2.26" x2="88.42" y2="35.37" gradientTransform="matrix(1 0 0 -1 0 142)">
				<stop  offset="0" style="stop-color:#8A4163"/>
				<stop  offset="1" style="stop-color:#7E3A5A"/>
			</linearGradient>
			<path class="st74" d="M80.8,105.2H96c0.9,0,1.6,0.7,1.6,1.6v30.4H79.2v-30.4C79.2,105.9,79.9,105.2,80.8,105.2z"/>
			
				<linearGradient id="SVGID_64_" gradientUnits="userSpaceOnUse" x1="88.44" y1="2.27" x2="88.44" y2="35.25" gradientTransform="matrix(1 0 0 -1 0 142)">
				<stop  offset="0" style="stop-color:#884062"/>
				<stop  offset="1" style="stop-color:#7E3A5A"/>
			</linearGradient>
			<path class="st75" d="M80.9,105.3H96c0.8,0,1.5,0.7,1.5,1.5v30.3H79.3v-30.3C79.3,106,80,105.3,80.9,105.3z"/>
			
				<linearGradient id="SVGID_65_" gradientUnits="userSpaceOnUse" x1="88.44" y1="2.28" x2="88.44" y2="35.13" gradientTransform="matrix(1 0 0 -1 0 142)">
				<stop  offset="0" style="stop-color:#873F61"/>
				<stop  offset="1" style="stop-color:#7E3A5A"/>
			</linearGradient>
			<path class="st76" d="M80.9,105.4H96c0.8,0,1.4,0.7,1.4,1.4v30.3H79.4v-30.3C79.4,106.1,80.1,105.4,80.9,105.4z"/>
			
				<linearGradient id="SVGID_66_" gradientUnits="userSpaceOnUse" x1="88.44" y1="2.29" x2="88.44" y2="35.01" gradientTransform="matrix(1 0 0 -1 0 142)">
				<stop  offset="0" style="stop-color:#853E60"/>
				<stop  offset="1" style="stop-color:#7E3A5A"/>
			</linearGradient>
			<path class="st77" d="M80.9,105.6H96c0.8,0,1.4,0.6,1.4,1.4c0,0,0,0,0,0v30.2H79.5v-30.2C79.5,106.2,80.1,105.6,80.9,105.6
				C80.9,105.6,80.9,105.6,80.9,105.6z"/>
			
				<linearGradient id="SVGID_67_" gradientUnits="userSpaceOnUse" x1="88.44" y1="2.3" x2="88.44" y2="34.89" gradientTransform="matrix(1 0 0 -1 0 142)">
				<stop  offset="0" style="stop-color:#843D5F"/>
				<stop  offset="1" style="stop-color:#7E3A5A"/>
			</linearGradient>
			<path class="st78" d="M80.9,105.7H96c0.7,0,1.3,0.6,1.3,1.3v0v30.2H79.6V107C79.6,106.3,80.2,105.7,80.9,105.7
				C80.9,105.7,80.9,105.7,80.9,105.7z"/>
			
				<linearGradient id="SVGID_68_" gradientUnits="userSpaceOnUse" x1="88.445" y1="2.31" x2="88.445" y2="34.78" gradientTransform="matrix(1 0 0 -1 0 142)">
				<stop  offset="0" style="stop-color:#823D5D"/>
				<stop  offset="1" style="stop-color:#7E3A5A"/>
			</linearGradient>
			<path class="st79" d="M80.9,105.8H96c0.7,0,1.2,0.5,1.2,1.2v30.1H79.7V107C79.7,106.3,80.2,105.8,80.9,105.8z"/>
			
				<linearGradient id="SVGID_69_" gradientUnits="userSpaceOnUse" x1="88.43" y1="2.32" x2="88.43" y2="34.66" gradientTransform="matrix(1 0 0 -1 0 142)">
				<stop  offset="0" style="stop-color:#813C5C"/>
				<stop  offset="1" style="stop-color:#7E3A5A"/>
			</linearGradient>
			<path class="st80" d="M80.9,105.9h15c0.6,0,1.1,0.5,1.1,1.1v30.1H79.8v-30.1C79.8,106.5,80.3,106,80.9,105.9z"/>
			
				<linearGradient id="SVGID_70_" gradientUnits="userSpaceOnUse" x1="88.43" y1="2.33" x2="88.43" y2="34.54" gradientTransform="matrix(1 0 0 -1 0 142)">
				<stop  offset="0" style="stop-color:#7F3B5B"/>
				<stop  offset="1" style="stop-color:#7E3A5A"/>
			</linearGradient>
			<path class="st81" d="M80.9,106.1h15c0.6,0,1.1,0.5,1.1,1.1v30H79.9v-30C79.9,106.5,80.3,106.1,80.9,106.1z"/>
			<path class="st82" d="M80.9,106.2h15c0.6,0,1,0.4,1,1v30h-17v-30C79.9,106.6,80.4,106.2,80.9,106.2z"/>
			<rect x="38.6" y="106.2" class="st83" width="34.6" height="26.3"/>
			<polygon class="st84" points="42.1,132.4 38.6,132.4 38.6,119.3 			"/>
			<rect x="80" y="106.2" class="st83" width="17" height="31"/>
			
				<linearGradient id="SVGID_71_" gradientUnits="userSpaceOnUse" x1="55.93" y1="10.6" x2="55.93" y2="33.7" gradientTransform="matrix(1 0 0 -1 0 142)">
				<stop  offset="0" style="stop-color:#4C4271"/>
				<stop  offset="1" style="stop-color:#493D70"/>
			</linearGradient>
			<rect x="40.2" y="107.8" class="st85" width="31.4" height="23"/>
			
				<linearGradient id="SVGID_72_" gradientUnits="userSpaceOnUse" x1="88.445" y1="10.55" x2="88.445" y2="33.75" gradientTransform="matrix(1 0 0 -1 0 142)">
				<stop  offset="0" style="stop-color:#4C4271"/>
				<stop  offset="1" style="stop-color:#493D70"/>
			</linearGradient>
			<rect x="81.6" y="107.8" class="st86" width="13.7" height="27.7"/>
			
				<linearGradient id="SVGID_73_" gradientUnits="userSpaceOnUse" x1="55.93" y1="10.6" x2="55.93" y2="33.7" gradientTransform="matrix(1 0 0 -1 0 142)">
				<stop  offset="0" style="stop-color:#4C4271"/>
				<stop  offset="1" style="stop-color:#493D70"/>
			</linearGradient>
			<path class="st87" d="M41.9,107.8H70c0.9,0,1.6,0.7,1.6,1.7v19.7c0,0.9-0.7,1.6-1.6,1.6H41.9c-0.9,0-1.6-0.7-1.6-1.6v-19.7
				C40.2,108.6,41,107.8,41.9,107.8z"/>
			
				<linearGradient id="SVGID_74_" gradientUnits="userSpaceOnUse" x1="55.93" y1="10.67" x2="55.93" y2="33.38" gradientTransform="matrix(1 0 0 -1 0 142)">
				<stop  offset="0" style="stop-color:#4E4070"/>
				<stop  offset="1" style="stop-color:#4B3B6F"/>
			</linearGradient>
			<path class="st88" d="M42,108.2h27.9c0.9,0,1.6,0.7,1.6,1.7v19.3c0,0.9-0.7,1.6-1.6,1.6H42c-0.9,0-1.6-0.7-1.6-1.6v-19.3
				C40.3,108.9,41.1,108.2,42,108.2z"/>
			
				<linearGradient id="SVGID_75_" gradientUnits="userSpaceOnUse" x1="55.935" y1="10.74" x2="55.935" y2="33.06" gradientTransform="matrix(1 0 0 -1 0 142)">
				<stop  offset="0" style="stop-color:#503E6F"/>
				<stop  offset="1" style="stop-color:#4E3A6E"/>
			</linearGradient>
			<path class="st89" d="M42,108.5h27.8c0.9,0,1.6,0.7,1.6,1.6v18.9c0,0.9-0.7,1.6-1.6,1.6H42c-0.9,0-1.6-0.7-1.6-1.6v-18.9
				C40.4,109.2,41.1,108.5,42,108.5z"/>
			
				<linearGradient id="SVGID_76_" gradientUnits="userSpaceOnUse" x1="55.935" y1="10.8" x2="55.935" y2="32.74" gradientTransform="matrix(1 0 0 -1 0 142)">
				<stop  offset="0" style="stop-color:#533D6D"/>
				<stop  offset="1" style="stop-color:#50386D"/>
			</linearGradient>
			<path class="st90" d="M42.1,108.8h27.6c0.9,0,1.6,0.7,1.6,1.6V129c0,0.9-0.7,1.6-1.6,1.6H42.1c-0.9,0-1.6-0.7-1.6-1.6v-18.6
				C40.5,109.5,41.2,108.8,42.1,108.8z"/>
			
				<linearGradient id="SVGID_77_" gradientUnits="userSpaceOnUse" x1="55.935" y1="10.87" x2="55.935" y2="32.42" gradientTransform="matrix(1 0 0 -1 0 142)">
				<stop  offset="0" style="stop-color:#553B6C"/>
				<stop  offset="1" style="stop-color:#53376B"/>
			</linearGradient>
			<path class="st91" d="M42.2,109.1h27.5c0.9,0,1.6,0.7,1.6,1.6V129c0,0.9-0.7,1.6-1.6,1.6H42.2c-0.9,0-1.6-0.7-1.6-1.6v-18.2
				C40.6,109.9,41.3,109.1,42.2,109.1z"/>
			
				<linearGradient id="SVGID_78_" gradientUnits="userSpaceOnUse" x1="55.935" y1="10.94" x2="55.935" y2="32.1" gradientTransform="matrix(1 0 0 -1 0 142)">
				<stop  offset="0" style="stop-color:#57396B"/>
				<stop  offset="1" style="stop-color:#55356A"/>
			</linearGradient>
			<path class="st92" d="M42.3,109.5h27.4c0.9,0,1.6,0.7,1.6,1.6v17.8c0,0.9-0.7,1.6-1.6,1.6H42.3c-0.9,0-1.6-0.7-1.6-1.6v-17.8
				C40.6,110.2,41.4,109.5,42.3,109.5z"/>
			
				<linearGradient id="SVGID_79_" gradientUnits="userSpaceOnUse" x1="55.94" y1="11.01" x2="55.94" y2="31.78" gradientTransform="matrix(1 0 0 -1 0 142)">
				<stop  offset="0" style="stop-color:#59376A"/>
				<stop  offset="1" style="stop-color:#573469"/>
			</linearGradient>
			<path class="st93" d="M42.3,109.8h27.2c0.9,0,1.6,0.7,1.6,1.6v17.5c0,0.9-0.7,1.6-1.6,1.6H42.3c-0.9,0-1.6-0.7-1.6-1.6v-17.5
				C40.7,110.5,41.4,109.8,42.3,109.8z"/>
			
				<linearGradient id="SVGID_80_" gradientUnits="userSpaceOnUse" x1="55.94" y1="11.07" x2="55.94" y2="31.46" gradientTransform="matrix(1 0 0 -1 0 142)">
				<stop  offset="0" style="stop-color:#5C3669"/>
				<stop  offset="1" style="stop-color:#5A3268"/>
			</linearGradient>
			<path class="st94" d="M42.4,110.1h27.1c0.9,0,1.6,0.7,1.6,1.6v17.1c0,0.9-0.7,1.6-1.6,1.6H42.4c-0.9,0-1.6-0.7-1.6-1.6v-17.1
				C40.8,110.8,41.5,110.1,42.4,110.1z"/>
			
				<linearGradient id="SVGID_81_" gradientUnits="userSpaceOnUse" x1="55.93" y1="11.14" x2="55.93" y2="31.14" gradientTransform="matrix(1 0 0 -1 0 142)">
				<stop  offset="0" style="stop-color:#5E3467"/>
				<stop  offset="1" style="stop-color:#5C3167"/>
			</linearGradient>
			<path class="st95" d="M42.5,110.4h26.9c0.9,0,1.6,0.7,1.6,1.6v16.7c0,0.9-0.7,1.6-1.6,1.6H42.5c-0.9,0-1.6-0.7-1.6-1.6V112
				C40.9,111.2,41.6,110.4,42.5,110.4z"/>
			
				<linearGradient id="SVGID_82_" gradientUnits="userSpaceOnUse" x1="55.93" y1="11.21" x2="55.93" y2="30.82" gradientTransform="matrix(1 0 0 -1 0 142)">
				<stop  offset="0" style="stop-color:#603266"/>
				<stop  offset="1" style="stop-color:#5E2F66"/>
			</linearGradient>
			<path class="st96" d="M42.5,110.8h26.8c0.9,0,1.6,0.7,1.6,1.6v16.4c0,0.9-0.7,1.6-1.6,1.6H42.5c-0.9,0-1.6-0.7-1.6-1.6v-16.4
				C40.9,111.5,41.7,110.8,42.5,110.8z"/>
			
				<linearGradient id="SVGID_83_" gradientUnits="userSpaceOnUse" x1="55.935" y1="11.28" x2="55.935" y2="30.5" gradientTransform="matrix(1 0 0 -1 0 142)">
				<stop  offset="0" style="stop-color:#623065"/>
				<stop  offset="1" style="stop-color:#612E65"/>
			</linearGradient>
			<path class="st97" d="M42.6,111.1h26.7c0.9,0,1.6,0.7,1.6,1.6v16c0,0.9-0.7,1.6-1.6,1.6H42.6c-0.9,0-1.6-0.7-1.6-1.6v-16
				C41,111.8,41.7,111.1,42.6,111.1z"/>
			
				<linearGradient id="SVGID_84_" gradientUnits="userSpaceOnUse" x1="55.935" y1="11.34" x2="55.935" y2="30.18" gradientTransform="matrix(1 0 0 -1 0 142)">
				<stop  offset="0" style="stop-color:#652F64"/>
				<stop  offset="1" style="stop-color:#632C63"/>
			</linearGradient>
			<path class="st98" d="M42.7,111.4h26.5c0.9,0,1.6,0.7,1.6,1.6v15.6c0,0.9-0.7,1.6-1.6,1.6H42.7c-0.9,0-1.6-0.7-1.6-1.6V113
				C41.1,112.1,41.8,111.4,42.7,111.4z"/>
			
				<linearGradient id="SVGID_85_" gradientUnits="userSpaceOnUse" x1="55.935" y1="11.41" x2="55.935" y2="29.86" gradientTransform="matrix(1 0 0 -1 0 142)">
				<stop  offset="0" style="stop-color:#672D63"/>
				<stop  offset="1" style="stop-color:#662B62"/>
			</linearGradient>
			<path class="st99" d="M42.8,111.8h26.4c0.9,0,1.6,0.7,1.6,1.5v0v15.2c0,0.9-0.7,1.6-1.6,1.6H42.8c-0.9,0-1.6-0.7-1.6-1.6v-15.3
				C41.2,112.5,41.9,111.8,42.8,111.8z"/>
			
				<linearGradient id="SVGID_86_" gradientUnits="userSpaceOnUse" x1="55.935" y1="11.48" x2="55.935" y2="29.54" gradientTransform="matrix(1 0 0 -1 0 142)">
				<stop  offset="0" style="stop-color:#692B62"/>
				<stop  offset="1" style="stop-color:#682961"/>
			</linearGradient>
			<path class="st100" d="M42.8,112.1h26.2c0.9,0,1.6,0.7,1.6,1.6v14.9c0,0.9-0.7,1.6-1.6,1.6H42.8c-0.9,0-1.6-0.7-1.6-1.6v-14.9
				C41.3,112.8,42,112.1,42.8,112.1z"/>
			
				<linearGradient id="SVGID_87_" gradientUnits="userSpaceOnUse" x1="55.94" y1="11.55" x2="55.94" y2="29.22" gradientTransform="matrix(1 0 0 -1 0 142)">
				<stop  offset="0" style="stop-color:#6B2960"/>
				<stop  offset="1" style="stop-color:#6A2860"/>
			</linearGradient>
			<path class="st101" d="M42.9,112.4H69c0.9,0,1.5,0.7,1.5,1.5v14.5c0,0.9-0.7,1.5-1.5,1.5H42.9c-0.9,0-1.5-0.7-1.5-1.5V114
				C41.4,113.1,42,112.4,42.9,112.4z"/>
			
				<linearGradient id="SVGID_88_" gradientUnits="userSpaceOnUse" x1="55.94" y1="11.61" x2="55.94" y2="28.9" gradientTransform="matrix(1 0 0 -1 0 142)">
				<stop  offset="0" style="stop-color:#6E285F"/>
				<stop  offset="1" style="stop-color:#6D265F"/>
			</linearGradient>
			<path class="st102" d="M43,112.7h26c0.8,0,1.5,0.7,1.5,1.5v14.2c0,0.8-0.7,1.5-1.5,1.5H43c-0.8,0-1.5-0.7-1.5-1.5v-14.2
				C41.4,113.4,42.1,112.7,43,112.7z"/>
			
				<linearGradient id="SVGID_89_" gradientUnits="userSpaceOnUse" x1="55.94" y1="11.68" x2="55.94" y2="28.58" gradientTransform="matrix(1 0 0 -1 0 142)">
				<stop  offset="0" style="stop-color:#70265E"/>
				<stop  offset="1" style="stop-color:#6F255E"/>
			</linearGradient>
			<path class="st103" d="M43,113.1h25.8c0.8,0,1.5,0.7,1.5,1.5v13.8c0,0.8-0.7,1.5-1.5,1.5H43c-0.8,0-1.5-0.7-1.5-1.5v-13.8
				C41.5,113.8,42.2,113.1,43,113.1z"/>
			
				<linearGradient id="SVGID_90_" gradientUnits="userSpaceOnUse" x1="55.93" y1="11.75" x2="55.93" y2="28.26" gradientTransform="matrix(1 0 0 -1 0 142)">
				<stop  offset="0" style="stop-color:#72245D"/>
				<stop  offset="1" style="stop-color:#71235D"/>
			</linearGradient>
			<path class="st104" d="M43.1,113.4h25.7c0.8,0,1.5,0.7,1.5,1.5v13.4c0,0.8-0.7,1.5-1.5,1.5H43.1c-0.8,0-1.5-0.7-1.5-1.5v-13.4
				C41.6,114.1,42.3,113.4,43.1,113.4z"/>
			
				<linearGradient id="SVGID_91_" gradientUnits="userSpaceOnUse" x1="55.935" y1="11.82" x2="55.935" y2="27.94" gradientTransform="matrix(1 0 0 -1 0 142)">
				<stop  offset="0" style="stop-color:#74225C"/>
				<stop  offset="1" style="stop-color:#74225B"/>
			</linearGradient>
			<path class="st105" d="M43.2,113.7h25.5c0.8,0,1.5,0.7,1.5,1.5v13c0,0.8-0.7,1.5-1.5,1.5H43.2c-0.8,0-1.5-0.7-1.5-1.5v-13
				C41.7,114.4,42.3,113.7,43.2,113.7z"/>
			
				<linearGradient id="SVGID_92_" gradientUnits="userSpaceOnUse" x1="55.935" y1="11.88" x2="55.935" y2="27.62" gradientTransform="matrix(1 0 0 -1 0 142)">
				<stop  offset="0" style="stop-color:#77215A"/>
				<stop  offset="1" style="stop-color:#76205A"/>
			</linearGradient>
			<path class="st106" d="M43.2,114.1h25.4c0.8,0,1.5,0.7,1.5,1.5v12.7c0,0.8-0.7,1.5-1.5,1.5H43.2c-0.8,0-1.5-0.7-1.5-1.5v-12.7
				C41.7,114.7,42.4,114.1,43.2,114.1z"/>
			
				<linearGradient id="SVGID_93_" gradientUnits="userSpaceOnUse" x1="55.935" y1="11.95" x2="55.935" y2="27.3" gradientTransform="matrix(1 0 0 -1 0 142)">
				<stop  offset="0" style="stop-color:#791F59"/>
				<stop  offset="1" style="stop-color:#791F59"/>
			</linearGradient>
			<path class="st107" d="M43.3,114.4h25.2c0.8,0,1.5,0.7,1.5,1.5v12.3c0,0.8-0.7,1.5-1.5,1.5H43.3c-0.8,0-1.5-0.7-1.5-1.5v-12.3
				C41.8,115,42.5,114.4,43.3,114.4z"/>
			<path class="st108" d="M43.4,114.7h25.1c0.8,0,1.5,0.7,1.5,1.5v11.9c0,0.8-0.7,1.5-1.5,1.5H43.4c-0.8,0-1.5-0.7-1.5-1.5v-11.9
				C41.9,115.4,42.6,114.7,43.4,114.7z"/>
			
				<linearGradient id="SVGID_94_" gradientUnits="userSpaceOnUse" x1="88.445" y1="10.55" x2="88.445" y2="33.75" gradientTransform="matrix(1 0 0 -1 0 142)">
				<stop  offset="0" style="stop-color:#4C4271"/>
				<stop  offset="1" style="stop-color:#493D70"/>
			</linearGradient>
			<path class="st109" d="M83.3,107.8h10.4c0.9,0,1.6,0.7,1.6,1.7v24.4c0,0.9-0.7,1.6-1.6,1.6H83.3c-0.9,0-1.6-0.7-1.6-1.6v-24.4
				C81.6,108.6,82.3,107.8,83.3,107.8z"/>
			
				<linearGradient id="SVGID_95_" gradientUnits="userSpaceOnUse" x1="88.445" y1="10.55" x2="88.445" y2="33.43" gradientTransform="matrix(1 0 0 -1 0 142)">
				<stop  offset="0" style="stop-color:#4E4070"/>
				<stop  offset="1" style="stop-color:#4B3B6F"/>
			</linearGradient>
			<path class="st110" d="M83.3,108.2h10.2c0.9,0,1.6,0.7,1.6,1.7v24c0,0.9-0.7,1.6-1.6,1.6H83.3c-0.9,0-1.6-0.7-1.6-1.6v-24
				C81.7,108.9,82.4,108.2,83.3,108.2z"/>
			
				<linearGradient id="SVGID_96_" gradientUnits="userSpaceOnUse" x1="88.435" y1="10.55" x2="88.435" y2="33.11" gradientTransform="matrix(1 0 0 -1 0 142)">
				<stop  offset="0" style="stop-color:#503E6F"/>
				<stop  offset="1" style="stop-color:#4E3A6E"/>
			</linearGradient>
			<path class="st111" d="M83.4,108.5h10.1c0.9,0,1.6,0.7,1.6,1.6v23.7c0,0.9-0.7,1.6-1.6,1.6H83.4c-0.9,0-1.6-0.7-1.6-1.6v-23.7
				C81.8,109.2,82.5,108.5,83.4,108.5z"/>
			
				<linearGradient id="SVGID_97_" gradientUnits="userSpaceOnUse" x1="88.435" y1="10.55" x2="88.435" y2="32.78" gradientTransform="matrix(1 0 0 -1 0 142)">
				<stop  offset="0" style="stop-color:#533D6D"/>
				<stop  offset="1" style="stop-color:#50386D"/>
			</linearGradient>
			<path class="st112" d="M83.5,108.8h9.9c0.9,0,1.6,0.7,1.6,1.6v23.3c0,0.9-0.7,1.6-1.6,1.6h-9.9c-0.9,0-1.6-0.7-1.6-1.6v-23.3
				C81.8,109.5,82.6,108.8,83.5,108.8z"/>
			
				<linearGradient id="SVGID_98_" gradientUnits="userSpaceOnUse" x1="88.44" y1="10.55" x2="88.44" y2="32.46" gradientTransform="matrix(1 0 0 -1 0 142)">
				<stop  offset="0" style="stop-color:#553B6C"/>
				<stop  offset="1" style="stop-color:#53376B"/>
			</linearGradient>
			<path class="st113" d="M83.5,109.1h9.8c0.9,0,1.6,0.7,1.6,1.6v22.9c0,0.9-0.7,1.6-1.6,1.6h-9.8c-0.9,0-1.6-0.7-1.6-1.6v-22.9
				C81.9,109.9,82.6,109.1,83.5,109.1z"/>
			
				<linearGradient id="SVGID_99_" gradientUnits="userSpaceOnUse" x1="88.44" y1="10.55" x2="88.44" y2="32.14" gradientTransform="matrix(1 0 0 -1 0 142)">
				<stop  offset="0" style="stop-color:#57396B"/>
				<stop  offset="1" style="stop-color:#55356A"/>
			</linearGradient>
			<path class="st114" d="M83.6,109.5h9.7c0.9,0,1.6,0.7,1.6,1.6v22.6c0,0.9-0.7,1.6-1.6,1.6h-9.7c-0.9,0-1.6-0.7-1.6-1.6v-22.6
				C82,110.2,82.7,109.5,83.6,109.5z"/>
			
				<linearGradient id="SVGID_100_" gradientUnits="userSpaceOnUse" x1="88.44" y1="10.56" x2="88.44" y2="31.82" gradientTransform="matrix(1 0 0 -1 0 142)">
				<stop  offset="0" style="stop-color:#59376A"/>
				<stop  offset="1" style="stop-color:#573469"/>
			</linearGradient>
			<path class="st115" d="M83.7,109.8h9.5c0.9,0,1.6,0.7,1.6,1.6v22.2c0,0.9-0.7,1.6-1.6,1.6h-9.5c-0.9,0-1.6-0.7-1.6-1.6v-22.2
				C82.1,110.5,82.8,109.8,83.7,109.8z"/>
			
				<linearGradient id="SVGID_101_" gradientUnits="userSpaceOnUse" x1="88.44" y1="10.56" x2="88.44" y2="31.5" gradientTransform="matrix(1 0 0 -1 0 142)">
				<stop  offset="0" style="stop-color:#5C3669"/>
				<stop  offset="1" style="stop-color:#5A3268"/>
			</linearGradient>
			<path class="st116" d="M83.8,110.1h9.4c0.9,0,1.6,0.7,1.6,1.6v21.8c0,0.9-0.7,1.6-1.6,1.6h-9.4c-0.9,0-1.6-0.7-1.6-1.6v-21.8
				C82.2,110.8,82.9,110.1,83.8,110.1z"/>
			
				<linearGradient id="SVGID_102_" gradientUnits="userSpaceOnUse" x1="88.445" y1="10.56" x2="88.445" y2="31.17" gradientTransform="matrix(1 0 0 -1 0 142)">
				<stop  offset="0" style="stop-color:#5E3467"/>
				<stop  offset="1" style="stop-color:#5C3167"/>
			</linearGradient>
			<path class="st117" d="M83.8,110.4h9.3c0.9,0,1.6,0.7,1.6,1.6v21.4c0,0.9-0.7,1.6-1.6,1.6h-9.3c-0.9,0-1.6-0.7-1.6-1.6V112
				C82.2,111.2,82.9,110.4,83.8,110.4z"/>
			
				<linearGradient id="SVGID_103_" gradientUnits="userSpaceOnUse" x1="88.445" y1="10.56" x2="88.445" y2="30.85" gradientTransform="matrix(1 0 0 -1 0 142)">
				<stop  offset="0" style="stop-color:#603266"/>
				<stop  offset="1" style="stop-color:#5E2F66"/>
			</linearGradient>
			<path class="st118" d="M83.9,110.8H93c0.9,0,1.6,0.7,1.6,1.6v21.1c0,0.9-0.7,1.6-1.6,1.6h-9.1c-0.9,0-1.6-0.7-1.6-1.6v-21.1
				C82.3,111.5,83,110.8,83.9,110.8z"/>
			
				<linearGradient id="SVGID_104_" gradientUnits="userSpaceOnUse" x1="88.435" y1="10.56" x2="88.435" y2="30.53" gradientTransform="matrix(1 0 0 -1 0 142)">
				<stop  offset="0" style="stop-color:#623065"/>
				<stop  offset="1" style="stop-color:#612E65"/>
			</linearGradient>
			<path class="st119" d="M84,111.1h9c0.9,0,1.6,0.7,1.6,1.6v20.7c0,0.9-0.7,1.6-1.6,1.6h-9c-0.9,0-1.6-0.7-1.6-1.6v-20.7
				C82.4,111.8,83.1,111.1,84,111.1z"/>
			
				<linearGradient id="SVGID_105_" gradientUnits="userSpaceOnUse" x1="88.435" y1="10.56" x2="88.435" y2="30.21" gradientTransform="matrix(1 0 0 -1 0 142)">
				<stop  offset="0" style="stop-color:#652F64"/>
				<stop  offset="1" style="stop-color:#632C63"/>
			</linearGradient>
			<path class="st120" d="M84,111.4h8.8c0.9,0,1.6,0.7,1.6,1.6v20.3c0,0.9-0.7,1.6-1.6,1.6H84c-0.9,0-1.6-0.7-1.6-1.6V113
				C82.5,112.1,83.2,111.4,84,111.4z"/>
			
				<linearGradient id="SVGID_106_" gradientUnits="userSpaceOnUse" x1="88.44" y1="10.56" x2="88.44" y2="29.89" gradientTransform="matrix(1 0 0 -1 0 142)">
				<stop  offset="0" style="stop-color:#672D63"/>
				<stop  offset="1" style="stop-color:#662B62"/>
			</linearGradient>
			<path class="st121" d="M84.1,111.8h8.7c0.9,0,1.6,0.7,1.6,1.6v20c0,0.9-0.7,1.6-1.6,1.6h-8.7c-0.9,0-1.6-0.7-1.6-1.6v-20
				C82.5,112.5,83.2,111.8,84.1,111.8z"/>
			
				<linearGradient id="SVGID_107_" gradientUnits="userSpaceOnUse" x1="88.44" y1="10.56" x2="88.44" y2="29.56" gradientTransform="matrix(1 0 0 -1 0 142)">
				<stop  offset="0" style="stop-color:#692B62"/>
				<stop  offset="1" style="stop-color:#682961"/>
			</linearGradient>
			<path class="st122" d="M84.2,112.1h8.5c0.9,0,1.6,0.7,1.6,1.6v19.6c0,0.9-0.7,1.6-1.6,1.6h-8.5c-0.9,0-1.6-0.7-1.6-1.6v-19.6
				C82.6,112.8,83.3,112.1,84.2,112.1z"/>
			
				<linearGradient id="SVGID_108_" gradientUnits="userSpaceOnUse" x1="88.44" y1="10.56" x2="88.44" y2="29.24" gradientTransform="matrix(1 0 0 -1 0 142)">
				<stop  offset="0" style="stop-color:#6B2960"/>
				<stop  offset="1" style="stop-color:#6A2860"/>
			</linearGradient>
			<path class="st123" d="M84.2,112.4h8.4c0.9,0,1.5,0.7,1.5,1.5v19.2c0,0.9-0.7,1.5-1.5,1.5h-8.4c-0.9,0-1.5-0.7-1.5-1.5V114
				C82.7,113.1,83.4,112.4,84.2,112.4z"/>
			
				<linearGradient id="SVGID_109_" gradientUnits="userSpaceOnUse" x1="88.44" y1="10.56" x2="88.44" y2="28.92" gradientTransform="matrix(1 0 0 -1 0 142)">
				<stop  offset="0" style="stop-color:#6E285F"/>
				<stop  offset="1" style="stop-color:#6D265F"/>
			</linearGradient>
			<path class="st124" d="M84.3,112.7h8.3c0.8,0,1.5,0.7,1.5,1.5v18.9c0,0.8-0.7,1.5-1.5,1.5h-8.3c-0.8,0-1.5-0.7-1.5-1.5v-18.9
				C82.8,113.4,83.5,112.7,84.3,112.7z"/>
			
				<linearGradient id="SVGID_110_" gradientUnits="userSpaceOnUse" x1="88.445" y1="10.57" x2="88.445" y2="28.6" gradientTransform="matrix(1 0 0 -1 0 142)">
				<stop  offset="0" style="stop-color:#70265E"/>
				<stop  offset="1" style="stop-color:#6F255E"/>
			</linearGradient>
			<path class="st125" d="M84.4,113.1h8.1c0.8,0,1.5,0.7,1.5,1.5v18.5c0,0.8-0.7,1.5-1.5,1.5h-8.1c-0.8,0-1.5-0.7-1.5-1.5v-18.5
				C82.9,113.8,83.5,113.1,84.4,113.1z"/>
			
				<linearGradient id="SVGID_111_" gradientUnits="userSpaceOnUse" x1="88.445" y1="10.57" x2="88.445" y2="28.28" gradientTransform="matrix(1 0 0 -1 0 142)">
				<stop  offset="0" style="stop-color:#72245D"/>
				<stop  offset="1" style="stop-color:#71235D"/>
			</linearGradient>
			<path class="st126" d="M84.4,113.4h8c0.8,0,1.5,0.7,1.5,1.5V133c0,0.8-0.7,1.5-1.5,1.5h-8c-0.8,0-1.5-0.7-1.5-1.5v-18.1
				C82.9,114.1,83.6,113.4,84.4,113.4z"/>
			
				<linearGradient id="SVGID_112_" gradientUnits="userSpaceOnUse" x1="88.445" y1="10.57" x2="88.445" y2="27.95" gradientTransform="matrix(1 0 0 -1 0 142)">
				<stop  offset="0" style="stop-color:#74225C"/>
				<stop  offset="1" style="stop-color:#74225B"/>
			</linearGradient>
			<path class="st127" d="M84.5,113.7h7.8c0.8,0,1.5,0.7,1.5,1.5V133c0,0.8-0.7,1.5-1.5,1.5h-7.8c-0.8,0-1.5-0.7-1.5-1.5v-17.7
				C83,114.4,83.7,113.7,84.5,113.7z"/>
			
				<linearGradient id="SVGID_113_" gradientUnits="userSpaceOnUse" x1="88.435" y1="10.57" x2="88.435" y2="27.63" gradientTransform="matrix(1 0 0 -1 0 142)">
				<stop  offset="0" style="stop-color:#77215A"/>
				<stop  offset="1" style="stop-color:#76205A"/>
			</linearGradient>
			<path class="st128" d="M84.6,114.1h7.7c0.8,0,1.5,0.7,1.5,1.5v17.4c0,0.8-0.7,1.5-1.5,1.5h-7.7c-0.8,0-1.5-0.7-1.5-1.5v-17.4
				C83.1,114.7,83.8,114.1,84.6,114.1z"/>
			
				<linearGradient id="SVGID_114_" gradientUnits="userSpaceOnUse" x1="88.44" y1="10.57" x2="88.44" y2="27.31" gradientTransform="matrix(1 0 0 -1 0 142)">
				<stop  offset="0" style="stop-color:#791F59"/>
				<stop  offset="1" style="stop-color:#791F59"/>
			</linearGradient>
			<path class="st129" d="M84.7,114.4h7.6c0.8,0,1.5,0.7,1.5,1.5v17c0,0.8-0.7,1.5-1.5,1.5h-7.6c-0.8,0-1.5-0.7-1.5-1.5v-17
				C83.2,115,83.8,114.4,84.7,114.4z"/>
			<path class="st108" d="M84.7,114.7h7.4c0.8,0,1.5,0.7,1.5,1.5v16.7c0,0.8-0.7,1.5-1.5,1.5h-7.4c-0.8,0-1.5-0.7-1.5-1.5v-16.7
				C83.3,115.4,83.9,114.7,84.7,114.7z"/>
			<polygon class="st130" points="32.4,95.9 103.8,95.9 102.6,110.5 31.1,110.5 			"/>
			<path class="st131" d="M93.6,96h10.2l-1.3,14.6H92.4L93.6,96z M32.4,96h10.2l-1.3,14.6H31.1L32.4,96z M52.8,96H63l-1.3,14.6H51.5
				L52.8,96z M73.2,96h10.2l-1.3,14.6H71.9L73.2,96z"/>
			<rect x="31.1" y="110.5" class="st132" width="71.4" height="1.6"/>
			<path class="st133" d="M92.4,112.1h10.2v-1.6H92.4V112.1z M31.1,112.1h10.2v-1.6H31.1V112.1z M51.5,112.1h10.2v-1.6H51.5V112.1z
				 M71.9,112.1h10.2v-1.6H71.9V112.1z"/>
			
				<linearGradient id="SVGID_115_" gradientUnits="userSpaceOnUse" x1="110.1943" y1="50.1498" x2="109.7243" y2="63.6598" gradientTransform="matrix(1 0 0 -1 0 142)">
				<stop  offset="0" style="stop-color:#C07799"/>
				<stop  offset="1" style="stop-color:#926780"/>
			</linearGradient>
			<rect x="107.5" y="91.3" class="st134" width="5.4" height="2.6"/>
			<rect x="28.6" y="38" class="st12" width="78.9" height="2.6"/>
			
				<linearGradient id="SVGID_116_" gradientUnits="userSpaceOnUse" x1="110.22" y1="101.37" x2="110.22" y2="107.23" gradientTransform="matrix(1 0 0 -1 0 142)">
				<stop  offset="0" style="stop-color:#C07799"/>
				<stop  offset="1" style="stop-color:#926780"/>
			</linearGradient>
			<rect x="107.5" y="38" class="st135" width="5.4" height="2.6"/>
			
				<linearGradient id="SVGID_117_" gradientUnits="userSpaceOnUse" x1="68.09" y1="102.8" x2="68.09" y2="104.92" gradientTransform="matrix(1 0 0 -1 0 142)">
				<stop  offset="0" style="stop-color:#C07799"/>
				<stop  offset="1" style="stop-color:#926780"/>
			</linearGradient>
			<rect x="28.6" y="38" class="st136" width="78.9" height="1.5"/>
			<rect x="27.5" y="31.7" class="st12" width="81.1" height="6.3"/>
			
				<linearGradient id="SVGID_118_" gradientUnits="userSpaceOnUse" x1="111.9776" y1="104.2095" x2="116.1577" y2="84.5695" gradientTransform="matrix(1 0 0 -1 0 142)">
				<stop  offset="0" style="stop-color:#BD7C9B"/>
				<stop  offset="1" style="stop-color:#956F83"/>
			</linearGradient>
			<rect x="108.7" y="31.7" class="st137" width="5.4" height="6.3"/>
			<rect x="28.6" y="72.8" class="st12" width="78.9" height="2.6"/>
			
				<linearGradient id="SVGID_119_" gradientUnits="userSpaceOnUse" x1="110.2489" y1="67.6499" x2="108.3189" y2="85.9999" gradientTransform="matrix(1 0 0 -1 0 142)">
				<stop  offset="0" style="stop-color:#C07799"/>
				<stop  offset="1" style="stop-color:#926780"/>
			</linearGradient>
			<rect x="107.5" y="72.8" class="st138" width="5.4" height="2.6"/>
			
				<linearGradient id="SVGID_120_" gradientUnits="userSpaceOnUse" x1="69.1949" y1="52.67" x2="69.1949" y2="62.81" gradientTransform="matrix(1 0 0 -1 0 142)">
				<stop  offset="0" style="stop-color:#9D4C72"/>
				<stop  offset="1" style="stop-color:#7E3A5A"/>
			</linearGradient>
			<path class="st139" d="M53,87.6c0.1,0.1,0.1,0.2,0.2,0.3c0.6,0.7,1.5,1,2.4,1c0.6,0,1.2-0.1,1.7-0.4l1.7-1.1l0.4,0.7l-0.2,3.1
				c-0.5,0.3-1,0.6-1.6,0.8c-0.6,0.2-1.2,0.3-1.8,0.3c-0.7,0-1.3-0.1-1.9-0.3c-0.6-0.2-1.2-0.5-1.7-0.9c-0.7-0.5-1.3-1.3-1.7-2.1
				c-0.2-0.3-0.3-0.5-0.4-0.8c-0.4-0.9-0.6-1.8-0.6-2.7c0-0.8,0.1-1.6,0.4-2.4c0.3-0.7,0.7-1.4,1.3-2c0.6-0.6,1.2-1,2-1.3
				c0.7-0.3,1.5-0.5,2.3-0.5c0.6,0,1.3,0.1,1.9,0.3c0.6,0.2,1.2,0.5,1.7,0.8l0.4,0.7l-0.3,3c-0.4-0.5-0.9-0.9-1.5-1.2
				c-0.5-0.2-1.1-0.4-1.6-0.4c-0.9,0-1.8,0.3-2.4,1c-0.6,0.7-1,1.6-0.9,2.6C52.7,86.6,52.8,87.1,53,87.6L53,87.6z M65.9,84.7
				l-1.2,2.8H67L65.9,84.7L65.9,84.7z M60.1,91.8l-0.4-0.7l5.9-11.9h0.2l0.4,0.7l5.8,11.9H69l-0.4-0.7l-0.4-1h-4.6l-0.8,1.7H60.1z
				 M72.7,91.8l-0.4-0.7V79.6h7.2l0.4,0.7v2.3h-4.4v1.6H79l0.4,0.7v2.3h-4v4.6L72.7,91.8z M81.7,91.8l-0.4-0.7V79.6h7.1l0.4,0.7v2.4
				h-4.4V84h3.4l0.4,0.7v2.4h-3.8v1.6h4.1l0.4,0.7v2.4H81.7z"/>
			<rect x="83.6" y="118" class="st83" width="9.7" height="2.7"/>
			<path class="st140" d="M58.3,81.7h-0.5c-0.4-0.3-0.7-1-1.1-1.1c-0.5-0.2-1.1-0.4-1.6-0.4c-0.9,0-1.8,0.3-2.4,1
				c-0.6,0.7-1,1.6-0.9,2.6c0,0.9,0.3,1.9,0.9,2.6c0.6,0.7,1.5,1,2.4,1c0.6,0,1.2-0.1,1.8-0.4l1.3-1.1h0.4l-0.2,3.1
				c-0.5,0.3-1,0.6-1.6,0.8c-0.6,0.2-1.2,0.3-1.8,0.3c-0.7,0-1.3-0.1-1.9-0.3c-0.6-0.2-1.2-0.5-1.7-0.9c-0.7-0.6-1.3-1.3-1.7-2.1
				c-0.7-1.6-0.8-3.5-0.1-5.2c0.3-0.7,0.7-1.4,1.3-2c0.6-0.6,1.2-1,1.9-1.3c0.7-0.3,1.5-0.5,2.3-0.5c0.6,0,1.3,0.1,1.9,0.3
				c0.6,0.2,1.2,0.5,1.7,0.8L58.3,81.7L58.3,81.7z M63.5,85.9h3L65,82.3L63.5,85.9L63.5,85.9z M59.2,89.6l5.9-11.9h0.2L71,89.6h-2.9
				l-0.7-1.7h-4.7L62,89.6H59.2z M71.9,89.6V78H79v2.3h-4.4v2.3h4V85h-4v4.6L71.9,89.6z M80.9,89.6V78H88v2.4h-4.4v2.1h3.8v2.4h-3.8
				v2.3H88v2.4L80.9,89.6z"/>
			<path class="st141" d="M57.8,81.7c-0.4-0.5-1-0.9-1.5-1.1c-0.5-0.2-1.1-0.4-1.6-0.4c-0.9,0-1.8,0.3-2.4,1c-0.6,0.7-1,1.6-0.9,2.6
				c0,0.9,0.3,1.9,0.9,2.6c0.6,0.7,1.5,1,2.4,1c0.6,0,1.2-0.1,1.8-0.4c0.6-0.3,1.2-0.6,1.7-1.1L58,88.9c-0.5,0.3-1,0.6-1.6,0.8
				c-0.6,0.2-1.2,0.3-1.8,0.3c-0.7,0-1.4-0.1-2-0.3c-0.6-0.2-1.2-0.5-1.7-0.9c-0.7-0.6-1.3-1.3-1.7-2.1c-0.4-0.9-0.6-1.8-0.6-2.8
				c0-0.8,0.1-1.6,0.4-2.4c0.3-0.7,0.7-1.4,1.3-2c0.6-0.6,1.2-1,1.9-1.3c0.7-0.3,1.5-0.5,2.3-0.5c0.6,0,1.3,0.1,1.9,0.3
				c0.6,0.2,1.2,0.5,1.7,0.8L57.8,81.7L57.8,81.7z M63.1,85.9h3l-1.5-3.6L63.1,85.9L63.1,85.9z M58.8,89.6l5.9-11.9h0.1l5.8,11.9
				h-2.9l-0.7-1.7h-4.7l-0.7,1.7H58.8z M71.5,89.6V78h7.2v2.3h-4.4v2.3h4V85h-4v4.6L71.5,89.6z M80.5,89.6V78h7.1v2.4h-4.4v2.1h3.8
				v2.4h-3.8v2.3h4.5v2.4L80.5,89.6z"/>
			<rect x="28.6" y="91.3" class="st12" width="78.9" height="2.6"/>
			
				<linearGradient id="SVGID_121_" gradientUnits="userSpaceOnUse" x1="68.43" y1="72.84" x2="68.43" y2="93.1" gradientTransform="matrix(1 0 0 -1 0 142)">
				<stop  offset="0" style="stop-color:#9D4C72"/>
				<stop  offset="1" style="stop-color:#7E3A5A"/>
			</linearGradient>
			<polygon class="st142" points="76.7,48.2 76.7,71.4 61.1,71.4 60.7,70.8 60.6,70.5 60.2,69.9 60.2,46.7 75.8,46.7 			"/>
			<rect x="59.3" y="46.7" class="st143" width="16.3" height="23.2"/>
			<rect x="60.9" y="48.3" class="st144" width="13" height="19.9"/>
			<path class="st145" d="M61.5,49.2v5.5h5.8v-5.5H61.5z M61.5,55.8v5.8h5.8v-5.8H61.5z M61.5,62.7v5.5h5.8v-5.5H61.5z M68.2,68.2
				H74v-5.5h-5.8V68.2z M74,61.6v-5.8h-5.8v5.8L74,61.6z M74,54.7v-5.5h-5.8v5.5L74,54.7z"/>
			<polygon class="st146" points="74,55.2 67.8,55.2 67.8,61.3 74,61.3 74,62.1 67.8,62.1 67.8,68.2 67.1,68.2 67.1,62.1 61,62.1 
				61,61.3 67.1,61.3 67.1,55.2 61,55.2 61,54.4 67.1,54.4 67.1,48.3 67.8,48.3 67.8,54.4 74,54.4 			"/>
			<polygon class="st147" points="74,55.2 67.8,55.2 67.8,61.3 74,61.3 74,62.1 67.8,62.1 67.8,68.2 67.1,68.2 67.1,62.1 61.3,62.1 
				61.3,61.3 67.1,61.3 67.1,55.2 61.3,55.2 61.3,54.4 67.1,54.4 67.1,48.9 67.8,48.9 67.8,54.4 74,54.4 			"/>
			<rect x="75.4" y="46.7" class="st148" width="0.4" height="23.2"/>
			
				<linearGradient id="SVGID_122_" gradientUnits="userSpaceOnUse" x1="90.895" y1="72.84" x2="90.895" y2="93.1" gradientTransform="matrix(1 0 0 -1 0 142)">
				<stop  offset="0" style="stop-color:#9D4C72"/>
				<stop  offset="1" style="stop-color:#7E3A5A"/>
			</linearGradient>
			<polygon class="st149" points="99.1,48.2 99.1,71.4 83.5,71.4 83.2,70.8 83,70.5 82.7,69.9 82.7,46.7 98.3,46.7 			"/>
			<rect x="81.8" y="46.7" class="st143" width="16.3" height="23.2"/>
			<rect x="83.4" y="48.3" class="st144" width="13" height="19.9"/>
			<path class="st145" d="M83.9,49.2v5.5h5.8v-5.5H83.9z M83.9,55.8v5.8h5.8v-5.8H83.9z M83.9,62.7v5.5h5.8v-5.5H83.9z M90.7,68.2
				h5.8v-5.5h-5.8V68.2z M96.4,61.6v-5.8h-5.8v5.8L96.4,61.6z M96.4,54.7v-5.5h-5.8v5.5L96.4,54.7z"/>
			<polygon class="st146" points="96.4,55.2 90.3,55.2 90.3,61.3 96.4,61.3 96.4,62.1 90.3,62.1 90.3,68.2 89.5,68.2 89.5,62.1 
				83.4,62.1 83.4,61.3 89.5,61.3 89.5,55.2 83.4,55.2 83.4,54.4 89.5,54.4 89.5,48.3 90.3,48.3 90.3,54.4 96.4,54.4 			"/>
			<polygon class="st147" points="96.4,55.2 90.3,55.2 90.3,61.3 96.4,61.3 96.4,62.1 90.3,62.1 90.3,68.2 89.5,68.2 89.5,62.1 
				83.8,62.1 83.8,61.3 89.5,61.3 89.5,55.2 83.8,55.2 83.8,54.4 89.5,54.4 89.5,48.9 90.3,48.9 90.3,54.4 96.4,54.4 			"/>
			<rect x="97.9" y="46.7" class="st148" width="0.4" height="23.2"/>
			
				<linearGradient id="SVGID_123_" gradientUnits="userSpaceOnUse" x1="45.97" y1="72.84" x2="45.97" y2="93.1" gradientTransform="matrix(1 0 0 -1 0 142)">
				<stop  offset="0" style="stop-color:#9D4C72"/>
				<stop  offset="1" style="stop-color:#7E3A5A"/>
			</linearGradient>
			<polygon class="st150" points="54.2,48.2 54.2,71.4 38.6,71.4 38.3,70.8 38.1,70.5 37.7,69.9 37.7,46.7 53.3,46.7 			"/>
			<rect x="36.9" y="46.7" class="st143" width="16.3" height="23.2"/>
			<rect x="38.5" y="48.3" class="st144" width="13" height="19.9"/>
			<path class="st145" d="M39,49.2v5.5h5.8v-5.5H39z M39,55.8v5.8h5.8v-5.8H39z M39,62.7v5.5h5.8v-5.5H39z M45.7,68.2h5.8v-5.5h-5.8
				V68.2z M51.5,61.6v-5.8h-5.8v5.8L51.5,61.6z M51.5,54.7v-5.5h-5.8v5.5L51.5,54.7z"/>
			<polygon class="st146" points="51.5,55.2 45.4,55.2 45.4,61.3 51.5,61.3 51.5,62.1 45.4,62.1 45.4,68.2 44.6,68.2 44.6,62.1 
				38.5,62.1 38.5,61.3 44.6,61.3 44.6,55.2 38.5,55.2 38.5,54.4 44.6,54.4 44.6,48.3 45.4,48.3 45.4,54.4 51.5,54.4 			"/>
			<polygon class="st147" points="51.5,55.2 45.4,55.2 45.4,61.3 51.5,61.3 51.5,62.1 45.4,62.1 45.4,68.2 44.6,68.2 44.6,62.1 
				38.8,62.1 38.8,61.3 44.6,61.3 44.6,55.2 38.8,55.2 38.8,54.4 44.6,54.4 44.6,48.9 45.4,48.9 45.4,54.4 51.5,54.4 			"/>
			<rect x="53" y="46.7" class="st148" width="0.4" height="23.2"/>
			
				<linearGradient id="SVGID_124_" gradientUnits="userSpaceOnUse" x1="48.9796" y1="139.5856" x2="71.3296" y2="137.6256" gradientTransform="matrix(1 0 0 -1 0 142)">
				<stop  offset="0" style="stop-color:#E2B8AF"/>
				<stop  offset="1" style="stop-color:#D69F92"/>
			</linearGradient>
			<polygon class="st151" points="53.1,0 64.6,4.6 53.1,4.6 41.7,4.6 			"/>
			<rect x="41.7" y="23.2" class="st21" width="22.8" height="1.4"/>
			
				<linearGradient id="SVGID_125_" gradientUnits="userSpaceOnUse" x1="65.3846" y1="114.7304" x2="65.8446" y2="109.5104" gradientTransform="matrix(1 0 0 -1 0 142)">
				<stop  offset="0" style="stop-color:#4F4473"/>
				<stop  offset="1" style="stop-color:#28253A"/>
			</linearGradient>
			<rect x="64.5" y="23.2" class="st152" width="1.1" height="1.4"/>
			<polygon class="st153" points="102.6,112.1 103.8,112.1 103.8,95.9 102.6,110.5 			"/>
			
				<linearGradient id="SVGID_126_" gradientUnits="userSpaceOnUse" x1="123.9801" y1="0.9736" x2="117.6901" y2="1.1936" gradientTransform="matrix(1 0 0 -1 0 142)">
				<stop  offset="0" style="stop-color:#A191A5"/>
				<stop  offset="1" style="stop-color:#8E8494"/>
			</linearGradient>
			<polygon class="st154" points="98.4,140.9 129.8,140.9 129.8,140.5 102.4,140.5 			"/>
			<polygon class="st155" points="115.7,140.9 114.6,140.9 113,126.5 114.4,126.5 			"/>
			<polygon class="st155" points="103.6,140.9 102.4,140.9 100.9,126.5 102.3,126.5 			"/>
			
				<linearGradient id="SVGID_127_" gradientUnits="userSpaceOnUse" x1="118.3209" y1="-6.6497" x2="112.3409" y2="12.9203" gradientTransform="matrix(1 0 0 -1 0 142)">
				<stop  offset="0" style="stop-color:#876075"/>
				<stop  offset="1" style="stop-color:#9F7276"/>
			</linearGradient>
			<polygon class="st156" points="111.7,140.9 113.7,122.2 114.5,122.2 116.6,140.9 115.7,140.9 114.1,126.5 112.5,140.9 			"/>
			
				<linearGradient id="SVGID_128_" gradientUnits="userSpaceOnUse" x1="101.7825" y1="4.1002" x2="102.1425" y2="-1.0698" gradientTransform="matrix(1 0 0 -1 0 142)">
				<stop  offset="0" style="stop-color:#876075"/>
				<stop  offset="1" style="stop-color:#9F7276"/>
			</linearGradient>
			<polygon class="st157" points="99.5,140.9 101.6,122.2 102.4,122.2 104.4,140.9 103.6,140.9 102,126.5 100.4,140.9 			"/>
			<polygon class="st158" points="112,137.7 98.8,137.7 100.4,122.2 113.7,122.2 			"/>
			<path class="st159" d="M111,136.3h-11l1.4-12.7h11L111,136.3z"/>
			<polygon class="st160" points="111,136.3 101.2,136.3 102.5,124.3 112.3,124.3 			"/>
			
				<linearGradient id="SVGID_129_" gradientUnits="userSpaceOnUse" x1="100.3512" y1="12.2248" x2="102.4112" y2="11.7048" gradientTransform="matrix(1 0 0 -1 0 142)">
				<stop  offset="0" style="stop-color:#876075"/>
				<stop  offset="1" style="stop-color:#9F7276"/>
			</linearGradient>
			<polygon class="st161" points="100,136.3 100.4,136.3 101.8,123.6 101.4,123.6 			"/>
			<polygon class="st158" points="111.7,140.9 110.5,140.9 112.6,122.2 113.7,122.2 			"/>
			<polygon class="st158" points="99.5,140.9 98.4,140.9 100.4,122.2 101.6,122.2 			"/>
			<path class="st84" d="M111.3,126l-1,0.8c-0.1,0-0.1,0.1-0.1,0.1c0-0.1,0.1-0.1,0.1-0.2l0.6-0.8h-0.3l-0.3,0.4
				c-0.2,0.3-0.5,0.5-0.8,0.7c-0.1,0,0-0.2,0-0.2l0.6-0.8h-0.3l-0.3,0.5l-0.6,0.5c-0.1,0-0.1,0.1-0.1,0.1c0-0.1,0.1-0.1,0.1-0.2
				l0.3-0.4c0.2-0.3,0.1-0.4,0-0.4s-0.4,0.1-1,0.7l0.5-0.7h-0.3l-0.6,0.8c-0.2,0.3-0.5,0.4-0.9,0.5c-0.2,0-0.2-0.1-0.1-0.3
				c0,0,0.1,0.1,0.1,0.1c0.2,0.1,0.4,0,0.6-0.3c0.4-0.4,0.3-0.8,0-0.8c-0.4,0.1-0.7,0.3-0.9,0.6c0,0-0.1,0.1-0.1,0.1l-0.3,0.2
				c-0.1,0.1-0.1,0.1-0.1,0.1c0-0.1,0.1-0.1,0.1-0.2l0.7-1c0.3-0.4,0.2-0.6-0.1-0.6c-0.2,0-0.5,0.1-0.6,0.3c0-0.2-0.1-0.3-0.3-0.3
				c-0.2,0-0.4,0.1-0.5,0.2l0.1-0.1h-0.4l-0.9,1.3c-1.1,0.1-1.5,1.1-1,1.1c0.3,0,0.7-0.1,1.2-0.8c0.1-0.1,0.3-0.5,0.6-0.8
				s0.4-0.5,0.6-0.5s0.1,0.2-0.1,0.4l-1.2,1.8h0.4c0,0,0.9-1.3,1.2-1.7c0.2-0.3,0.4-0.4,0.6-0.4s0.1,0.2-0.1,0.4l-1,1.4
				c-0.2,0.2-0.1,0.4,0,0.4c0.2,0,0.3-0.1,0.5-0.3l0.3-0.3c-0.1,0.3,0,0.5,0.4,0.5c0.2,0,0.5-0.1,0.7-0.3l-0.2,0.3h0.3
				c0.3-0.5,0.7-0.9,1.2-1.2c0.1,0,0,0.1-0.1,0.3l-0.4,0.5c-0.2,0.3-0.1,0.4,0,0.4s0.2,0,0.4-0.3l0.4-0.3L109,127
				c-0.2,0.3-0.2,0.5,0,0.5s0.5-0.2,0.8-0.5l-0.1,0.2c-0.2,0.2-0.1,0.4,0,0.4s0.2-0.1,0.4-0.3s1.1-1,1.2-1S111.3,126,111.3,126
				L111.3,126z M103.4,127.2c-0.2,0,0.1-0.5,0.7-0.6C103.7,127,103.5,127.2,103.4,127.2z M107.4,126.2c0.1,0-0.1,0.3-0.2,0.4
				s-0.3,0.2-0.4,0.1l0,0C107,126.3,107.3,126.1,107.4,126.2L107.4,126.2z"/>
			<path class="st84" d="M104.3,129.9c-0.2,0.1-0.5,0.1-0.7,0.3h-0.1l0,0l0,0c0,0,0.1-0.1,0.2-0.2s0.4-0.1,0.7-0.2
				c0.1-0.2,0.3-0.4,0.4-0.6c0.1-0.1,0.2-0.2,0.3-0.2l0,0l0,0l-0.1,0.1c-0.1,0.2-0.3,0.4-0.4,0.6c0.1,0,0.2-0.1,0.3-0.1l0.2-0.1l0,0
				l0,0l-0.1,0.1c-0.1,0-0.1,0.1-0.1,0.1c0,0-0.1,0.1-0.1,0.1c0,0.1,0,0.1-0.1,0.1h0l0,0c0,0,0-0.1,0.1-0.1c0-0.1,0.1-0.1,0.1-0.2
				h-0.2l-0.2,0.1c-0.2,0.4-0.4,0.7-0.8,0.9c-0.2,0.2-0.5,0.3-0.8,0.3c-0.1,0-0.2,0-0.4-0.1c-0.1-0.1-0.1-0.2-0.1-0.3
				c0-0.1,0-0.1,0.1-0.1c0,0,0.1-0.1,0.1-0.1c0,0,0.1,0,0.1,0c0,0,0.1,0.1,0,0.2c0,0,0,0,0,0c0,0-0.1,0-0.1,0h-0.1l0,0
				c0,0.1,0,0.1,0.1,0.1c0.1,0,0.2,0.1,0.2,0.1c0.2,0,0.4-0.1,0.5-0.2c0.3-0.3,0.5-0.6,0.8-0.9L104.3,129.9z M107.6,130.8l0.3-0.3
				l0,0c0.1-0.1,0.1-0.1,0.1-0.1l0,0l0,0c0,0-0.1,0-0.1,0l-0.2,0.1c-0.1,0.1-0.2,0.2-0.2,0.3c0,0.1-0.1,0.1-0.1,0.2l0,0l0,0
				c0,0,0.1,0,0.1-0.1L107.6,130.8L107.6,130.8z M107.6,130.9L107.6,130.9L107.6,130.9c0,0,0,0.1,0,0.1c0,0,0.1,0,0.1,0
				c0.1,0,0.2,0,0.3-0.1c0.1-0.1,0.2-0.1,0.3-0.2l0,0c0.1-0.1,0.2-0.1,0.2-0.2l0,0l0,0l-0.1,0.1l-0.1,0.1c-0.1,0.1-0.2,0.1-0.3,0.2
				c-0.1,0-0.1,0.1-0.2,0.1l0,0l0,0c0,0,0,0,0-0.1l0.1-0.1l1.3-1.5l0,0l0,0l0,0H109l0,0l-0.9,1.1c0,0,0-0.1,0-0.1c0,0-0.1,0-0.1,0
				c-0.1,0-0.2,0-0.3,0.1c-0.1,0-0.2,0.1-0.3,0.2c0,0-0.1,0.1-0.1,0.1l0,0l-0.1,0.1c-0.1,0.1-0.2,0.1-0.3,0.2
				c-0.1,0-0.2,0.1-0.2,0.1c0,0-0.1,0-0.1,0c0,0,0,0,0-0.1v-0.1c0,0,0,0,0-0.1c0.2,0,0.3-0.1,0.4-0.2c0.1-0.1,0.2-0.2,0.2-0.2
				c0,0,0-0.1,0-0.1c0,0-0.1,0-0.1,0c-0.1,0-0.1,0-0.2,0c-0.1,0-0.1,0.1-0.2,0.1c-0.1,0.1-0.1,0.1-0.2,0.2h-0.1c0,0-0.1,0.1-0.1,0.1
				c-0.1,0.1-0.2,0.1-0.3,0.2c-0.1,0-0.1,0.1-0.2,0.1l0,0l0,0c0,0,0-0.1,0.1-0.1c0.1-0.1,0.1-0.2,0.2-0.2c0.1-0.1,0.1-0.1,0.2-0.2
				c0.1-0.1,0.1-0.1,0.1-0.1c0,0,0,0,0,0h-0.1c-0.1,0-0.1,0-0.2,0.1c-0.1,0.1-0.2,0.1-0.3,0.2l-0.1,0.1h-0.1l-0.1,0.1l-0.1,0.1
				c0,0-0.1,0-0.1,0l0,0c0,0,0,0,0-0.1c0,0,0-0.1,0-0.1c0-0.1,0.1-0.1,0.1-0.1v-0.1l0,0l0,0h-0.1l0,0l-0.2,0.2c0,0,0-0.1,0-0.1
				c0,0,0-0.1,0-0.1c0,0,0,0,0-0.1c0,0,0,0-0.1,0c-0.1,0-0.1,0-0.2,0.1c-0.1,0-0.2,0.1-0.2,0.1l-0.1,0.1l0,0l0,0l0,0h0.1l0.1-0.1
				c0,0,0.1-0.1,0.2-0.1h0.1l0,0l0,0c0,0,0,0.1-0.1,0.1c-0.1,0.1-0.1,0.2-0.2,0.3l-0.1,0.1c0,0-0.1,0.1-0.1,0.1l0,0h0.2l0.2-0.3
				c0.1-0.1,0.2-0.2,0.3-0.3c0,0,0,0.1,0,0.1c0,0,0,0,0,0.1c0,0,0,0.1,0,0.1c0,0,0.1,0,0.1,0h0.1c0.1,0,0.1-0.1,0.2-0.1
				c0,0,0.1,0,0.1-0.1l0,0c0,0,0.1-0.1,0.2-0.1c-0.1,0.1-0.2,0.2-0.2,0.3c0,0.1-0.1,0.1-0.1,0.2c0,0,0,0.1,0,0.1c0,0,0.1,0,0.1,0
				c0.1,0,0.2,0,0.2-0.1c0.1-0.1,0.2-0.1,0.3-0.2l0,0v-0.1c0,0,0,0.1,0,0.1c0,0.1,0,0.1,0.1,0.2c0,0,0.1,0.1,0.2,0.1
				c0.1,0,0.1-0.1,0.2-0.1c0.1-0.1,0.2-0.1,0.3-0.2l0,0c0,0,0,0.1,0,0.1c0,0,0,0.1,0,0.1c0,0,0.1,0,0.1,0.1c0.1,0,0.1,0,0.1-0.1
				C107.4,131,107.5,131,107.6,130.9L107.6,130.9z M106.6,130.7c0.1-0.1,0.2-0.2,0.3-0.3c0.1-0.1,0.1-0.1,0.2-0.1l0,0l0,0
				c0,0,0,0.1-0.1,0.2C106.8,130.6,106.7,130.6,106.6,130.7L106.6,130.7z M106.5,129.9C106.5,129.8,106.5,129.8,106.5,129.9
				c0.1-0.1,0.1-0.1,0.2-0.1c0,0,0,0,0,0.1c0,0,0,0,0,0.1C106.7,129.9,106.6,129.9,106.5,129.9C106.6,129.9,106.5,129.9,106.5,129.9
				C106.5,129.9,106.5,129.9,106.5,129.9z M104.4,129.2L104.4,129.2L104.4,129.2C104.4,129.2,104.4,129.2,104.4,129.2
				c-0.1,0.1-0.1,0.2-0.1,0.2c-0.1,0.1-0.2,0.2-0.3,0.3c-0.1,0.1-0.2,0.1-0.3,0.1c-0.1,0-0.2,0-0.2-0.1c-0.1,0-0.1-0.1-0.1-0.2
				c0-0.1,0-0.2,0.1-0.2c0.1-0.1,0.2-0.2,0.3-0.3c0.1-0.1,0.2-0.1,0.3-0.2c0.1,0,0.3-0.1,0.4-0.1c0.3,0,0.6,0.1,0.9,0.1h0.1h0.1h0.1
				c0.1,0,0.2,0,0.3,0c0.1,0,0.1-0.1,0.1-0.1H106h-0.2l-0.5-0.1h-0.2l0,0c-0.2,0-0.5-0.1-0.7-0.1c-0.3,0-0.6,0.1-0.8,0.2
				c-0.2,0.1-0.3,0.3-0.3,0.5c0,0.1,0,0.2,0.1,0.3c0.1,0.1,0.2,0.1,0.3,0.1c0.1,0,0.3,0,0.4-0.1c0.1-0.1,0.2-0.2,0.3-0.3
				c0-0.1,0.1-0.1,0.1-0.2C104.4,129.3,104.4,129.3,104.4,129.2L104.4,129.2z"/>
			<path class="st84" d="M107.9,132.4c-0.2,0.1-0.4,0.2-0.5,0.3c-0.1,0.1-0.2,0.2-0.2,0.3c0,0,0,0,0,0.1l0,0c0.1,0,0.1,0,0.1-0.1
				c0.1-0.1,0.2-0.2,0.2-0.3L107.9,132.4L107.9,132.4z M110.1,132.2C110.1,132.2,110.1,132.3,110.1,132.2L110.1,132.2
				c0.2,0,0.3,0,0.3-0.1c0.1-0.2,0.1-0.3,0.1-0.5c-0.1,0-0.2,0.1-0.3,0.2l-0.1,0.1c0,0,0,0,0,0.1l-0.2,0.1c-0.1,0.1-0.2,0.1-0.3,0.2
				c-0.1,0-0.2,0.1-0.3,0.1c-0.2,0.2-0.4,0.4-0.6,0.6c-0.1,0.1-0.2,0.2-0.4,0.2c0,0-0.1,0-0.1,0c0,0,0-0.1,0-0.1
				c0-0.2,0.1-0.3,0.2-0.4c0.2-0.1,0.4-0.3,0.6-0.3l0.1-0.1h-0.1H109c0,0-0.1,0-0.1-0.1c0,0,0-0.1,0-0.1c0,0,0-0.1,0-0.1l-0.1,0.1
				c-0.1,0.1-0.2,0.1-0.3,0.2c-0.1,0-0.2,0.1-0.3,0.1c-0.2,0.2-0.4,0.4-0.6,0.6c-0.1,0.1-0.2,0.2-0.4,0.2c0,0-0.1,0-0.1,0
				c0,0,0-0.1,0-0.1c0-0.2,0.1-0.3,0.2-0.4c0.2-0.1,0.4-0.3,0.6-0.3l0.1-0.1H108h-0.2c0,0-0.1,0-0.1-0.1c0,0,0-0.1,0-0.1
				c0,0,0-0.1,0-0.1l0,0c-0.1,0.1-0.2,0.1-0.3,0.2c-0.1,0-0.2,0.1-0.3,0.1c-0.1,0-0.1,0-0.2-0.1c-0.1,0-0.1-0.1-0.1-0.2
				c0-0.1,0-0.1,0.1-0.2c0-0.1,0.1-0.1,0.2-0.2l0.2-0.1c0.1,0,0.1,0,0.2,0c0,0,0.1,0,0.1,0c0,0,0,0.1,0,0.1c0,0.1-0.1,0.2-0.2,0.2
				c-0.1,0.1-0.3,0.1-0.4,0.2v0.1l0,0c0,0,0,0.1,0,0.1c0,0,0.1,0,0.1,0c0.1,0,0.2,0,0.2-0.1c0.1-0.1,0.2-0.1,0.3-0.2l0.1-0.1h0.1
				l0.1-0.1c0.1-0.1,0.2-0.1,0.3-0.2c0.1,0,0.2-0.1,0.3-0.1c0,0,0.1,0,0.1,0c0,0,0,0.1,0,0.1c0,0,0,0,0.1,0l0.1-0.1h0.2l0,0
				l-0.2,0.2c-0.2,0.1-0.3,0.3-0.4,0.5c0.1,0,0.2,0,0.3-0.1c0.1-0.1,0.2-0.1,0.3-0.2l0.1-0.1h0.1l0.1-0.1c0.1-0.1,0.2-0.1,0.3-0.2
				c0.1,0,0.2-0.1,0.3-0.1c0,0,0.1,0,0.1,0c0,0,0,0,0,0.1s0,0,0.1,0l0.1-0.1h0.1l0,0l-0.2,0.2c-0.2,0.2-0.3,0.3-0.4,0.5
				c0.1,0,0.2,0,0.3-0.1c0.1-0.1,0.2-0.1,0.3-0.2l0.1-0.1l0,0c0,0,0.1-0.1,0.1-0.1c0.1-0.1,0.2-0.2,0.3-0.2c0-0.1,0-0.1,0.1-0.1
				c0,0,0.1,0,0.1,0l0,0l0,0c0,0,0,0.1,0,0.1c0,0-0.1,0.1-0.1,0.1c0,0,0,0.1,0.1,0.1c0,0,0,0.1,0,0.1c0,0.1,0,0.1,0,0.2
				c0,0.1-0.1,0.1-0.1,0.1c0.1-0.1,0.3-0.1,0.4-0.2l0.2-0.1l0,0l0,0c0,0,0,0-0.1,0.1l-0.2,0.1c-0.1,0.1-0.2,0.1-0.3,0.2
				C110.3,132.2,110.2,132.2,110.1,132.2c-0.1,0-0.1,0-0.2,0c0,0-0.1-0.1-0.1-0.1c0,0,0-0.1,0-0.1c0,0,0.1,0,0.1,0c0,0,0.1,0,0.1,0
				c0,0,0,0,0,0.1c0,0,0,0,0,0.1c0,0,0,0-0.1,0l0,0L110.1,132.2z M109.1,132.4c-0.2,0.1-0.4,0.2-0.5,0.3c-0.1,0.1-0.2,0.2-0.2,0.3
				c0,0,0,0,0,0.1l0,0c0.1,0,0.1,0,0.1-0.1c0.1-0.1,0.2-0.2,0.2-0.3L109.1,132.4L109.1,132.4z M109.3,132.1l0.4-0.4l0,0l0,0l0,0l0,0
				c0,0-0.1,0-0.1,0c-0.1,0-0.1,0.1-0.2,0.1c-0.1,0.1-0.2,0.2-0.2,0.3c0,0.1-0.1,0.1-0.1,0.2l0,0l0,0c0,0,0.1,0,0.1,0
				C109.2,132.2,109.2,132.2,109.3,132.1L109.3,132.1z M108.1,132.1l0.4-0.4l0,0l0,0l0,0l0,0c0,0-0.1,0-0.1,0
				c-0.1,0-0.1,0.1-0.2,0.1c-0.1,0.1-0.2,0.2-0.2,0.3c-0.1,0.1-0.1,0.1-0.1,0.2l0,0l0,0c0,0,0.1,0,0.1,0L108.1,132.1L108.1,132.1z
				 M107.1,132c0.1,0,0.2-0.1,0.3-0.1c0.1-0.1,0.1-0.1,0.1-0.2s0,0,0,0l0,0c-0.1,0-0.1,0-0.2,0.1C107.3,131.8,107.2,131.9,107.1,132
				L107.1,132z"/>
			<path class="st84" d="M104.9,134.1l0.5-0.7c-0.1,0-0.3,0-0.4,0.1c-0.1,0.1-0.2,0.3-0.1,0.5C104.9,134,104.9,134,104.9,134.1
				L104.9,134.1z M108.5,134.1c0.1-0.1,0.1-0.1,0.1-0.2c0,0,0-0.1,0-0.1l0,0l0,0c-0.1,0-0.1,0-0.1,0.1c-0.1,0.1-0.1,0.1-0.2,0.2
				c-0.1,0.1-0.1,0.1-0.1,0.2c0,0,0,0.1,0,0.1l0,0l0,0h0.1l0.1-0.1L108.5,134.1L108.5,134.1L108.5,134.1L108.5,134.1L108.5,134.1z
				 M108.4,134.1l-0.2,0.1c0,0-0.1,0-0.1,0c0,0-0.1,0-0.1,0c0,0,0-0.1,0-0.1c0-0.1,0-0.1,0-0.2c0-0.1,0.1-0.1,0.1-0.2
				c0.1-0.1,0.1-0.1,0.2-0.2c0.1,0,0.1-0.1,0.2-0.1c0,0,0.1,0,0.1,0c0,0,0,0.1,0,0.1c0,0.1,0,0.1-0.1,0.2
				C108.6,134,108.5,134,108.4,134.1l-0.1,0.1l-0.2,0.1l-0.2,0.1c0,0-0.1,0-0.1,0c0,0-0.1,0-0.1,0c0,0,0-0.1,0-0.1c0,0,0-0.1,0-0.1
				c0,0,0.1,0,0.1-0.1l0,0l0,0l0,0h-0.1l0,0l0,0c0,0,0,0,0,0.1h0.1c0.1,0,0.2,0,0.3-0.1c0.1-0.1,0.2-0.2,0.3-0.3L108.4,134.1z
				 M107.7,134.1c0.1-0.1,0.1-0.1,0.1-0.2c0,0,0.1-0.1,0.1-0.1c0,0,0-0.1-0.1-0.1c-0.1,0-0.1,0-0.1,0.1c-0.1,0.1-0.1,0.1-0.2,0.2
				c-0.1,0.1-0.1,0.1-0.1,0.2c0,0-0.1,0.1-0.1,0.1l0,0l0,0h0.1l0.1-0.1c0,0,0.1,0,0.1-0.1L107.7,134.1L107.7,134.1L107.7,134.1
				L107.7,134.1z M107.7,134.1c-0.1,0.1-0.2,0.2-0.3,0.3c-0.1,0.1-0.2,0.1-0.3,0.1H107c0,0,0,0,0-0.1l0,0l0,0h0.1l0,0l0,0l0,0
				c0,0-0.1,0-0.1,0.1c0,0,0,0.1,0,0.1c0,0,0,0.1,0,0.1c0,0,0.1,0,0.1,0c0,0,0.1,0,0.1,0l0.2-0.1l0.2-0.1l0.2-0.2
				c0.1-0.1,0.1-0.2,0.1-0.2c0-0.1,0.1-0.1,0.1-0.2c0,0,0-0.1,0-0.1c0,0-0.1,0-0.1,0c-0.1,0-0.1,0-0.2,0.1c-0.1,0-0.1,0.1-0.2,0.2
				c0,0.1-0.1,0.1-0.1,0.2c0,0.1,0,0.1,0,0.2c0,0,0,0.1,0,0.1c0,0,0.1,0,0.1,0c0,0,0.1,0,0.1,0l0.2-0.1L107.7,134.1z M106.7,134.6
				L106.7,134.6L106.7,134.6C106.7,134.6,106.7,134.6,106.7,134.6C106.7,134.5,106.7,134.5,106.7,134.6c0.1-0.1,0.1,0,0.1,0
				c0,0,0,0,0,0.1C106.8,134.7,106.7,134.7,106.7,134.6L106.7,134.6z M105.3,135l0.1-0.1h0.1c0.1,0,0.1,0,0.2,0.1l0.2,0.1
				c0.1,0,0.1,0,0.2-0.1l0.1-0.1l0,0l0,0l0,0H106l-0.1,0.1l-0.1,0.1c0,0-0.1,0-0.1,0c-0.1,0-0.1,0-0.2-0.1L105.3,135L105.3,135
				c-0.1,0-0.1,0-0.2,0l0,0l0,0c0,0,0-0.1,0-0.1c0,0,0-0.1,0.1-0.1c0.2-0.2,0.4-0.3,0.7-0.4l0.2-0.1c0.1,0,0.2-0.1,0.2-0.1
				c0.1-0.1,0.2-0.1,0.2-0.2c0.1-0.1,0.1-0.1,0.2-0.2c0,0,0.1-0.1,0.1-0.1c0,0,0-0.1,0-0.1c0,0-0.1,0-0.1,0c-0.1,0-0.1,0-0.2,0.1
				c-0.1,0-0.2,0.1-0.2,0.1c-0.1,0.1-0.2,0.1-0.2,0.2c0,0-0.1,0.1-0.1,0.1c0,0,0,0,0,0.1c0,0,0,0,0.1,0c0.1,0,0.1,0,0.2-0.1
				c0.1,0,0.1-0.1,0.2-0.2c0,0,0.1-0.1,0.1-0.1c0,0,0-0.1,0.1-0.1s0,0,0,0l0,0c0,0,0,0,0,0.1c0,0,0,0.1-0.1,0.1
				c-0.1,0.1-0.1,0.2-0.2,0.2c-0.1,0-0.1,0.1-0.2,0.1c0,0-0.1,0-0.1,0c0,0-0.1-0.1-0.1-0.1c0,0,0-0.1,0-0.1c0-0.1,0.1-0.1,0.1-0.2
				c0.1-0.1,0.2-0.1,0.3-0.2c0.1,0,0.2-0.1,0.3-0.1c0.1,0,0.2,0,0.2,0.1c0.1,0,0.1,0.1,0.1,0.2c0,0.1,0,0.2-0.1,0.3
				c-0.1,0.1-0.2,0.2-0.4,0.3l-0.4,0.1l-0.3,0.1l-0.3,0.1C105.3,134.9,105.2,134.9,105.3,135L105.3,135z M104.3,135.2L104.3,135.2
				c0.2,0,0.3,0,0.4-0.1c0.1-0.1,0.2-0.2,0.1-0.4c0,0,0-0.1,0-0.1s0-0.1,0-0.1L104.3,135.2L104.3,135.2z M103.9,135.6L103.9,135.6
				C103.9,135.6,103.9,135.6,103.9,135.6L103.9,135.6L103.9,135.6L103.9,135.6L103.9,135.6l0.2-0.4c-0.1,0-0.2-0.1-0.2-0.2
				c0-0.1-0.1-0.2-0.1-0.2c0,0,0-0.1,0-0.1s0,0,0,0l0,0l0,0l0,0v0.1c0,0.1,0,0.1,0.1,0.2c0,0.1,0.1,0.1,0.2,0.1l0.6-0.8
				c0-0.1,0-0.1,0-0.2V134c0-0.2,0.1-0.4,0.2-0.5c0.1-0.1,0.3-0.2,0.5-0.2h0.1l0.1-0.2l0,0c0,0,0,0,0.1,0l0,0l0,0l0,0l0,0l-0.1,0.2
				c0.1,0,0.1,0.1,0.2,0.1c0,0.1,0.1,0.1,0.1,0.2l0,0l0,0c0,0,0,0,0-0.1l0,0c0,0,0-0.1-0.1-0.1c0,0-0.1,0-0.1-0.1l-0.6,0.8
				c0,0.1,0,0.1,0,0.2c0,0.1,0,0.1,0,0.2c0,0.2-0.1,0.4-0.2,0.5c-0.1,0.1-0.3,0.2-0.5,0.2h-0.1L103.9,135.6z"/>
			<polygon class="st162" points="23.8,97.3 25.3,98.2 26.9,99.1 27.8,100.7 28.7,102.2 28.7,104 28.7,105.8 27.8,107.3 26.9,108.9 
				25.3,109.8 23.8,110.7 22,110.7 20.2,110.7 18.7,109.8 17.1,108.9 16.2,107.3 15.3,105.8 15.3,104 15.3,102.2 16.2,100.7 
				17.1,99.1 18.7,98.2 20.2,97.3 22,97.3 			"/>
			<path class="st163" d="M20.1,106.9v-2.4h0.4v2H21v-2h2.6v2.7h-3.4V106.9L20.1,106.9z M23,102.6c0.1-0.1,0.2-0.3,0-0.5
				c0,0,0,0,0,0c0.3,0,0.5,0.2,0.5,0.5c0,0,0,0,0,0h0.5c0.2,0,0.4-0.2,0.4-0.4c0-0.2-0.2-0.4-0.4-0.4h-0.3l0.1-0.3c0,0,0-0.1,0-0.2
				c0-0.3-0.2-0.5-0.5-0.5l0,0c-0.3,0-0.5,0.2-0.5,0.5c-0.2-0.2-0.2-0.5,0-0.7c0,0,0,0,0,0c-0.2-0.2-0.6-0.4-0.9-0.4
				c-0.3,0-0.6,0.1-0.9,0.4l-0.1,0.1l-0.1-0.1c-0.1,0-0.1,0-0.2,0c-0.2,0-0.3,0.1-0.3,0.3l0,0c0,0.2,0.1,0.4,0.2,0.4
				c0,0,0.1,0,0.1,0c-0.2,0.1-0.5,0.1-0.7-0.1c0,0,0,0,0-0.1c-0.3,0.1-0.5,0.4-0.5,0.8c0,0.5,0.4,0.8,0.9,0.8l0,0h0.5v0.8
				c0,0.2,0.1,0.3,0.3,0.3l0,0c0.2,0,0.3-0.1,0.3-0.3v-0.8h0.9v0.4c0,0.1,0.2,0.1,0.2,0v-0.4L23,102.6z M20.9,104.1
				c-0.4,0-0.7-0.3-0.7-0.7l0,0V103l0,0c-0.1,0-0.2,0-0.3,0v4.3c0,0.1,0.1,0.1,0.1,0.1l0,0h3.8c0.1,0,0.1-0.1,0.1-0.1l0,0v-1l0,0
				v-2.8l0,0V103h-1.1c0,0.3-0.3,0.6-0.6,0.6c-0.3,0-0.6-0.3-0.6-0.6l0,0v0.3C21.7,103.7,21.3,104.1,20.9,104.1L20.9,104.1
				L20.9,104.1z M19.4,102.8v4.6c0,0.3,0.3,0.6,0.6,0.6c0,0,0,0,0,0h3.9c0.3,0,0.6-0.3,0.6-0.6v-0.7h0.4c0.7,0,1.3-0.6,1.3-1.3v-0.8
				c0-0.7-0.6-1.3-1.3-1.3h-0.4V103c0.4-0.2,0.6-0.8,0.4-1.2c-0.1-0.2-0.3-0.4-0.6-0.5l0,0c0-0.5-0.4-1-0.9-1
				c-0.5-0.8-1.6-1-2.4-0.4c0,0-0.1,0.1-0.1,0.1c-0.4-0.1-0.8,0.1-1,0.4c-0.7,0.2-1.1,0.9-1,1.6C18.9,102.3,19.1,102.6,19.4,102.8
				L19.4,102.8z M24.4,106.1v-2.4h0.4c0.4,0,0.8,0.4,0.8,0.8v0.8c0,0.4-0.4,0.8-0.8,0.8H24.4z"/>
			<path class="st164" d="M102.9,87.5h-7.4v-0.4h0.8v-1.6H92v-0.4h6.9v-1.6h-3v-0.4h4.9v0.4h-1.5v1.6h5v0.4H102v1.6h0.8L102.9,87.5z
				 M96.7,87.1h5v-1.6h-5V87.1z"/>
			<polygon class="st164" points="37.2,84.1 36.8,84.1 36.8,82.2 34.1,82.2 34.1,81.8 39.4,81.8 39.4,80.2 36.4,80.2 36.4,79.8 
				41.3,79.8 41.3,80.2 39.8,80.2 39.8,81.8 40.9,81.8 40.9,82.2 37.2,82.2 			"/>
			<path class="st163" d="M23.6,98.1l1.3,0.8l0,0l1.3,0.8l0,0l0,0l0.8,1.3l0,0l0.8,1.3l0,0v3.2v0.1l-0.8,1.3l-0.8,1.3l0,0l0,0
				l-1.3,0.8l0,0l-1.3,0.8h-0.1h-3.2h-0.1l-1.3-0.8l0,0l-1.3-0.8l0,0l0,0l-0.8-1.3l0,0l-0.8-1.3v-0.1v-3.2l0,0l0.8-1.3l0,0l0.8-1.3
				v-0.1l0,0l1.3-0.8l0,0l1.3-0.8h0.1L23.6,98.1L23.6,98.1L23.6,98.1z M24.8,99.2l-1.3-0.7h-3l-1.3,0.7l0,0L18,100l-0.7,1.3l0,0
				l-0.7,1.3v3l0.7,1.3l0,0l0.7,1.3l1.3,0.7l0,0l1.3,0.7h3l1.3-0.7l0,0l1.3-0.7l0.7-1.3l0.7-1.3v-3l-0.7-1.3l0,0l-0.7-1.3L24.8,99.2
				z"/>
			
				<linearGradient id="SVGID_130_" gradientUnits="userSpaceOnUse" x1="25.1601" y1="16.9034" x2="23.7001" y2="16.9534" gradientTransform="matrix(1 0 0 -1 0 142)">
				<stop  offset="0" style="stop-color:#D7BA9E"/>
				<stop  offset="1" style="stop-color:#AC8888"/>
			</linearGradient>
			<polygon class="st165" points="21.7,125.4 25.4,125.4 24.2,125.2 26.2,125.2 25.3,125.1 29,124.8 24.5,124.8 25.5,124.6 
				21.9,124.6 20.1,124.4 20.1,125.2 20.2,125.2 20.2,125.4 21.7,125.3 			"/>
			
				<linearGradient id="SVGID_131_" gradientUnits="userSpaceOnUse" x1="20.3513" y1="21.2808" x2="22.4413" y2="17.9408" gradientTransform="matrix(1 0 0 -1 0 142)">
				<stop  offset="0" style="stop-color:#B6C881"/>
				<stop  offset="1" style="stop-color:#8C9579"/>
			</linearGradient>
			<path class="st166" d="M21.6,118l1.3,7.4h-2.6L21.6,118z"/>
			
				<linearGradient id="SVGID_132_" gradientUnits="userSpaceOnUse" x1="21.5609" y1="20.8743" x2="23.3309" y2="18.0543" gradientTransform="matrix(1 0 0 -1 0 142)">
				<stop  offset="0" style="stop-color:#B6C881"/>
				<stop  offset="1" style="stop-color:#8C9579"/>
			</linearGradient>
			<path class="st167" d="M22.6,118.8l0.7,6.6h-1.5L22.6,118.8z"/>
			
				<linearGradient id="SVGID_133_" gradientUnits="userSpaceOnUse" x1="23.3893" y1="17.7395" x2="25.4293" y2="15.0395" gradientTransform="matrix(1 0 0 -1 0 142)">
				<stop  offset="0" style="stop-color:#B6C881"/>
				<stop  offset="1" style="stop-color:#8C9579"/>
			</linearGradient>
			<path class="st168" d="M23.2,121.7l0.6,3.7h-1.3L23.2,121.7z"/>
			
				<linearGradient id="SVGID_134_" gradientUnits="userSpaceOnUse" x1="16.4118" y1="29.2807" x2="23.4518" y2="10.9407" gradientTransform="matrix(1 0 0 -1 0 142)">
				<stop  offset="0" style="stop-color:#B6C881"/>
				<stop  offset="1" style="stop-color:#D1E17F"/>
			</linearGradient>
			<path class="st169" d="M20.3,115.7l1.7,9.8h-3.4L20.3,115.7z"/>
			
				<linearGradient id="SVGID_135_" gradientUnits="userSpaceOnUse" x1="20.0125" y1="18.5131" x2="18.3125" y2="17.8932" gradientTransform="matrix(1 0 0 -1 0 142)">
				<stop  offset="0" style="stop-color:#B6C881"/>
				<stop  offset="1" style="stop-color:#8C9579"/>
			</linearGradient>
			<polygon class="st170" points="20.9,125.4 18.6,125.4 19.2,121.5 			"/>
			
				<linearGradient id="SVGID_136_" gradientUnits="userSpaceOnUse" x1="13.8443" y1="27.712" x2="23.5043" y2="7.002" gradientTransform="matrix(1 0 0 -1 0 142)">
				<stop  offset="0" style="stop-color:#B6C881"/>
				<stop  offset="1" style="stop-color:#D1E17F"/>
			</linearGradient>
			<path class="st171" d="M18.4,119.7l1.3,5.7H17L18.4,119.7z"/>
			
				<linearGradient id="SVGID_137_" gradientUnits="userSpaceOnUse" x1="21.8997" y1="-10.7069" x2="19.6897" y2="-3.9068" gradientTransform="matrix(1 0 0 -1 0 142)">
				<stop  offset="0" style="stop-color:#876075"/>
				<stop  offset="1" style="stop-color:#9F7276"/>
			</linearGradient>
			<rect x="3" y="134.3" class="st172" width="26.4" height="1.4"/>
			
				<linearGradient id="SVGID_138_" gradientUnits="userSpaceOnUse" x1="22.8297" y1="-10.4869" x2="20.5697" y2="-3.5368" gradientTransform="matrix(1 0 0 -1 0 142)">
				<stop  offset="0" style="stop-color:#876075"/>
				<stop  offset="1" style="stop-color:#9F7276"/>
			</linearGradient>
			<rect x="3" y="131.2" class="st173" width="26.4" height="1.4"/>
			
				<linearGradient id="SVGID_139_" gradientUnits="userSpaceOnUse" x1="4.2649" y1="3.2715" x2="1.4249" y2="12.5715" gradientTransform="matrix(1 0 0 -1 0 142)">
				<stop  offset="0" style="stop-color:#876075"/>
				<stop  offset="1" style="stop-color:#9F7276"/>
			</linearGradient>
			<polygon class="st174" points="4.5,128.6 4.5,137.2 0.5,137.2 0.5,128.6 2,126.6 2.4,126.6 			"/>
			<polygon class="st175" points="4.5,128.6 4.1,128.6 1.3,131.5 0.5,128.6 2,126.6 2.4,126.6 			"/>
			<polygon class="st158" points="4.1,128.6 4.1,137.2 0,137.2 0,128.6 2,126.6 			"/>
			
				<linearGradient id="SVGID_140_" gradientUnits="userSpaceOnUse" x1="9.1403" y1="3.2701" x2="6.3003" y2="12.5701" gradientTransform="matrix(1 0 0 -1 0 142)">
				<stop  offset="0" style="stop-color:#876075"/>
				<stop  offset="1" style="stop-color:#9F7276"/>
			</linearGradient>
			<polygon class="st176" points="9.3,128.6 9.3,137.2 5.4,137.2 5.4,128.6 6.9,126.6 7.3,126.6 			"/>
			<polygon class="st175" points="9.3,128.6 9,128.6 6.1,131.5 5.4,128.6 6.9,126.6 7.3,126.6 			"/>
			<polygon class="st158" points="9,128.6 9,137.2 4.9,137.2 4.9,128.6 6.9,126.6 			"/>
			
				<linearGradient id="SVGID_141_" gradientUnits="userSpaceOnUse" x1="14.0149" y1="3.2715" x2="11.1749" y2="12.5715" gradientTransform="matrix(1 0 0 -1 0 142)">
				<stop  offset="0" style="stop-color:#876075"/>
				<stop  offset="1" style="stop-color:#9F7276"/>
			</linearGradient>
			<polygon class="st177" points="14.2,128.6 14.2,137.2 10.3,137.2 10.3,128.6 11.8,126.6 12.2,126.6 			"/>
			<polygon class="st175" points="14.2,128.6 13.8,128.6 11,131.5 10.3,128.6 11.8,126.6 12.2,126.6 			"/>
			<polygon class="st158" points="13.8,128.6 13.8,137.2 9.8,137.2 9.8,128.6 11.8,126.6 			"/>
			
				<linearGradient id="SVGID_142_" gradientUnits="userSpaceOnUse" x1="18.8903" y1="3.2701" x2="16.0503" y2="12.5701" gradientTransform="matrix(1 0 0 -1 0 142)">
				<stop  offset="0" style="stop-color:#876075"/>
				<stop  offset="1" style="stop-color:#9F7276"/>
			</linearGradient>
			<polygon class="st178" points="19.1,128.6 19.1,137.2 15.1,137.2 15.1,128.6 16.7,126.6 17,126.6 			"/>
			<polygon class="st175" points="19.1,128.6 18.7,128.6 15.9,131.5 15.1,128.6 16.7,126.6 17,126.6 			"/>
			<polygon class="st158" points="18.7,128.6 18.7,137.2 14.6,137.2 14.6,128.6 16.7,126.6 			"/>
			
				<linearGradient id="SVGID_143_" gradientUnits="userSpaceOnUse" x1="23.7649" y1="3.2715" x2="20.9249" y2="12.5715" gradientTransform="matrix(1 0 0 -1 0 142)">
				<stop  offset="0" style="stop-color:#876075"/>
				<stop  offset="1" style="stop-color:#9F7276"/>
			</linearGradient>
			<polygon class="st179" points="24,128.6 24,137.2 20,137.2 20,128.6 21.5,126.6 21.9,126.6 			"/>
			<polygon class="st175" points="24,128.6 23.6,128.6 20.8,131.5 20,128.6 21.5,126.6 21.9,126.6 			"/>
			<polygon class="st158" points="23.6,128.6 23.6,137.2 19.5,137.2 19.5,128.6 21.5,126.6 			"/>
			
				<linearGradient id="SVGID_144_" gradientUnits="userSpaceOnUse" x1="28.6403" y1="3.2701" x2="25.8003" y2="12.5701" gradientTransform="matrix(1 0 0 -1 0 142)">
				<stop  offset="0" style="stop-color:#876075"/>
				<stop  offset="1" style="stop-color:#9F7276"/>
			</linearGradient>
			<polygon class="st180" points="28.8,128.6 28.8,137.2 24.9,137.2 24.9,128.6 26.4,126.6 26.8,126.6 			"/>
			<polygon class="st175" points="28.8,128.6 28.5,128.6 25.6,131.5 24.9,128.6 26.4,126.6 26.8,126.6 			"/>
			<polygon class="st158" points="28.5,128.6 28.5,137.2 24.4,137.2 24.4,128.6 26.4,126.6 			"/>
			<polygon class="st158" points="4.1,128.6 4.1,137.2 0,137.2 0,128.6 2,126.6 			"/>
			
				<linearGradient id="SVGID_145_" gradientUnits="userSpaceOnUse" x1="137.4299" y1="22.6972" x2="119.9599" y2="23.3072" gradientTransform="matrix(1 0 0 -1 0 142)">
				<stop  offset="0" style="stop-color:#D7BA9E"/>
				<stop  offset="1" style="stop-color:#AC8888"/>
			</linearGradient>
			<polygon class="st181" points="117.1,118.9 125.8,119.5 144.3,118.9 120.9,118.3 			"/>
			
				<linearGradient id="SVGID_146_" gradientUnits="userSpaceOnUse" x1="119.0369" y1="22.8935" x2="121.3469" y2="24.9635" gradientTransform="matrix(1 0 0 -1 0 142)">
				<stop  offset="0" style="stop-color:#785569"/>
				<stop  offset="1" style="stop-color:#533F4E"/>
			</linearGradient>
			<rect x="120" y="115.5" class="st182" width="2.4" height="3.4"/>
			
				<linearGradient id="SVGID_147_" gradientUnits="userSpaceOnUse" x1="123.9695" y1="26.4597" x2="105.3895" y2="64.5498" gradientTransform="matrix(1 0 0 -1 0 142)">
				<stop  offset="0" style="stop-color:#B6C881"/>
				<stop  offset="1" style="stop-color:#D1E17F"/>
			</linearGradient>
			<polygon class="st183" points="121.2,90.3 127.4,116.5 114.9,116.5 			"/>
			
				<linearGradient id="SVGID_148_" gradientUnits="userSpaceOnUse" x1="119.6688" y1="50.9797" x2="124.6588" y2="29.3397" gradientTransform="matrix(1 0 0 -1 0 142)">
				<stop  offset="0" style="stop-color:#8C9679"/>
				<stop  offset="1" style="stop-color:#8A9277"/>
			</linearGradient>
			<polygon class="st184" points="121.2,90.3 127.4,116.5 123.6,116.5 			"/>
			
				<linearGradient id="SVGID_149_" gradientUnits="userSpaceOnUse" x1="72.7" y1="19.72" x2="74.45" y2="19.72" gradientTransform="matrix(1 0 0 -1 0 142)">
				<stop  offset="0" style="stop-color:#A99A9C"/>
				<stop  offset="1" style="stop-color:#82617B"/>
			</linearGradient>
			<rect x="73.2" y="112.1" class="st185" width="0.6" height="20.4"/>
			
				<linearGradient id="SVGID_150_" gradientUnits="userSpaceOnUse" x1="81.04" y1="18.18" x2="82.79" y2="18.18" gradientTransform="matrix(1 0 0 -1 0 142)">
				<stop  offset="0" style="stop-color:#A99A9C"/>
				<stop  offset="1" style="stop-color:#82617B"/>
			</linearGradient>
			<rect x="81.6" y="112.1" class="st186" width="0.6" height="23.4"/>
			
				<linearGradient id="SVGID_151_" gradientUnits="userSpaceOnUse" x1="96.36" y1="17.36" x2="98.11" y2="17.36" gradientTransform="matrix(1 0 0 -1 0 142)">
				<stop  offset="0" style="stop-color:#A99A9C"/>
				<stop  offset="1" style="stop-color:#82617B"/>
			</linearGradient>
			<rect x="96.9" y="112.1" class="st187" width="0.6" height="25.1"/>
			
				<linearGradient id="SVGID_152_" gradientUnits="userSpaceOnUse" x1="39.65" y1="20.535" x2="41.72" y2="20.535" gradientTransform="matrix(1 0 0 -1 0 142)">
				<stop  offset="0" style="stop-color:#A99A9C"/>
				<stop  offset="1" style="stop-color:#82617B"/>
			</linearGradient>
			<rect x="40.2" y="112.1" class="st188" width="0.6" height="18.7"/>
		</g>
	</g>
</g>
</svg>
